…
```
## Joining with `by = join_by(parent.pop, pop.mf)`
```

``` r
mf_sample_size <- anncens_surv_mfs_bothsites %>% 
  count(parent.pop, pop.mf, Site) %>% 
  arrange(n)
mf_sample_size #24 mfs with data at both sites 
```

```
## # A tibble: 48 × 4
## # Groups:   pop.mf, parent.pop [24]
##    pop.mf parent.pop Site      n
##    <chr>  <chr>      <chr> <int>
##  1 BH_1   BH         UCD       1
##  2 CP2_1  CP2        UCD       1
##  3 DPR_5  DPR        UCD       1
##  4 DPR_6  DPR        UCD       1
##  5 IH_4   IH         UCD       1
##  6 IH_6   IH         UCD       1
##  7 SC_4   SC         UCD       1
##  8 SC_5   SC         UCD       1
##  9 SQ3_4  SQ3        UCD       1
## 10 TM2_6  TM2        UCD       1
## # ℹ 38 more rows
```
…
