…
```r
flint_recent_grwseason %>% filter(parent.pop=="DPR")
```

```
## # A tibble: 300 × 11
##    month parent.pop elevation.group elev_m PckSum  year   cwd   pck     ppt
##    <dbl> <chr>      <chr>            <dbl>  <dbl> <dbl> <dbl> <dbl>   <dbl>
##  1     3 DPR        Mid              1019.   107.  1992 29.4     0  136.   
##  2     4 DPR        Mid              1019.   107.  1992 45.3     0   62.4  
##  3     5 DPR        Mid              1019.   107.  1992 44.2     0    1.92 
##  4     6 DPR        Mid              1019.   107.  1992  0       0   50.3  
##  5     7 DPR        Mid              1019.   107.  1992 37.7     0    0    
##  6     8 DPR        Mid              1019.   107.  1992 41.0     0    0    
##  7     9 DPR        Mid              1019.   107.  1992 55.1     0    0.510
##  8    10 DPR        Mid              1019.   107.  1992 39.0     0  138.   
##  9    11 DPR        Mid              1019.   107.  1992 18.3     0   30.1  
## 10    12 DPR        Mid              1019.   107.  1992  9.90  119. 391.   
## # ℹ 290 more rows
## # ℹ 2 more variables: tmn <dbl>, tmx <dbl>
```
…
```
## `summarise()` has grouped output by 'parent.pop', 'elevation.group', 'elev_m'.
## You can override using the `.groups` argument.
```

```r
bioclim_recent_calc
```

```
## # A tibble: 690 × 10
## # Groups:   parent.pop, elevation.group, elev_m [23]
##    parent.pop elevation.group elev_m  year ann_tmean mean_diurnal_range
##    <chr>      <chr>            <dbl> <dbl>     <dbl>              <dbl>
##  1 BH         Low               511.  1992      13.4               13.0
##  2 BH         Low               511.  1993      12.3               13.0
##  3 BH         Low               511.  1994      12.7               14.0
##  4 BH         Low               511.  1995      12.4               11.8
##  5 BH         Low               511.  1996      13.4               13.0
##  6 BH         Low               511.  1997      13.5               13.8
##  7 BH         Low               511.  1998      11.0               11.6
##  8 BH         Low               511.  1999      11.7               14.0
##  9 BH         Low               511.  2000      13.6               14.0
## 10 BH         Low               511.  2001      13.1               13.9
## # ℹ 680 more rows
## # ℹ 4 more variables: temp_seasonality <dbl>, temp_ann_range <dbl>,
## #   ann_ppt <dbl>, ppt_seasonality <dbl>
```
…
```
## `summarise()` has grouped output by 'parent.pop', 'elevation.group', 'elev_m'.
## You can override using the `.groups` argument.
```

```r
bioclim_historical_calc
```

```
## # A tibble: 690 × 10
## # Groups:   parent.pop, elevation.group, elev_m [23]
##    parent.pop elevation.group elev_m  year ann_tmean mean_diurnal_range
##    <chr>      <chr>            <dbl> <dbl>     <dbl>              <dbl>
##  1 BH         Low               511.  1962      11.7               14.9
##  2 BH         Low               511.  1963      11.1               13.1
##  3 BH         Low               511.  1964      11.0               14.1
##  4 BH         Low               511.  1965      11.2               13.5
##  5 BH         Low               511.  1966      12.5               14.5
##  6 BH         Low               511.  1967      11.0               13.6
##  7 BH         Low               511.  1968      12.2               14.5
##  8 BH         Low               511.  1969      11.6               13.7
##  9 BH         Low               511.  1970      12.3               14.5
## 10 BH         Low               511.  1971      10.7               14.0
## # ℹ 680 more rows
## # ℹ 4 more variables: temp_seasonality <dbl>, temp_ann_range <dbl>,
## #   ann_ppt <dbl>, ppt_seasonality <dbl>
```
…
## Averages

### Recent Years - BioClim

```r
bioclim_recent_avgs <- bioclim_recent %>% group_by(parent.pop, elevation.group, elev_m) %>%
  summarise_at(c("ann_tmean", "mean_diurnal_range", "temp_seasonality", "temp_ann_range", "tmean_wettest_month", "tmean_driest_month", "ann_ppt", "ppt_seasonality","ppt_warmest_month", "ppt_coldest_month"), c(mean, sem), na.rm = TRUE) 
names(bioclim_recent_avgs) <- gsub("fn2", "sem", colnames(bioclim_recent_avgs))
names(bioclim_recent_avgs) <-gsub("fn1", "avg", colnames(bioclim_recent_avgs))
bioclim_recent_avgs
```

```
## # A tibble: 23 × 23
## # Groups:   parent.pop, elevation.group [23]
##    parent.pop elevation.group elev_m ann_tmean_avg mean_diurnal_range_avg
##    <chr>      <chr>            <dbl>         <dbl>                  <dbl>
##  1 BH         Low               511.         12.9                    13.5
##  2 CC         Low               313          13.3                    11.9
##  3 CP2        High             2244.         10.1                    12.7
##  4 CP3        High             2266.          9.46                   12.5
##  5 DPR        Mid              1019.         15.4                    13.0
##  6 FR         Mid               787          14.9                    15.8
##  7 IH         Low               454.         14.6                    13.2
##  8 LV1        High             2593.          9.27                   14.2
##  9 LV3        High             2354.          9.24                   14.1
## 10 LVTR1      High             2741.          9.06                   14.3
## # ℹ 13 more rows
## # ℹ 18 more variables: temp_seasonality_avg <dbl>, temp_ann_range_avg <dbl>,
## #   tmean_wettest_month_avg <dbl>, tmean_driest_month_avg <dbl>,
## #   ann_ppt_avg <dbl>, ppt_seasonality_avg <dbl>, ppt_warmest_month_avg <dbl>,
## #   ppt_coldest_month_avg <dbl>, ann_tmean_sem <dbl>,
## #   mean_diurnal_range_sem <dbl>, temp_seasonality_sem <dbl>,
## #   temp_ann_range_sem <dbl>, tmean_wettest_month_sem <dbl>, …
```
…
```r
bioclim_historical_avgs <- bioclim_historical %>% group_by(parent.pop, elevation.group, elev_m) %>%
  summarise_at(c("ann_tmean", "mean_diurnal_range", "temp_seasonality", "temp_ann_range", "tmean_wettest_month", "tmean_driest_month", "ann_ppt", "ppt_seasonality","ppt_warmest_month", "ppt_coldest_month"), c(mean, sem), na.rm = TRUE) 
names(bioclim_historical_avgs) <- gsub("fn2", "sem", colnames(bioclim_historical_avgs))
names(bioclim_historical_avgs) <-gsub("fn1", "avg", colnames(bioclim_historical_avgs))
bioclim_historical_avgs
```

```
## # A tibble: 23 × 23
## # Groups:   parent.pop, elevation.group [23]
##    parent.pop elevation.group elev_m ann_tmean_avg mean_diurnal_range_avg
##    <chr>      <chr>            <dbl>         <dbl>                  <dbl>
##  1 BH         Low               511.         11.9                    13.8
##  2 CC         Low               313          14.0                    13.2
##  3 CP2        High             2244.         10.8                    13.7
##  4 CP3        High             2266.         10.2                    13.3
##  5 DPR        Mid              1019.         15.1                    14.2
##  6 FR         Mid               787          14.3                    17.1
##  7 IH         Low               454.         13.9                    13.8
##  8 LV1        High             2593.          6.36                   15.0
##  9 LV3        High             2354.          6.30                   15.0
## 10 LVTR1      High             2741.          6.18                   15.0
## # ℹ 13 more rows
## # ℹ 18 more variables: temp_seasonality_avg <dbl>, temp_ann_range_avg <dbl>,
## #   tmean_wettest_month_avg <dbl>, tmean_driest_month_avg <dbl>,
## #   ann_ppt_avg <dbl>, ppt_seasonality_avg <dbl>, ppt_warmest_month_avg <dbl>,
## #   ppt_coldest_month_avg <dbl>, ann_tmean_sem <dbl>,
## #   mean_diurnal_range_sem <dbl>, temp_seasonality_sem <dbl>,
## #   temp_ann_range_sem <dbl>, tmean_wettest_month_sem <dbl>, …
```
…
```
##  [1] "parent.pop"          "elevation.group"     "elev_m"             
##  [4] "year"                "ann_tmean"           "mean_diurnal_range" 
##  [7] "temp_seasonality"    "temp_ann_range"      "ann_ppt"            
## [10] "ppt_seasonality"     "tmean_wettest_month" "tmean_driest_month" 
## [13] "ppt_warmest_month"   "ppt_coldest_month"
```

```r
bioclim_recent <- tibble(bioclim_recent)
bioclim_recent %>% cor_test(ann_tmean:ppt_coldest_month, method = "pearson")
```

```
## # A tibble: 100 × 8
##    var1      var2              cor statistic         p conf.low conf.high method
##    <chr>     <chr>           <dbl>     <dbl>     <dbl>    <dbl>     <dbl> <chr> 
##  1 ann_tmean ann_tmean      1        1.76e+9 0           1        1       Pears…
##  2 ann_tmean mean_diurnal… -0.032   -8.44e-1 3.99e-  1  -0.107    0.0426  Pears…
##  3 ann_tmean temp_seasona… -0.073   -1.92e+0 5.51e-  2  -0.147    0.00159 Pears…
##  4 ann_tmean temp_ann_ran…  0.31     8.55e+0 7.82e- 17   0.241    0.376   Pears…
##  5 ann_tmean ann_ppt        0.41     1.19e+1 1.25e- 29   0.348    0.472   Pears…
##  6 ann_tmean ppt_seasonal… -0.0031  -8.19e-2 9.35e-  1  -0.0777   0.0715  Pears…
##  7 ann_tmean tmean_wettes…  0.53     1.63e+1 9.31e- 51   0.472    0.580   Pears…
##  8 ann_tmean tmean_driest…  0.7      2.60e+1 4.39e-104   0.664    0.739   Pears…
##  9 ann_tmean ppt_warmest_… -0.25    -6.87e+0 1.46e- 11  -0.322   -0.182   Pears…
## 10 ann_tmean ppt_coldest_…  0.2      5.27e+0 1.83e-  7   0.124    0.268   Pears…
## # ℹ 90 more rows
```
…
```
## quartz_off_screen 
##                 2
```

```r
bioclim_historical <- tibble(bioclim_historical)
bioclim_historical %>% cor_test(ann_tmean:ppt_coldest_month, method = "pearson")
```

```
## # A tibble: 100 × 8
##    var1      var2              cor statistic         p conf.low conf.high method
##    <chr>     <chr>           <dbl>     <dbl>     <dbl>    <dbl>     <dbl> <chr> 
##  1 ann_tmean ann_tmean      1        Inf     0           1         1      Pears…
##  2 ann_tmean mean_diurnal…  0.036      0.945 3.45e-  1  -0.0387    0.110  Pears…
##  3 ann_tmean temp_seasona…  0.24       6.53  1.29e- 10   0.170     0.311  Pears…
##  4 ann_tmean temp_ann_ran…  0.56      17.8   1.19e- 58   0.508     0.611  Pears…
##  5 ann_tmean ann_ppt        0.26       7.18  1.84e- 12   0.193     0.332  Pears…
##  6 ann_tmean ppt_seasonal…  0.16       4.32  1.76e-  5   0.0891    0.234  Pears…
##  7 ann_tmean tmean_wettes…  0.57      18.0   6.93e- 60   0.514     0.615  Pears…
##  8 ann_tmean tmean_driest…  0.77      31.8   2.23e-137   0.740     0.800  Pears…
##  9 ann_tmean ppt_warmest_… -0.33      -9.14  7.08e- 19  -0.394    -0.261  Pears…
## 10 ann_tmean ppt_coldest_…  0.0078     0.206 8.37e-  1  -0.0668    0.0824 Pears…
## # ℹ 90 more rows
```
…
