…
## Data Summaries

### Maternal family sample sizes upon transplant

``` r
wl2_establishment %>% 
  unite(pop.mf, pop:mf, remove = FALSE) %>% 
  group_by(pop.mf) %>% 
  summarise(n=n()) %>% 
  arrange(pop.mf) #number of plants per maternal family 
```

```
## # A tibble: 148 × 2
##    pop.mf     n
##    <chr>  <int>
##  1 BH_1      13
##  2 BH_2      13
##  3 BH_3      13
##  4 BH_4      13
##  5 BH_5      13
##  6 BH_6      13
##  7 BH_7      13
##  8 CC_1      13
##  9 CC_2      13
## 10 CC_3      13
## # ℹ 138 more rows
```

``` r
wl2_establishment %>% 
  select(pop, mf) %>% 
  distinct() %>% 
  group_by(pop) %>% 
  summarise(n=n()) %>% 
  arrange(n) #number of mfs per pop
```

```
## # A tibble: 23 × 2
##    pop       n
##    <chr> <int>
##  1 WV        2
##  2 WR        3
##  3 LV3       6
##  4 SC        6
##  5 SQ1       6
##  6 WL1       6
##  7 BH        7
##  8 CC        7
##  9 CP2       7
## 10 CP3       7
## # ℹ 13 more rows
```
…
```
## Joining with `by = join_by(pop, elev_m, Wtr_Year_GD_Recent)`
## Joining with `by = join_by(pop, elev_m, Wtr_Year_GD_Recent)`
## Joining with `by = join_by(pop, elev_m, Wtr_Year_GD_Recent)`
## Joining with `by = join_by(pop, elev_m)`
## Joining with `by = join_by(pop, elev_m)`
## Joining with `by = join_by(pop, elev_m)`
```

``` r
all_fitness
```

```
## # A tibble: 23 × 9
##    pop   elev_m meanEst meanY1Surv meanSurvtoBudY1 meanFruitsY1 meanWintSurv
##    <chr>  <dbl>   <dbl>      <dbl>           <dbl>        <dbl>        <dbl>
##  1 BH      511.   0.615      0.946           0               NA        0.547
##  2 CC      313    0.648      0.864           0               NA        0.327
##  3 CP2    2244.   0.511      0.340           0               NA        0    
##  4 CP3    2266.   0.385      0.429           0               NA        0    
##  5 DPR    1019.   0.473      0.744           0               NA        0    
##  6 FR      787    0.354      0.294           0.118           NA        0    
##  7 IH      454.   0.663      0.902           0               NA        0.618
##  8 LV1    2593.   0.264      0.208           0               NA        0.2  
##  9 LV3    2354.   0.333      0.333           0               NA        0    
## 10 LVTR1  2741.   0.264      0.208           0               NA        0    
## # ℹ 13 more rows
## # ℹ 2 more variables: meanSurvtoBudY2 <dbl>, meanFruitsY2 <dbl>
```
…
