…
### Yearly averages for Flint (for climate distance calc)

``` r
flint_all_year_recent_yravgs <- flint_all_year_recent %>% 
  group_by(parent.pop, elevation.group, elev_m, Lat, Long, wtr_yr) %>% 
  summarise_at(c("cwd",  "pck", "ppt", "tmn", "tmx"), c(mean), na.rm = TRUE) %>% 
  rename(year=wtr_yr)
flint_all_year_recent_yravgs
```

```
## # A tibble: 690 × 11
## # Groups:   parent.pop, elevation.group, elev_m, Lat, Long [23]
##    parent.pop elevation.group elev_m   Lat  Long  year   cwd   pck   ppt   tmn
##    <chr>      <chr>            <dbl> <dbl> <dbl> <dbl> <dbl> <dbl> <dbl> <dbl>
##  1 BH         Low               511.  37.4 -120.  1994  81.5     0  33.5  8.29
##  2 BH         Low               511.  37.4 -120.  1995  62.9     0  71.1  8.31
##  3 BH         Low               511.  37.4 -120.  1996  71.6     0  49.6  9.16
##  4 BH         Low               511.  37.4 -120.  1997  80.1     0  71.6  9.10
##  5 BH         Low               511.  37.4 -120.  1998  60.9     0  79.8  8.35
##  6 BH         Low               511.  37.4 -120.  1999  73.1     0  37.4  7.45
##  7 BH         Low               511.  37.4 -120.  2000  70.2     0  62.4  8.57
##  8 BH         Low               511.  37.4 -120.  2001  76.1     0  32.6  8.54
##  9 BH         Low               511.  37.4 -120.  2002  75.9     0  38.8  8.52
## 10 BH         Low               511.  37.4 -120.  2003  69.4     0  42.4  8.96
## # ℹ 680 more rows
## # ℹ 1 more variable: tmx <dbl>
```

``` r
flint_all_year_historical_yravgs <- flint_all_year_historical %>% 
  group_by(parent.pop, elevation.group, elev_m, Lat, Long, wtr_yr) %>% 
  summarise_at(c("cwd", "pck", "ppt", "tmn", "tmx"), c(mean), na.rm = TRUE) %>% 
  rename(year=wtr_yr)
flint_all_year_historical_yravgs
```

```
## # A tibble: 690 × 11
## # Groups:   parent.pop, elevation.group, elev_m, Lat, Long [23]
##    parent.pop elevation.group elev_m   Lat  Long  year   cwd   pck   ppt   tmn
##    <chr>      <chr>            <dbl> <dbl> <dbl> <dbl> <dbl> <dbl> <dbl> <dbl>
##  1 BH         Low               511.  37.4 -120.  1964  75.5     0  33.6  6.66
##  2 BH         Low               511.  37.4 -120.  1965  68.6     0  52.3  7.14
##  3 BH         Low               511.  37.4 -120.  1966  77.5     0  35.0  7.40
##  4 BH         Low               511.  37.4 -120.  1967  67.3     0  65.3  7.69
##  5 BH         Low               511.  37.4 -120.  1968  79.7     0  33.9  7.49
##  6 BH         Low               511.  37.4 -120.  1969  69.8     0  82.4  7.40
##  7 BH         Low               511.  37.4 -120.  1970  73.8     0  42.2  7.51
##  8 BH         Low               511.  37.4 -120.  1971  72.6     0  37.5  6.91
##  9 BH         Low               511.  37.4 -120.  1972  85.2     0  27.4  7.49
## 10 BH         Low               511.  37.4 -120.  1973  75.3     0  61.5  7.66
## # ℹ 680 more rows
## # ℹ 1 more variable: tmx <dbl>
```
…
### Yearly averages for Flint

``` r
flint_all_year_recent_yravgs_2024 <- flint_all_year_recent_2024 %>% 
  group_by(parent.pop, elevation.group, elev_m, Lat, Long, wtr_yr) %>% 
  summarise_at(c("cwd",  "pck", "ppt", "tmn", "tmx"), c(mean), na.rm = TRUE) %>% 
  rename(year=wtr_yr)
flint_all_year_recent_yravgs_2024
```

```
## # A tibble: 690 × 11
## # Groups:   parent.pop, elevation.group, elev_m, Lat, Long [23]
##    parent.pop elevation.group elev_m   Lat  Long  year   cwd   pck   ppt   tmn
##    <chr>      <chr>            <dbl> <dbl> <dbl> <dbl> <dbl> <dbl> <dbl> <dbl>
##  1 BH         Low               511.  37.4 -120.  1995  62.9     0  71.1  8.31
##  2 BH         Low               511.  37.4 -120.  1996  71.6     0  49.6  9.16
##  3 BH         Low               511.  37.4 -120.  1997  80.1     0  71.6  9.10
##  4 BH         Low               511.  37.4 -120.  1998  60.9     0  79.8  8.35
##  5 BH         Low               511.  37.4 -120.  1999  73.1     0  37.4  7.45
##  6 BH         Low               511.  37.4 -120.  2000  70.2     0  62.4  8.57
##  7 BH         Low               511.  37.4 -120.  2001  76.1     0  32.6  8.54
##  8 BH         Low               511.  37.4 -120.  2002  75.9     0  38.8  8.52
##  9 BH         Low               511.  37.4 -120.  2003  69.4     0  42.4  8.96
## 10 BH         Low               511.  37.4 -120.  2004  81.5     0  44.4  8.55
## # ℹ 680 more rows
## # ℹ 1 more variable: tmx <dbl>
```

``` r
flint_all_year_historical_yravgs_2024 <- flint_all_year_historical_2024 %>% 
  group_by(parent.pop, elevation.group, elev_m, Lat, Long, wtr_yr) %>% 
  summarise_at(c("cwd", "pck", "ppt", "tmn", "tmx"), c(mean), na.rm = TRUE) %>% 
  rename(year=wtr_yr)
flint_all_year_historical_yravgs_2024
```

```
## # A tibble: 690 × 11
## # Groups:   parent.pop, elevation.group, elev_m, Lat, Long [23]
##    parent.pop elevation.group elev_m   Lat  Long  year   cwd   pck   ppt   tmn
##    <chr>      <chr>            <dbl> <dbl> <dbl> <dbl> <dbl> <dbl> <dbl> <dbl>
##  1 BH         Low               511.  37.4 -120.  1965  68.6     0  52.3  7.14
##  2 BH         Low               511.  37.4 -120.  1966  77.5     0  35.0  7.40
##  3 BH         Low               511.  37.4 -120.  1967  67.3     0  65.3  7.69
##  4 BH         Low               511.  37.4 -120.  1968  79.7     0  33.9  7.49
##  5 BH         Low               511.  37.4 -120.  1969  69.8     0  82.4  7.40
##  6 BH         Low               511.  37.4 -120.  1970  73.8     0  42.2  7.51
##  7 BH         Low               511.  37.4 -120.  1971  72.6     0  37.5  6.91
##  8 BH         Low               511.  37.4 -120.  1972  85.2     0  27.4  7.49
##  9 BH         Low               511.  37.4 -120.  1973  75.3     0  61.5  7.66
## 10 BH         Low               511.  37.4 -120.  1974  69.5     0  52.2  7.96
## # ℹ 680 more rows
## # ℹ 1 more variable: tmx <dbl>
```
…
## Monthly Averages - Flint

### Calculate avgs


``` r
flint_all_year_recent_mosavgs <- flint_all_year_recent %>% 
  group_by(parent.pop, elevation.group, elev_m, Lat, Long, month) %>% 
  summarise_at(c("cwd",  "pck", "ppt", "tmn", "tmx"), c(mean), na.rm = TRUE) %>% 
  mutate(TimePd = "Recent") 
flint_all_year_recent_mosavgs
```

```
## # A tibble: 276 × 12
## # Groups:   parent.pop, elevation.group, elev_m, Lat, Long [23]
##    parent.pop elevation.group elev_m   Lat  Long month   cwd   pck     ppt   tmn
##    <chr>      <chr>            <dbl> <dbl> <dbl> <chr> <dbl> <dbl>   <dbl> <dbl>
##  1 BH         Low               511.  37.4 -120. apr    59.0     0  48.2    6.41
##  2 BH         Low               511.  37.4 -120. aug   154.      0   1.00  17.1 
##  3 BH         Low               511.  37.4 -120. dec    29.9     0 112.     2.44
##  4 BH         Low               511.  37.4 -120. feb    41.0     0  93.9    3.32
##  5 BH         Low               511.  37.4 -120. jan    29.4     0 124.     2.81
##  6 BH         Low               511.  37.4 -120. jul   138.      0   0.281 17.5 
##  7 BH         Low               511.  37.4 -120. jun    89.3     0   6.34  13.6 
##  8 BH         Low               511.  37.4 -120. mar    53.9     0  90.1    4.82
##  9 BH         Low               511.  37.4 -120. may    51.4     0  23.2    9.78
## 10 BH         Low               511.  37.4 -120. nov    45.5     0  52.5    5.13
## # ℹ 266 more rows
## # ℹ 2 more variables: tmx <dbl>, TimePd <chr>
```

``` r
flint_all_year_historical_mosavgs <- flint_all_year_historical %>% 
  group_by(parent.pop, elevation.group, elev_m, Lat, Long, month) %>% 
  summarise_at(c("cwd", "pck", "ppt", "tmn", "tmx"), c(mean), na.rm = TRUE) %>% 
  mutate(TimePd = "Historical")
flint_all_year_historical_mosavgs
```

```
## # A tibble: 276 × 12
## # Groups:   parent.pop, elevation.group, elev_m, Lat, Long [23]
##    parent.pop elevation.group elev_m   Lat  Long month   cwd   pck    ppt   tmn
##    <chr>      <chr>            <dbl> <dbl> <dbl> <chr> <dbl> <dbl>  <dbl> <dbl>
##  1 BH         Low               511.  37.4 -120. apr    62.2 0      46.4   5.57
##  2 BH         Low               511.  37.4 -120. aug   149.  0       1.82 15.3 
##  3 BH         Low               511.  37.4 -120. dec    28.4 0      87.7   1.38
##  4 BH         Low               511.  37.4 -120. feb    40.4 0      92.2   2.76
##  5 BH         Low               511.  37.4 -120. jan    28.0 0.234 104.    1.46
##  6 BH         Low               511.  37.4 -120. jul   126.  0       2.09 15.6 
##  7 BH         Low               511.  37.4 -120. jun    87.5 0       5.73 12.4 
##  8 BH         Low               511.  37.4 -120. mar    51.2 0     101.    4.04
##  9 BH         Low               511.  37.4 -120. may    63.5 0      12.6   8.83
## 10 BH         Low               511.  37.4 -120. nov    43.6 0      85.5   4.38
## # ℹ 266 more rows
## # ℹ 2 more variables: tmx <dbl>, TimePd <chr>
```
…
```
## `summarise()` has grouped output by 'parent.pop', 'elev_m', 'TimePd'. You can
## override using the `.groups` argument.
```

``` r
mos_flint_locs.pc_avg
```

```
## # A tibble: 552 × 10
##    parent.pop elev_m TimePd   month   pck     PC1    PC2     PC3     PC4     PC5
##    <chr>       <dbl> <chr>    <chr> <dbl>   <dbl>  <dbl>   <dbl>   <dbl>   <dbl>
##  1 BH           511. Histori… apr   0     -1.01   -0.226 -0.123   0.258   0.0349
##  2 BH           511. Histori… aug   0     -3.83    1.05   0.122  -1.07    0.0979
##  3 BH           511. Histori… dec   0      0.378  -0.798 -0.275   0.566  -0.105 
##  4 BH           511. Histori… feb   0      0.0115 -0.657 -0.170   0.280  -0.0414
##  5 BH           511. Histori… jan   0.234  0.464  -0.858 -0.202   0.420  -0.0919
##  6 BH           511. Histori… jul   0     -3.60    0.700  0.478  -0.665   0.158 
##  7 BH           511. Histori… jun   0     -2.64    0.173  0.511   0.0504  0.194 
##  8 BH           511. Histori… mar   0     -0.256  -0.548 -0.0905 -0.0198 -0.0409
##  9 BH           511. Histori… may   0     -1.77   -0.147  0.302   0.485   0.169 
## 10 BH           511. Histori… nov   0     -0.315  -0.613  0.0178  0.253  -0.0113
## # ℹ 542 more rows
```
…
## Avg across years and months (Flint)

### Calculate avgs


``` r
flint_all_year_recent_avgs <- flint_all_year_recent %>% 
  group_by(parent.pop, elevation.group, elev_m, Lat, Long) %>% 
  summarise_at(c("cwd",  "pck", "ppt", "tmn", "tmx"), c(mean), na.rm = TRUE) %>% 
  mutate(TimePd = "Recent") 
flint_all_year_recent_avgs
```

```
## # A tibble: 23 × 11
## # Groups:   parent.pop, elevation.group, elev_m, Lat [23]
##    parent.pop elevation.group elev_m   Lat  Long   cwd     pck   ppt    tmn
##    <chr>      <chr>            <dbl> <dbl> <dbl> <dbl>   <dbl> <dbl>  <dbl>
##  1 BH         Low               511.  37.4 -120.  75.9   0      48.6  8.91 
##  2 CC         Low               313   39.6 -121.  59.9   0      84.5 10.0  
##  3 CP2        High             2244.  38.7 -120.  62.9 218.    107.   1.16 
##  4 CP3        High             2266.  38.7 -120.  46.2 236.    103.   0.512
##  5 DPR        Mid              1019.  39.2 -121.  27.5   7.63  121.   7.87 
##  6 FR         Mid               787   40.0 -121.  75.5  14.1    84.9  5.69 
##  7 IH         Low               454.  39.1 -121.  49.3   0.167  89.4  8.66 
##  8 LV1        High             2593.  40.5 -122.  49.8 441.    146.  -1.38 
##  9 LV3        High             2354.  40.5 -122.  40.9 436.    144.  -1.39 
## 10 LVTR1      High             2741.  40.5 -122.  52.1 454.    151.  -1.59 
## # ℹ 13 more rows
## # ℹ 2 more variables: tmx <dbl>, TimePd <chr>
```

``` r
flint_all_year_historical_avgs <- flint_all_year_historical %>% 
  group_by(parent.pop, elevation.group, elev_m, Lat, Long) %>% 
  summarise_at(c("cwd", "pck", "ppt", "tmn", "tmx"), c(mean), na.rm = TRUE) %>% 
  mutate(TimePd = "Historical")
flint_all_year_historical_avgs
```

```
## # A tibble: 23 × 11
## # Groups:   parent.pop, elevation.group, elev_m, Lat [23]
##    parent.pop elevation.group elev_m   Lat  Long   cwd      pck   ppt    tmn
##    <chr>      <chr>            <dbl> <dbl> <dbl> <dbl>    <dbl> <dbl>  <dbl>
##  1 BH         Low               511.  37.4 -120.  74.5   0.0195  48.4  7.73 
##  2 CC         Low               313   39.6 -121.  59.6   0.0793  82.0  8.90 
##  3 CP2        High             2244.  38.7 -120.  60.4 265.     110.  -0.303
##  4 CP3        High             2266.  38.7 -120.  43.8 282.     107.  -0.850
##  5 DPR        Mid              1019.  39.2 -121.  26.4  20.5    121.   6.23 
##  6 FR         Mid               787   40.0 -121.  74.0  19.2     84.3  4.55 
##  7 IH         Low               454.  39.1 -121.  50.2   1.47    88.2  7.68 
##  8 LV1        High             2593.  40.5 -122.  46.6 511.     150.  -3.48 
##  9 LV3        High             2354.  40.5 -122.  38.0 504.     147.  -3.49 
## 10 LVTR1      High             2741.  40.5 -122.  49.3 530.     155.  -3.63 
## # ℹ 13 more rows
## # ℹ 2 more variables: tmx <dbl>, TimePd <chr>
```
…
```
## `summarise()` has grouped output by 'parent.pop', 'elev_m'. You can override
## using the `.groups` argument.
```

``` r
avgs_flint_locs.pc_avg
```

```
## # A tibble: 46 × 9
##    parent.pop elev_m TimePd          pck    PC1    PC2    PC3     PC4     PC5
##    <chr>       <dbl> <chr>         <dbl>  <dbl>  <dbl>  <dbl>   <dbl>   <dbl>
##  1 BH           511. Historical   0.0195 -3.02  -1.18   0.202  0.542   0.0514
##  2 BH           511. Recent       0      -3.26  -1.12   0.390  0.592  -0.0639
##  3 CC           313  Historical   0.0793 -2.30   0.453  0.331  0.244  -0.0132
##  4 CC           313  Recent       0      -2.43   0.595  0.497  0.246  -0.146 
##  5 CP2         2244. Historical 265.      1.19  -0.737  0.330 -0.127  -0.0264
##  6 CP2         2244. Recent     218.      0.662 -0.736  0.431 -0.235  -0.114 
##  7 CP3         2266. Historical 282.      1.69   0.145 -0.624  0.247  -0.0977
##  8 CP3         2266. Recent     236.      1.18   0.129 -0.548  0.154  -0.173 
##  9 DPR         1019. Historical  20.5    -0.221  2.80  -0.740 -0.0752  0.119 
## 10 DPR         1019. Recent       7.63   -0.525  2.93  -0.556 -0.0882 -0.0688
## # ℹ 36 more rows
```
…
``` r
bioclim_all_year_recent_avgs <- bioclim_all_year_recent %>% 
  group_by(parent.pop, elevation.group, elev_m, Lat, Long) %>% 
  summarise_at(c("ann_tmean", "mean_diurnal_range", "temp_seasonality", "temp_ann_range",
                 "tmean_wettest_quarter", "tmean_driest_quarter", "ann_ppt",
                 "ppt_seasonality","ppt_warmest_quarter", "ppt_coldest_quarter"),
               c(mean), na.rm = TRUE) %>% 
  mutate(TimePd = "Recent") 
bioclim_all_year_recent_avgs
```

```
## # A tibble: 23 × 16
## # Groups:   parent.pop, elevation.group, elev_m, Lat [23]
##    parent.pop elevation.group elev_m   Lat  Long ann_tmean mean_diurnal_range
##    <chr>      <chr>            <dbl> <dbl> <dbl>     <dbl>              <dbl>
##  1 BH         Low               511.  37.4 -120.     16.2                14.7
##  2 CC         Low               313   39.6 -121.     16.6                13.3
##  3 CP2        High             2244.  38.7 -120.      7.28               12.2
##  4 CP3        High             2266.  38.7 -120.      6.58               12.1
##  5 DPR        Mid              1019.  39.2 -121.     14.1                12.4
##  6 FR         Mid               787   40.0 -121.     12.9                14.4
##  7 IH         Low               454.  39.1 -121.     15.4                13.5
##  8 LV1        High             2593.  40.5 -122.      4.92               12.6
##  9 LV3        High             2354.  40.5 -122.      4.93               12.6
## 10 LVTR1      High             2741.  40.5 -122.      4.77               12.7
## # ℹ 13 more rows
## # ℹ 9 more variables: temp_seasonality <dbl>, temp_ann_range <dbl>,
## #   tmean_wettest_quarter <dbl>, tmean_driest_quarter <dbl>, ann_ppt <dbl>,
## #   ppt_seasonality <dbl>, ppt_warmest_quarter <dbl>,
## #   ppt_coldest_quarter <dbl>, TimePd <chr>
```

``` r
bioclim_all_year_historical_avgs <- bioclim_all_year_historical %>% 
  group_by(parent.pop, elevation.group, elev_m, Lat, Long) %>% 
  summarise_at(c("ann_tmean", "mean_diurnal_range", "temp_seasonality", "temp_ann_range",
                 "tmean_wettest_quarter", "tmean_driest_quarter", "ann_ppt",
                 "ppt_seasonality","ppt_warmest_quarter", "ppt_coldest_quarter"),
               c(mean), na.rm = TRUE) %>% 
  mutate(TimePd = "Historical") 
bioclim_all_year_historical_avgs
```

```
## # A tibble: 23 × 16
## # Groups:   parent.pop, elevation.group, elev_m, Lat [23]
##    parent.pop elevation.group elev_m   Lat  Long ann_tmean mean_diurnal_range
##    <chr>      <chr>            <dbl> <dbl> <dbl>     <dbl>              <dbl>
##  1 BH         Low               511.  37.4 -120.     15.3                15.2
##  2 CC         Low               313   39.6 -121.     15.9                14.0
##  3 CP2        High             2244.  38.7 -120.      6.11               12.8
##  4 CP3        High             2266.  38.7 -120.      5.46               12.6
##  5 DPR        Mid              1019.  39.2 -121.     13.0                13.5
##  6 FR         Mid               787   40.0 -121.     12.3                15.6
##  7 IH         Low               454.  39.1 -121.     14.8                14.1
##  8 LV1        High             2593.  40.5 -122.      3.41               13.8
##  9 LV3        High             2354.  40.5 -122.      3.41               13.8
## 10 LVTR1      High             2741.  40.5 -122.      3.26               13.8
## # ℹ 13 more rows
## # ℹ 9 more variables: temp_seasonality <dbl>, temp_ann_range <dbl>,
## #   tmean_wettest_quarter <dbl>, tmean_driest_quarter <dbl>, ann_ppt <dbl>,
## #   ppt_seasonality <dbl>, ppt_warmest_quarter <dbl>,
## #   ppt_coldest_quarter <dbl>, TimePd <chr>
```
…
```
## `summarise()` has grouped output by 'parent.pop', 'elev_m'. You can override
## using the `.groups` argument.
```

``` r
all_bioclim_flint_avgs_locs.pc_avg
```

```
## # A tibble: 46 × 10
##    parent.pop elev_m TimePd        PC1     PC2      PC3      PC4     PC5     PC6
##    <chr>       <dbl> <chr>       <dbl>   <dbl>    <dbl>    <dbl>   <dbl>   <dbl>
##  1 BH           511. Historical -3.16  -1.48   -0.944    0.532    0.0263 -0.0210
##  2 BH           511. Recent     -3.92  -0.961  -0.662   -0.266    0.532  -0.441 
##  3 CC           313  Historical -1.69   0.0237  0.00529  0.977    0.114   0.296 
##  4 CC           313  Recent     -1.99   1.27   -0.0509   0.510    0.600  -0.151 
##  5 CP2         2244. Historical  1.66  -0.290  -0.866    0.0171  -0.244   0.856 
##  6 CP2         2244. Recent      0.378 -0.130  -0.281   -1.13     0.0774  0.691 
##  7 CP3         2266. Historical  2.17  -0.0944  0.0504   0.220   -0.983   0.293 
##  8 CP3         2266. Recent      0.847 -0.107   0.696   -0.948   -0.685   0.120 
##  9 DPR         1019. Historical  0.295  0.941   2.37     1.00    -0.411  -0.312 
## 10 DPR         1019. Recent     -0.453  1.39    2.85     0.00352 -0.157  -0.301 
## # ℹ 36 more rows
## # ℹ 1 more variable: PC7 <dbl>
```
…
