…
``` r
flint_recent_grwseason %>% filter(parent.pop=="DPR")
```

```
## # A tibble: 300 × 13
##    month parent.pop elevation.group elev_m PckSum   Lat  Long  year   cwd   pck
##    <dbl> <chr>      <chr>            <dbl>  <dbl> <dbl> <dbl> <dbl> <dbl> <dbl>
##  1     4 DPR        Mid              1019.   91.6  39.2 -121.  1994 43.3    0  
##  2     8 DPR        Mid              1019.   91.6  39.2 -121.  1994 39.7    0  
##  3    12 DPR        Mid              1019.   91.6  39.2 -121.  1994  9.24  36.3
##  4     7 DPR        Mid              1019.   91.6  39.2 -121.  1994 39.2    0  
##  5     6 DPR        Mid              1019.   91.6  39.2 -121.  1994 41      0  
##  6     3 DPR        Mid              1019.   91.6  39.2 -121.  1994 30.1    0  
##  7     5 DPR        Mid              1019.   91.6  39.2 -121.  1994 40.5    0  
##  8    11 DPR        Mid              1019.   91.6  39.2 -121.  1994 10.8    0  
##  9    10 DPR        Mid              1019.   91.6  39.2 -121.  1994 46.6    0  
## 10     9 DPR        Mid              1019.   91.6  39.2 -121.  1994 53.1    0  
## # ℹ 290 more rows
## # ℹ 3 more variables: ppt <dbl>, tmn <dbl>, tmx <dbl>
```
…
## Monthly Averages - Flint  

### Calculate avgs


``` r
flint_recent_grwseason_mosavgs <- flint_recent_grwseason %>% 
  group_by(parent.pop, elevation.group, elev_m, Lat, Long, month) %>% 
  summarise_at(c("cwd", "ppt", "tmn", "tmx"), c(mean), na.rm = TRUE) %>% 
  mutate(TimePd = "Recent") 
flint_recent_grwseason_mosavgs
```

```
## # A tibble: 166 × 11
## # Groups:   parent.pop, elevation.group, elev_m, Lat, Long [23]
##    parent.pop elevation.group elev_m   Lat  Long month   cwd    ppt   tmn   tmx
##    <chr>      <chr>            <dbl> <dbl> <dbl> <dbl> <dbl>  <dbl> <dbl> <dbl>
##  1 BH         Low               511.  37.4 -120.     1  29.4 124.    2.81  13.9
##  2 BH         Low               511.  37.4 -120.     2  41.0  93.9   3.32  14.9
##  3 BH         Low               511.  37.4 -120.     3  53.9  90.1   4.82  17.4
##  4 BH         Low               511.  37.4 -120.     4  59.0  48.2   6.41  20.5
##  5 BH         Low               511.  37.4 -120.     5  51.4  23.2   9.78  25.7
##  6 BH         Low               511.  37.4 -120.     6  89.3   6.34 13.6   31.2
##  7 BH         Low               511.  37.4 -120.    12  30.0 111.    2.59  13.6
##  8 CC         Low               313   39.6 -121.     1  19.6 184.    4.27  13.5
##  9 CC         Low               313   39.6 -121.     2  31.4 165.    4.81  15.3
## 10 CC         Low               313   39.6 -121.     3  45.3 148.    6.18  17.8
## # ℹ 156 more rows
## # ℹ 1 more variable: TimePd <chr>
```

``` r
flint_historical_grwseason_mosavgs <- flint_historical_grwseason %>% 
  group_by(parent.pop, elevation.group, elev_m, Lat, Long, month) %>% 
  summarise_at(c("cwd", "ppt", "tmn", "tmx"), c(mean), na.rm = TRUE) %>% 
  mutate(TimePd = "Historical")
flint_historical_grwseason_mosavgs
```

```
## # A tibble: 154 × 11
## # Groups:   parent.pop, elevation.group, elev_m, Lat, Long [23]
##    parent.pop elevation.group elev_m   Lat  Long month   cwd    ppt   tmn   tmx
##    <chr>      <chr>            <dbl> <dbl> <dbl> <dbl> <dbl>  <dbl> <dbl> <dbl>
##  1 BH         Low               511.  37.4 -120.     1  28.0 104.    1.46  12.6
##  2 BH         Low               511.  37.4 -120.     2  40.4  92.2   2.76  15.0
##  3 BH         Low               511.  37.4 -120.     3  51.2 101.    4.04  16.5
##  4 BH         Low               511.  37.4 -120.     4  62.2  46.4   5.57  20.1
##  5 BH         Low               511.  37.4 -120.     5  63.5  12.6   8.83  25.8
##  6 BH         Low               511.  37.4 -120.     6  87.5   5.73 12.4   30.6
##  7 BH         Low               511.  37.4 -120.    11  43.8  82.0   4.37  17.4
##  8 BH         Low               511.  37.4 -120.    12  28.5  89.3   1.44  12.6
##  9 CC         Low               313   39.6 -121.     1  18.7 191.    2.42  12.5
## 10 CC         Low               313   39.6 -121.     2  31.1 146.    4.04  15.5
## # ℹ 144 more rows
## # ℹ 1 more variable: TimePd <chr>
```
…
```
## `summarise()` has grouped output by 'parent.pop', 'elev_m', 'TimePd'. You can
## override using the `.groups` argument.
```

``` r
mos_flint_locs.pc_avg
```

```
## # A tibble: 320 × 7
##    parent.pop elev_m TimePd     month    PC1     PC2     PC3
##    <chr>       <dbl> <chr>      <dbl>  <dbl>   <dbl>   <dbl>
##  1 BH           511. Historical     1 -1.16   0.136   0.451 
##  2 BH           511. Historical     2 -0.713  0.0517  0.301 
##  3 BH           511. Historical     3 -0.465  0.0129 -0.0447
##  4 BH           511. Historical     4  0.337 -0.0415  0.268 
##  5 BH           511. Historical     5  0.976  0.361   0.379 
##  6 BH           511. Historical     6  1.82   0.350  -0.155 
##  7 BH           511. Historical    11 -0.403  0.198   0.244 
##  8 BH           511. Historical    12 -1.03   0.113   0.601 
##  9 BH           511. Recent         1 -1.17   0.308   0.115 
## 10 BH           511. Recent         2 -0.660  0.119   0.234 
## # ℹ 310 more rows
```
…
## Avg across years and months (Flint)

### Calculate avgs


``` r
flint_recent_grwseason_avgs <- flint_recent_grwseason %>% 
  group_by(parent.pop, elevation.group, elev_m, Lat, Long) %>% 
  summarise_at(c("cwd", "ppt", "tmn", "tmx"), c(mean), na.rm = TRUE) %>% 
  mutate(TimePd = "Recent") 
flint_recent_grwseason_avgs
```

```
## # A tibble: 23 × 10
## # Groups:   parent.pop, elevation.group, elev_m, Lat [23]
##    parent.pop elevation.group elev_m   Lat  Long   cwd   ppt   tmn   tmx TimePd
##    <chr>      <chr>            <dbl> <dbl> <dbl> <dbl> <dbl> <dbl> <dbl> <chr> 
##  1 BH         Low               511.  37.4 -120.  50.6  71.0  6.19  19.6 Recent
##  2 CC         Low               313   39.6 -121.  48.4 105.   8.56  21.0 Recent
##  3 CP2        High             2244.  38.7 -120.  75.1  78.2  3.94  16.5 Recent
##  4 CP3        High             2266.  38.7 -120.  57.8  75.4  3.36  15.7 Recent
##  5 DPR        Mid              1019.  39.2 -121.  30.4  96.9  9.06  21.9 Recent
##  6 FR         Mid               787   40.0 -121.  89.7  58.1  7.37  22.9 Recent
##  7 IH         Low               454.  39.1 -121.  40.5 100.   8.07  21.2 Recent
##  8 LV1        High             2593.  40.5 -122.  65.5  73.6  2.35  16.4 Recent
##  9 LV3        High             2354.  40.5 -122.  53.6  72.7  2.31  16.4 Recent
## 10 LVTR1      High             2741.  40.5 -122.  73.7  76.8  2.03  16.3 Recent
## # ℹ 13 more rows
```

``` r
flint_historical_grwseason_avgs <- flint_historical_grwseason %>% 
  group_by(parent.pop, elevation.group, elev_m, Lat, Long) %>% 
  summarise_at(c("cwd", "ppt", "tmn", "tmx"), c(mean), na.rm = TRUE) %>% 
  mutate(TimePd = "Historical")
flint_historical_grwseason_avgs
```

```
## # A tibble: 23 × 10
## # Groups:   parent.pop, elevation.group, elev_m, Lat [23]
##    parent.pop elevation.group elev_m   Lat  Long   cwd   ppt   tmn   tmx TimePd 
##    <chr>      <chr>            <dbl> <dbl> <dbl> <dbl> <dbl> <dbl> <dbl> <chr>  
##  1 BH         Low               511.  37.4 -120.  50.6  66.6  5.11  18.8 Histor…
##  2 CC         Low               313   39.6 -121.  42.5 112.   6.36  18.9 Histor…
##  3 CP2        High             2244.  38.7 -120.  79.7  69.0  3.99  17.6 Histor…
##  4 CP3        High             2266.  38.7 -120.  60.3  67.1  3.54  16.8 Histor…
##  5 DPR        Mid              1019.  39.2 -121.  30.0  82.5  8.02  22.2 Histor…
##  6 FR         Mid               787   40.0 -121.  87.8  57.8  6.15  23.0 Histor…
##  7 IH         Low               454.  39.1 -121.  41.5  97.9  7.07  20.9 Histor…
##  8 LV1        High             2593.  40.5 -122.  55.5 127.  -1.16  13.9 Histor…
##  9 LV3        High             2354.  40.5 -122.  43.8 125.  -1.20  13.9 Histor…
## 10 LVTR1      High             2741.  40.5 -122.  60.4 133.  -1.35  13.7 Histor…
## # ℹ 13 more rows
```
…
```
## `summarise()` has grouped output by 'parent.pop', 'elev_m'. You can override
## using the `.groups` argument.
```

``` r
avgs_flint_locs.pc_avg
```

```
## # A tibble: 46 × 6
##    parent.pop elev_m TimePd         PC1     PC2    PC3
##    <chr>       <dbl> <chr>        <dbl>   <dbl>  <dbl>
##  1 BH           511. Historical -0.212   0.309  -0.656
##  2 BH           511. Recent     -0.445   0.598  -0.429
##  3 CC           313  Historical -1.88   -0.0349  0.312
##  4 CC           313  Recent     -1.68    0.828   0.610
##  5 CP2         2244. Historical  1.10   -0.104   0.539
##  6 CP2         2244. Recent      0.670  -0.273   0.576
##  7 CP3         2266. Historical  0.359  -0.224  -0.396
##  8 CP3         2266. Recent      0.0589 -0.424  -0.309
##  9 DPR         1019. Historical -1.83    1.02   -0.823
## 10 DPR         1019. Recent     -2.30    1.13   -0.322
## # ℹ 36 more rows
```
…
``` r
bioclim_recent_grwseason_avgs <- bioclim_recent_grwseason %>% 
  group_by(parent.pop, elevation.group, elev_m) %>% 
  summarise_at(c("ann_tmean", "mean_diurnal_range", "temp_seasonality", "temp_ann_range",
                 "tmean_wettest_month", "tmean_driest_month", "ann_ppt",
                 "ppt_seasonality","ppt_warmest_month", "ppt_coldest_month"),
               c(mean), na.rm = TRUE) %>% 
  mutate(TimePd = "Recent") 
bioclim_recent_grwseason_avgs
```

```
## # A tibble: 23 × 14
## # Groups:   parent.pop, elevation.group [23]
##    parent.pop elevation.group elev_m ann_tmean mean_diurnal_range
##    <chr>      <chr>            <dbl>     <dbl>              <dbl>
##  1 BH         Low               511.     12.9                13.4
##  2 CC         Low               313      14.8                12.4
##  3 CP2        High             2244.     10.2                12.6
##  4 CP3        High             2266.      9.54               12.4
##  5 DPR        Mid              1019.     15.5                12.9
##  6 FR         Mid               787      15.1                15.5
##  7 IH         Low               454.     14.7                13.2
##  8 LV1        High             2593.      9.38               14.1
##  9 LV3        High             2354.      9.37               14.1
## 10 LVTR1      High             2741.      9.16               14.3
## # ℹ 13 more rows
## # ℹ 9 more variables: temp_seasonality <dbl>, temp_ann_range <dbl>,
## #   tmean_wettest_month <dbl>, tmean_driest_month <dbl>, ann_ppt <dbl>,
## #   ppt_seasonality <dbl>, ppt_warmest_month <dbl>, ppt_coldest_month <dbl>,
## #   TimePd <chr>
```

``` r
bioclim_historical_grwseason_avgs <- bioclim_historical_grwseason %>% 
  group_by(parent.pop, elevation.group, elev_m) %>% 
  summarise_at(c("ann_tmean", "mean_diurnal_range", "temp_seasonality", "temp_ann_range",
                 "tmean_wettest_month", "tmean_driest_month", "ann_ppt",
                 "ppt_seasonality","ppt_warmest_month", "ppt_coldest_month"),
               c(mean), na.rm = TRUE) %>% 
  mutate(TimePd = "Historical") 
bioclim_historical_grwseason_avgs
```

```
## # A tibble: 23 × 14
## # Groups:   parent.pop, elevation.group [23]
##    parent.pop elevation.group elev_m ann_tmean mean_diurnal_range
##    <chr>      <chr>            <dbl>     <dbl>              <dbl>
##  1 BH         Low               511.     12.0                13.7
##  2 CC         Low               313      12.6                12.6
##  3 CP2        High             2244.     10.8                13.7
##  4 CP3        High             2266.     10.2                13.3
##  5 DPR        Mid              1019.     15.1                14.2
##  6 FR         Mid               787      14.6                16.8
##  7 IH         Low               454.     14.0                13.8
##  8 LV1        High             2593.      6.36               15.0
##  9 LV3        High             2354.      6.35               15.1
## 10 LVTR1      High             2741.      6.19               15.1
## # ℹ 13 more rows
## # ℹ 9 more variables: temp_seasonality <dbl>, temp_ann_range <dbl>,
## #   tmean_wettest_month <dbl>, tmean_driest_month <dbl>, ann_ppt <dbl>,
## #   ppt_seasonality <dbl>, ppt_warmest_month <dbl>, ppt_coldest_month <dbl>,
## #   TimePd <chr>
```
…
```
## `summarise()` has grouped output by 'parent.pop', 'elev_m'. You can override
## using the `.groups` argument.
```

``` r
all_bioclim_flint_avgs_locs.pc_avg
```

```
## # A tibble: 46 × 13
##    parent.pop elev_m TimePd     PC1    PC2     PC3    PC4     PC5    PC6     PC7
##    <chr>       <dbl> <chr>    <dbl>  <dbl>   <dbl>  <dbl>   <dbl>  <dbl>   <dbl>
##  1 BH           511. Histor… -0.815 -1.50   1.63    1.55   0.466  -0.442  0.419 
##  2 BH           511. Recent  -0.819 -1.23   1.13    1.50   0.204  -0.481  0.0904
##  3 CC           313  Histor… -2.06  -3.02   0.0610  0.585  0.0674  0.524 -0.267 
##  4 CC           313  Recent  -3.46  -0.308 -0.355   0.474  0.588   0.612  0.0569
##  5 CP2         2244. Histor…  1.83  -0.821  0.330   0.792 -0.743   0.600 -0.176 
##  6 CP2         2244. Recent   0.731  1.68  -1.43   -0.330  0.894   0.573 -0.215 
##  7 CP3         2266. Histor…  1.76  -1.39  -0.146   0.643 -0.387  -0.378 -0.256 
##  8 CP3         2266. Recent   0.715  1.25  -1.73   -0.515  1.33   -0.342 -0.269 
##  9 DPR         1019. Histor… -2.95   0.277  0.274  -0.608 -0.634  -1.18   0.0563
## 10 DPR         1019. Recent  -3.79   0.269 -1.30   -0.811 -0.343  -0.448  0.200 
## # ℹ 36 more rows
## # ℹ 3 more variables: PC8 <dbl>, PC9 <dbl>, PC10 <dbl>
```
…
