…
```
##  [1] "parent.pop"             "phylogroup"             "elevation.group"       
##  [4] "maternal.families"      "approx.number.seeds"    "UCD.seed.year"         
##  [7] "proposed.WL2.seed.year" "collection.priority."   "on.climate.PCA."       
## [10] "JGI.DNA"                "notes"
```

```r
pops_common_garden_nonotes <- pops_common_garden %>% select(parent.pop:elevation.group, UCD.seed.year)
pops_common_garden_nonotes
```

```
## # A tibble: 23 × 4
##    parent.pop phylogroup elevation.group UCD.seed.year
##    <chr>           <dbl> <chr>                   <dbl>
##  1 BH                  4 low                      2021
##  2 CC                  7 low                      2018
##  3 CP2                 2 high                     2019
##  4 CP3                 2 high                     2018
##  5 DPR                 5 mid                      2020
##  6 FR                  7 mid                      2019
##  7 IH                  5 low                      2021
##  8 LV1                 9 high                     2018
##  9 LV3                 9 high                     2018
## 10 LVTR1               9 high                     2020
## # ℹ 13 more rows
```
…
```
##  [1] "BH"    "CC"    "CP2"   "CP3"   "DPR"   "FR"    "IH"    "LV1"   "LV3"  
## [10] "LVTR1" "SC"    "SQ1"   "SQ2"   "SQ3"   "TM2"   "WL1"   "WL2"   "WR"   
## [19] "WV"    "YO11"  "YO4"   "YO7"   "YO8"
```

```r
#unique(pop_elev$parent.pop)
head(pop_elev_climate, 30)
```

```
## # A tibble: 30 × 15
##    parent.pop elevation.group elev_m year  month    aet   cwd   pck   pet
##    <chr>      <chr>            <dbl> <chr> <dbl>  <dbl> <dbl> <dbl> <dbl>
##  1 BH         Low               511. 1895     10   8.90  80.8     0  89.7
##  2 BH         Low               511. 1895     11   4.89  40.8     0  45.7
##  3 BH         Low               511. 1895     12   3.23  27.9     0  31.1
##  4 BH         Low               511. 1896      1   8.75  27.0     0  35.7
##  5 BH         Low               511. 1896      2   6.57  42.8     0  49.4
##  6 BH         Low               511. 1896      3  24.9   57.9     0  82.8
##  7 BH         Low               511. 1896      4  72.5   36.2     0 109. 
##  8 BH         Low               511. 1896      5 141.    11.6     0 153. 
##  9 BH         Low               511. 1896      6  90.7   96.2     0 187. 
## 10 BH         Low               511. 1896      7 133.    70.5     0 203. 
## # ℹ 20 more rows
## # ℹ 6 more variables: ppt <dbl>, rch <dbl>, run <dbl>, str <dbl>, tmn <dbl>,
## #   tmx <dbl>
```
…
```r
#average snowpack across entire year for 30-year period 
recent_climate_avgs <- pop_elev_climate_recent %>% group_by(parent.pop,elevation.group ,elev_m) %>% summarise_at(c("cwd", "pck", "ppt", "tmn", "tmx"), c(mean, sem), na.rm = TRUE) 
names(recent_climate_avgs) <- gsub("fn2", "sem", colnames(recent_climate_avgs))
names(recent_climate_avgs) <-gsub("fn1", "mean", colnames(recent_climate_avgs))
recent_climate_avgs #30 year averages
```

```
## # A tibble: 23 × 13
## # Groups:   parent.pop, elevation.group [23]
##    parent.pop elevation.group elev_m cwd_mean pck_mean ppt_mean tmn_mean
##    <chr>      <chr>            <dbl>    <dbl>    <dbl>    <dbl>    <dbl>
##  1 BH         Low               511.     75.5    0         48.6    8.81 
##  2 CC         Low               313      59.6    0         85.7    9.97 
##  3 CP2        High             2244.     62.7  203.       106.     1.12 
##  4 CP3        High             2266.     46.2  221.       102.     0.475
##  5 DPR        Mid              1019.     27.5    8.95     122.     7.80 
##  6 FR         Mid               787      55.8   19.0       83.1    5.33 
##  7 IH         Low               454.     49.1    0.194     89.9    8.63 
##  8 LV1        High             2593.     49.4  438.       148.    -1.44 
##  9 LV3        High             2354.     57.2  423.       147.    -1.42 
## 10 LVTR1      High             2741.     51.6  451.       153.    -1.63 
## # ℹ 13 more rows
## # ℹ 6 more variables: tmx_mean <dbl>, cwd_sem <dbl>, pck_sem <dbl>,
## #   ppt_sem <dbl>, tmn_sem <dbl>, tmx_sem <dbl>
```
…
```r
#ggsave("../output/Climate/All_Year_Avg_PCK_RecentClim.png", width = 12, height = 6, units = "in")

historical_climate_avgs <- pop_elev_climate_historical %>% group_by(parent.pop, elevation.group ,elev_m) %>% summarise_at(c("cwd", "pck", "ppt", "tmn", "tmx"), c(mean, sem), na.rm = TRUE) 
names(historical_climate_avgs) <- gsub("fn2", "sem", colnames(historical_climate_avgs))
names(historical_climate_avgs) <-gsub("fn1", "mean", colnames(historical_climate_avgs))
historical_climate_avgs #30 year averages
```

```
## # A tibble: 23 × 13
## # Groups:   parent.pop, elevation.group [23]
##    parent.pop elevation.group elev_m cwd_mean pck_mean ppt_mean tmn_mean
##    <chr>      <chr>            <dbl>    <dbl>    <dbl>    <dbl>    <dbl>
##  1 BH         Low               511.     74.4   0.0195     48.4    7.63 
##  2 CC         Low               313      59.9   0.0793     82.1    8.85 
##  3 CP2        High             2244.     60.3 263.        112.    -0.396
##  4 CP3        High             2266.     43.7 281.        108.    -0.938
##  5 DPR        Mid              1019.     26.3  19.0       122.     6.15 
##  6 FR         Mid               787      54.7  21.7        82.8    4.08 
##  7 IH         Low               454.     50.2   1.45       88.9    7.61 
##  8 LV1        High             2593.     46.7 510.        151.    -3.51 
##  9 LV3        High             2354.     54.6 494.        149.    -3.52 
## 10 LVTR1      High             2741.     49.3 530.        156.    -3.66 
## # ℹ 13 more rows
## # ℹ 6 more variables: tmx_mean <dbl>, cwd_sem <dbl>, pck_sem <dbl>,
## #   ppt_sem <dbl>, tmn_sem <dbl>, tmx_sem <dbl>
```
…
```
## `summarise()` has grouped output by 'parent.pop', 'elev_m'. You can override
## using the `.groups` argument.
```

```r
monthly_pck$parent.pop <- factor(monthly_pck$parent.pop, levels=c("WL1", "SQ1", "SQ2", "WL2", "YO4"))
monthly_pck
```

```
## # A tibble: 60 × 5
## # Groups:   parent.pop, elev_m [5]
##    parent.pop elev_m month pck_mean pck_sem
##    <fct>       <dbl> <dbl>    <dbl>   <dbl>
##  1 SQ1         1921.     1    128.     51.0
##  2 SQ1         1921.     2    211.    101. 
##  3 SQ1         1921.     3     96.3    66.8
##  4 SQ1         1921.     4     62.5    35.3
##  5 SQ1         1921.     5     23.2    23.2
##  6 SQ1         1921.     6      0       0  
##  7 SQ1         1921.     7      0       0  
##  8 SQ1         1921.     8      0       0  
##  9 SQ1         1921.     9      0       0  
## 10 SQ1         1921.    10      0       0  
## # ℹ 50 more rows
```
…
```
## `summarise()` has grouped output by 'parent.pop', 'elev_m'. You can override
## using the `.groups` argument.
```

```r
monthly_cwd
```

```
## # A tibble: 276 × 5
## # Groups:   parent.pop, elev_m [23]
##    parent.pop elev_m month cwd_mean pck_sem
##    <chr>       <dbl> <dbl>    <dbl>   <dbl>
##  1 BH           511.     1     29.3   0.430
##  2 BH           511.     2     40.9   0.492
##  3 BH           511.     3     53.8   1.52 
##  4 BH           511.     4     59.0   2.92 
##  5 BH           511.     5     51.5   5.37 
##  6 BH           511.     6     87.1   5.45 
##  7 BH           511.     7    136.    4.35 
##  8 BH           511.     8    154.    3.31 
##  9 BH           511.     9    130.    1.03 
## 10 BH           511.    10     88.9   0.537
## # ℹ 266 more rows
```
…
### Averages

#### Across last 30 years (all months included)


```r
pop_elev_climate_avgs <- pop_elev_climate %>% filter(year>1992) %>% group_by(parent.pop, elevation.group) %>% summarise_at(c("cwd", "pck", "ppt", "tmn", "tmx"), mean, na.rm = TRUE)
pop_elev_climate_avgs #30 year averages of all climate variables 
```

```
## # A tibble: 23 × 7
## # Groups:   parent.pop [23]
##    parent.pop elevation.group   cwd     pck   ppt    tmn   tmx
##    <chr>      <chr>           <dbl>   <dbl> <dbl>  <dbl> <dbl>
##  1 BH         Low              75.9   0      47.8  8.88   23.6
##  2 CC         Low              59.7   0      84.5 10.0    23.3
##  3 CP2        High             63.1 206.    105.   1.17   13.5
##  4 CP3        High             46.4 224.    100.   0.521  12.7
##  5 DPR        Mid              27.4   8.70  121.   7.86   20.3
##  6 FR         Mid              56.0  19.0    82.3  5.36   20.0
##  7 IH         Low              49.1   0.184  88.7  8.67   22.3
##  8 LV1        High             49.8 440.    147.  -1.38   11.2
##  9 LV3        High             57.6 426.    146.  -1.36   11.2
## 10 LVTR1      High             52.0 453.    152.  -1.58   11.2
## # ℹ 13 more rows
```
…
