…
``` r
UCD_establishment_sub_FIG_prob_historic <- ggarrange(GSCD_prob_historic, WYCD_prob_historic, GD_prob, ED_prob, ncol=2, nrow=2) 
#ggsave("../output/UCD_Traits/UCD_Establishment_PPTSubDist_SCATTERS_Historic.png", width = 24, height = 18, units = "in")
```

## Stats

### Scaling 

``` r
wl2_establishment %>% group_by(pop) %>% summarise(n=n()) %>% arrange(n) #CHECK SAMPLE SIZE
```

```
## # A tibble: 23 × 2
##    pop       n
##    <chr> <int>
##  1 WV        3
##  2 WR       14
##  3 LV3      27
##  4 SQ1      30
##  5 SQ3      33
##  6 YO4      40
##  7 FR       48
##  8 WL1      48
##  9 SQ2      61
## 10 TM2      84
## # ℹ 13 more rows
```

``` r
wl2_establishment_scaled <- wl2_establishment %>% mutate_at(c("GrwSsn_GD_Recent","Wtr_Year_GD_Recent",                                                           "GrwSsn_GD_Historical","Wtr_Year_GD_Historical","Geographic_Dist"),
                                                            scale) 

ucd_establishment %>% group_by(pop) %>% summarise(n=n()) %>% arrange(n) #CHECK SAMPLE SIZE
```

```
## # A tibble: 23 × 2
##    pop       n
##    <chr> <int>
##  1 WV        2
##  2 LV1       3
##  3 YO4       6
##  4 CP3       8
##  5 WR        9
##  6 SQ3      10
##  7 YO8      13
##  8 YO11     14
##  9 LVTR1    15
## 10 YO7      17
## # ℹ 13 more rows
```
…
