…
## Stats

### Scaling


``` r
wl2_y1_surv %>% group_by(pop) %>% summarise(n=n()) %>% arrange(n) #CHECK SAMPLE SIZE
```

```
## # A tibble: 22 × 2
##    pop       n
##    <chr> <int>
##  1 WR        4
##  2 LV3       9
##  3 SQ1      13
##  4 SQ3      13
##  5 FR       17
##  6 YO4      20
##  7 SQ2      21
##  8 LV1      24
##  9 LVTR1    24
## 10 YO8      29
## # ℹ 12 more rows
```

``` r
wl2_y1_surv_scaled <- wl2_y1_surv %>% mutate_at(c("GrwSsn_GD_Recent","Wtr_Year_GD_Recent",                                                           "GrwSsn_GD_Historical","Wtr_Year_GD_Historical","Geographic_Dist"),
                                                            scale) 

ucd_y1_surv %>% group_by(pop) %>% summarise(n=n()) %>% arrange(n) #CHECK SAMPLE SIZE
```

```
## # A tibble: 23 × 2
##    pop       n
##    <chr> <int>
##  1 WV        2
##  2 LV1       3
##  3 YO4       5
##  4 CP3       6
##  5 SQ3       9
##  6 WR        9
##  7 LVTR1    13
##  8 YO11     13
##  9 YO8      13
## 10 YO7      16
## # ℹ 13 more rows
```
…
```
## Joining with `by = join_by(block, Genotype, pop, mf, rep, elevation.group,
## elev_m, Lat, Long, GrwSsn_GD_Recent, GrwSsn_GD_Historical, Wtr_Year_GD_Recent,
## Wtr_Year_GD_Historical, Geographic_Dist, Elev_Dist, pheno, Survival, BedLoc,
## pop.mf, Site)`
```

``` r
ucd_y1_surv_size %>% filter(!is.na(diam.mm))
```

```
## # A tibble: 63 × 24
##    block Genotype pop      mf   rep elevation.group elev_m   Lat  Long
##    <chr> <chr>    <chr> <dbl> <dbl> <chr>            <dbl> <dbl> <dbl>
##  1 D2    BH_5_15  BH        5    15 Low               511.  37.4 -120.
##  2 D2    BH_4_3   BH        4     3 Low               511.  37.4 -120.
##  3 D2    TM2_4_11 TM2       4    11 Low               379.  39.6 -122.
##  4 D1    YO7_8_1  YO7       8     1 High             2470.  37.8 -120.
##  5 D2    BH_4_13  BH        4    13 Low               511.  37.4 -120.
##  6 D2    BH_2_9   BH        2     9 Low               511.  37.4 -120.
##  7 D2    BH_3_6   BH        3     6 Low               511.  37.4 -120.
##  8 F1    BH_6_9   BH        6     9 Low               511.  37.4 -120.
##  9 F2    WL2_3_13 WL2       3    13 High             2020.  38.8 -120.
## 10 F2    BH_4_5   BH        4     5 Low               511.  37.4 -120.
## # ℹ 53 more rows
## # ℹ 15 more variables: GrwSsn_GD_Recent <dbl>, GrwSsn_GD_Historical <dbl>,
## #   Wtr_Year_GD_Recent <dbl>, Wtr_Year_GD_Historical <dbl>,
## #   Geographic_Dist <dbl>, Elev_Dist <dbl>, pheno <chr>, Survival <dbl>,
## #   BedLoc <chr>, pop.mf <chr>, height.cm <dbl>, long.leaf.cm <dbl>,
## #   Site <chr>, diam.mm <dbl>, total.branch <dbl>
```
…
```
## Joining with `by = join_by(block, Genotype, pop, mf, rep, elevation.group,
## elev_m, Lat, Long, GrwSsn_GD_Recent, GrwSsn_GD_Historical, Wtr_Year_GD_Recent,
## Wtr_Year_GD_Historical, Geographic_Dist, Elev_Dist, pheno, Survival, BedLoc,
## pop.mf, Site)`
```

``` r
wl2_y1_surv_size %>% filter(!is.na(diam.mm))
```

```
## # A tibble: 469 × 24
##    block Genotype pop      mf   rep elevation.group elev_m   Lat  Long
##    <chr> <chr>    <chr> <dbl> <dbl> <chr>            <dbl> <dbl> <dbl>
##  1 A     TM2_6_11 TM2       6    11 Low               379.  39.6 -122.
##  2 A     CC_2_3   CC        2     3 Low               313   39.6 -121.
##  3 A     CP2_5_1  CP2       5     1 High             2244.  38.7 -120.
##  4 A     CC_5_3   CC        5     3 Low               313   39.6 -121.
##  5 A     CC_3_3   CC        3     3 Low               313   39.6 -121.
##  6 A     IH_5_3   IH        5     3 Low               454.  39.1 -121.
##  7 A     CP3_5_9  CP3       5     9 High             2266.  38.7 -120.
##  8 A     SQ2_8_9  SQ2       8     9 Mid              1934.  36.7 -119.
##  9 A     YO11_7_9 YO11      7     9 High             2872.  37.9 -119.
## 10 A     CP2_4_1  CP2       4     1 High             2244.  38.7 -120.
## # ℹ 459 more rows
## # ℹ 15 more variables: GrwSsn_GD_Recent <dbl>, GrwSsn_GD_Historical <dbl>,
## #   Wtr_Year_GD_Recent <dbl>, Wtr_Year_GD_Historical <dbl>,
## #   Geographic_Dist <dbl>, Elev_Dist <dbl>, pheno <chr>, Survival <dbl>,
## #   BedLoc <chr>, pop.mf <chr>, height.cm <dbl>, long.leaf.cm <dbl>,
## #   Site <chr>, diam.mm <dbl>, total.branch <dbl>
```
…
```
## `summarise()` has grouped output by 'pop'. You can override using the `.groups`
## argument.
```

``` r
ucd_size_surv_pop_avgs %>% arrange(N_height)
```

```
## # A tibble: 23 × 17
## # Groups:   pop [23]
##    pop   elev_m N_Surv mean_Surv sem_surv N_height mean_height.cm sem_height.cm
##    <chr>  <dbl>  <int>     <dbl>    <dbl>    <int>          <dbl>         <dbl>
##  1 LV1    2593.      3     0        0            1           1.2         NA    
##  2 WV      749.      2     0        0            1           3.9         NA    
##  3 YO4    2158.      5     0        0            5           2.24         0.191
##  4 CP3    2266.      6     0        0            6           1.23         0.436
##  5 WR     1158       9     0        0            7           2.77         0.534
##  6 YO11   2872.     13     0        0            8           2.44         0.304
##  7 LVTR1  2741.     13     0        0            9           1.78         0.293
##  8 SQ3    2373.      9     0.111    0.111        9           1.01         0.223
##  9 YO8    2591.     13     0        0            9           2.51         0.425
## 10 SQ2    1934.     21     0        0           14           1.11         0.177
## # ℹ 13 more rows
## # ℹ 9 more variables: N_length <int>, mean_long.leaf.cm <dbl>,
## #   sem_long.leaf.cm <dbl>, N_diam <int>, mean_diam.mm <dbl>,
## #   sem_diam.mm <dbl>, N_total.branch <int>, mean_total.branch <dbl>,
## #   sem_total.branch <dbl>
```
…
```
## `summarise()` has grouped output by 'pop'. You can override using the `.groups`
## argument.
```

``` r
wl2_size_surv_pop_avgs %>% arrange(N_height)
```

```
## # A tibble: 22 × 17
## # Groups:   pop [22]
##    pop   elev_m N_Surv mean_Surv sem_surv N_height mean_height.cm sem_height.cm
##    <chr>  <dbl>  <int>     <dbl>    <dbl>    <int>          <dbl>         <dbl>
##  1 WR     1158       4     0.25    0.25          3           5.07         1.42 
##  2 LV3    2354.      9     0.333   0.167         8           2.55         0.338
##  3 SQ3    2373.     13     0.462   0.144        11           1.43         0.189
##  4 FR      787      17     0.294   0.114        13           4.39         0.986
##  5 SQ1    1921.     13     0.769   0.122        13           2.59         0.271
##  6 LV1    2593.     24     0.208   0.0847       18           2.06         0.234
##  7 LVTR1  2741.     24     0.208   0.0847       19           2.13         0.278
##  8 YO4    2158.     20     0.45    0.114        19           3.87         0.484
##  9 SQ2    1934.     21     0.476   0.112        21           2.06         0.278
## 10 YO8    2591.     29     0.310   0.0874       23           2.93         0.284
## # ℹ 12 more rows
## # ℹ 9 more variables: N_length <int>, mean_long.leaf.cm <dbl>,
## #   sem_long.leaf.cm <dbl>, N_diam <int>, mean_diam.mm <dbl>,
## #   sem_diam.mm <dbl>, N_total.branch <int>, mean_total.branch <dbl>,
## #   sem_total.branch <dbl>
```
…
