…
## Averages and Preliminary Calcs

### Recent climate


``` r
pop_elev_climate_recent %>% filter(ppt == 0) #months 7-10 usually have ppt = 0 for low elev 
```

```
## # A tibble: 541 × 12
##    parent.pop elevation.group elev_m   Lat  Long  year month   cwd   pck   ppt
##    <chr>      <chr>            <dbl> <dbl> <dbl> <dbl> <dbl> <dbl> <dbl> <dbl>
##  1 BH         Low               511.  37.4 -120.  1994     8 180.      0     0
##  2 BH         Low               511.  37.4 -120.  1994     7 174.      0     0
##  3 BH         Low               511.  37.4 -120.  1995    10  92.1     0     0
##  4 BH         Low               511.  37.4 -120.  1996     9 132.      0     0
##  5 BH         Low               511.  37.4 -120.  1997     8 155.      0     0
##  6 BH         Low               511.  37.4 -120.  1998     8 137       0     0
##  7 BH         Low               511.  37.4 -120.  1999     8 129.      0     0
##  8 BH         Low               511.  37.4 -120.  1999     7 120.      0     0
##  9 BH         Low               511.  37.4 -120.  1999     9 121.      0     0
## 10 BH         Low               511.  37.4 -120.  2000     7 134.      0     0
## # ℹ 531 more rows
## # ℹ 2 more variables: tmn <dbl>, tmx <dbl>
```
…
``` r
pop_elev_climate_recent %>% filter(ppt > 0, tmx<1.5) %>% arrange(pck) #if the temp is less than 1.5 (Flint's criteria for snowfall) and there is precipitation then pck > 0
```

```
## # A tibble: 165 × 12
##    parent.pop elevation.group elev_m   Lat  Long  year month   cwd   pck   ppt
##    <chr>      <chr>            <dbl> <dbl> <dbl> <dbl> <dbl> <dbl> <dbl> <dbl>
##  1 YO11       High             2872.  37.9 -119.  2001     1  19.0  98.1  91.4
##  2 YO11       High             2872.  37.9 -119.  1997    12  16.9 106.   69.8
##  3 YO11       High             2872.  37.9 -119.  2007    12  17.8 107.  114. 
##  4 YO11       High             2872.  37.9 -119.  2009    12  18.1 140.  146. 
##  5 YO11       High             2872.  37.9 -119.  2019    12  18.7 146.  153. 
##  6 YO11       High             2872.  37.9 -119.  1994    11  16.7 191.  198. 
##  7 LV3        High             2354.  40.5 -122.  2007    12  10.8 193.  198. 
##  8 LV1        High             2593.  40.5 -122.  2007    12  12.2 198.  204. 
##  9 LVTR1      High             2741.  40.5 -122.  2007    12  13.5 205.  211. 
## 10 LV1        High             2593.  40.5 -122.  2009    12  12.0 223.  187. 
## # ℹ 155 more rows
## # ℹ 2 more variables: tmn <dbl>, tmx <dbl>
```

``` r
#first calculate 30 year monthly averages for pck and ppt 
pop_elev_climate_recent_avgs <- pop_elev_climate_recent %>% 
  group_by(parent.pop, elevation.group, elev_m, month) %>% 
  summarise_at(c("cwd", "pck", "ppt", "tmn", "tmx"), c(mean, sem), na.rm = TRUE)
names(pop_elev_climate_recent_avgs) <- gsub("fn2", "sem", colnames(pop_elev_climate_recent_avgs))
names(pop_elev_climate_recent_avgs) <-gsub("fn1", "mean", colnames(pop_elev_climate_recent_avgs))
pop_elev_climate_recent_avgs #30 year averages per month for each pop
```

```
## # A tibble: 276 × 14
## # Groups:   parent.pop, elevation.group, elev_m [23]
##    parent.pop elevation.group elev_m month cwd_mean pck_mean ppt_mean tmn_mean
##    <chr>      <chr>            <dbl> <dbl>    <dbl>    <dbl>    <dbl>    <dbl>
##  1 BH         Low               511.     1     29.4        0  124.        2.81
##  2 BH         Low               511.     2     41.0        0   93.9       3.32
##  3 BH         Low               511.     3     53.9        0   90.1       4.82
##  4 BH         Low               511.     4     59.0        0   48.2       6.41
##  5 BH         Low               511.     5     51.4        0   23.2       9.78
##  6 BH         Low               511.     6     89.3        0    6.34     13.6 
##  7 BH         Low               511.     7    138.         0    0.281    17.5 
##  8 BH         Low               511.     8    154.         0    1.00     17.1 
##  9 BH         Low               511.     9    130.         0    3.75     14.4 
## 10 BH         Low               511.    10     89.1        0   27.7       9.63
## # ℹ 266 more rows
## # ℹ 6 more variables: tmx_mean <dbl>, cwd_sem <dbl>, pck_sem <dbl>,
## #   ppt_sem <dbl>, tmn_sem <dbl>, tmx_sem <dbl>
```

``` r
pop_elev_climate_recent_avgs <- pop_elev_climate_recent_avgs %>% mutate(PckSum=sum(pck_mean)) #estimate of average total snowpack in a year 
pop_elev_climate_recent_avgs %>% arrange(PckSum)
```

```
## # A tibble: 276 × 15
## # Groups:   parent.pop, elevation.group, elev_m [23]
##    parent.pop elevation.group elev_m month cwd_mean pck_mean ppt_mean tmn_mean
##    <chr>      <chr>            <dbl> <dbl>    <dbl>    <dbl>    <dbl>    <dbl>
##  1 BH         Low               511.     1     29.4        0  124.        2.81
##  2 BH         Low               511.     2     41.0        0   93.9       3.32
##  3 BH         Low               511.     3     53.9        0   90.1       4.82
##  4 BH         Low               511.     4     59.0        0   48.2       6.41
##  5 BH         Low               511.     5     51.4        0   23.2       9.78
##  6 BH         Low               511.     6     89.3        0    6.34     13.6 
##  7 BH         Low               511.     7    138.         0    0.281    17.5 
##  8 BH         Low               511.     8    154.         0    1.00     17.1 
##  9 BH         Low               511.     9    130.         0    3.75     14.4 
## 10 BH         Low               511.    10     89.1        0   27.7       9.63
## # ℹ 266 more rows
## # ℹ 7 more variables: tmx_mean <dbl>, cwd_sem <dbl>, pck_sem <dbl>,
## #   ppt_sem <dbl>, tmn_sem <dbl>, tmx_sem <dbl>, PckSum <dbl>
```

``` r
#Exploratory filters
pop_elev_climate_recent %>% filter(parent.pop=="SC") %>% filter(year==2016 | year==2017) #snow pack in Jan 2017
```

```
## # A tibble: 24 × 12
##    parent.pop elevation.group elev_m   Lat  Long  year month   cwd   pck    ppt
##    <chr>      <chr>            <dbl> <dbl> <dbl> <dbl> <dbl> <dbl> <dbl>  <dbl>
##  1 SC         Low               422.  38.4 -121.  2016     4  37.5     0  77.3 
##  2 SC         Low               422.  38.4 -121.  2016     8 159.      0   0.03
##  3 SC         Low               422.  38.4 -121.  2016    12  20.6     0 135.  
##  4 SC         Low               422.  38.4 -121.  2016     2  34.6     0  33.4 
##  5 SC         Low               422.  38.4 -121.  2016     1  20.2     0 212.  
##  6 SC         Low               422.  38.4 -121.  2016     7 142.      0   0   
##  7 SC         Low               422.  38.4 -121.  2016     6  94.8     0   0   
##  8 SC         Low               422.  38.4 -121.  2016     3  30.6     0 223.  
##  9 SC         Low               422.  38.4 -121.  2016     5  69.0     0  12.2 
## 10 SC         Low               422.  38.4 -121.  2016    11  29.6     0  93.9 
## # ℹ 14 more rows
## # ℹ 2 more variables: tmn <dbl>, tmx <dbl>
```
…
```
## # A tibble: 2 × 12
##   parent.pop elevation.group elev_m   Lat  Long  year month   cwd   pck   ppt
##   <chr>      <chr>            <dbl> <dbl> <dbl> <dbl> <dbl> <dbl> <dbl> <dbl>
## 1 IH         Low               454.  39.1 -121.  2017     1  15.6  18.0  495.
## 2 IH         Low               454.  39.1 -121.  2019     2  19.9  42.3  429.
## # ℹ 2 more variables: tmn <dbl>, tmx <dbl>
```

``` r
pop_elev_climate_recent %>% filter(parent.pop=="SQ3") %>% filter(pck==0, ppt < 10) #high elev pops get very little rain and high cwd during growth season ...
```

```
## # A tibble: 105 × 12
##    parent.pop elevation.group elev_m   Lat  Long  year month   cwd   pck   ppt
##    <chr>      <chr>            <dbl> <dbl> <dbl> <dbl> <dbl> <dbl> <dbl> <dbl>
##  1 SQ3        High             2373.  36.7 -119.  1994     8 126.      0  0.3 
##  2 SQ3        High             2373.  36.7 -119.  1994     7 114.      0  6.24
##  3 SQ3        High             2373.  36.7 -119.  1994     6  95.1     0  0.01
##  4 SQ3        High             2373.  36.7 -119.  1995     8  85.1     0  0.2 
##  5 SQ3        High             2373.  36.7 -119.  1995     7  90.6     0  5.44
##  6 SQ3        High             2373.  36.7 -119.  1995    11  46.9     0  0.84
##  7 SQ3        High             2373.  36.7 -119.  1995    10  77.1     0  0   
##  8 SQ3        High             2373.  36.7 -119.  1995     9  84.2     0  0.34
##  9 SQ3        High             2373.  36.7 -119.  1996     7 101.      0  6.29
## 10 SQ3        High             2373.  36.7 -119.  1996     9 101.      0  3.39
## # ℹ 95 more rows
## # ℹ 2 more variables: tmn <dbl>, tmx <dbl>
```

### Historical climate


``` r
pop_elev_climate_historical_avgs <- pop_elev_climate_historical %>% 
  group_by(parent.pop, elevation.group, elev_m, month) %>% 
  summarise_at(c("cwd", "pck", "ppt", "tmn", "tmx"), c(mean, sem), na.rm = TRUE)
names(pop_elev_climate_historical_avgs) <- gsub("fn2", "sem", colnames(pop_elev_climate_historical_avgs))
names(pop_elev_climate_historical_avgs) <-gsub("fn1", "mean", colnames(pop_elev_climate_historical_avgs))
pop_elev_climate_historical_avgs #30 year averages per month for each pop
```

```
## # A tibble: 276 × 14
## # Groups:   parent.pop, elevation.group, elev_m [23]
##    parent.pop elevation.group elev_m month cwd_mean pck_mean ppt_mean tmn_mean
##    <chr>      <chr>            <dbl> <dbl>    <dbl>    <dbl>    <dbl>    <dbl>
##  1 BH         Low               511.     1     28.0    0.234   104.       1.46
##  2 BH         Low               511.     2     40.4    0        92.2      2.76
##  3 BH         Low               511.     3     51.2    0       101.       4.04
##  4 BH         Low               511.     4     62.2    0        46.4      5.57
##  5 BH         Low               511.     5     63.5    0        12.6      8.83
##  6 BH         Low               511.     6     87.5    0         5.73    12.4 
##  7 BH         Low               511.     7    126.     0         2.09    15.6 
##  8 BH         Low               511.     8    149.     0         1.82    15.3 
##  9 BH         Low               511.     9    127.     0        10.1     12.6 
## 10 BH         Low               511.    10     87.3    0        31.9      8.48
## # ℹ 266 more rows
## # ℹ 6 more variables: tmx_mean <dbl>, cwd_sem <dbl>, pck_sem <dbl>,
## #   ppt_sem <dbl>, tmn_sem <dbl>, tmx_sem <dbl>
```

``` r
pop_elev_climate_historical_avgs <- pop_elev_climate_historical_avgs %>%
  mutate(PckSum=sum(pck_mean)) #estimate of average total snowpack in a year 
pop_elev_climate_historical_avgs %>% arrange(PckSum)
```

```
## # A tibble: 276 × 15
## # Groups:   parent.pop, elevation.group, elev_m [23]
##    parent.pop elevation.group elev_m month cwd_mean pck_mean ppt_mean tmn_mean
##    <chr>      <chr>            <dbl> <dbl>    <dbl>    <dbl>    <dbl>    <dbl>
##  1 BH         Low               511.     1     28.0    0.234   104.       1.46
##  2 BH         Low               511.     2     40.4    0        92.2      2.76
##  3 BH         Low               511.     3     51.2    0       101.       4.04
##  4 BH         Low               511.     4     62.2    0        46.4      5.57
##  5 BH         Low               511.     5     63.5    0        12.6      8.83
##  6 BH         Low               511.     6     87.5    0         5.73    12.4 
##  7 BH         Low               511.     7    126.     0         2.09    15.6 
##  8 BH         Low               511.     8    149.     0         1.82    15.3 
##  9 BH         Low               511.     9    127.     0        10.1     12.6 
## 10 BH         Low               511.    10     87.3    0        31.9      8.48
## # ℹ 266 more rows
## # ℹ 7 more variables: tmx_mean <dbl>, cwd_sem <dbl>, pck_sem <dbl>,
## #   ppt_sem <dbl>, tmn_sem <dbl>, tmx_sem <dbl>, PckSum <dbl>
```
…
```
## `summarise()` has grouped output by 'parent.pop', 'elevation.group'. You can
## override using the `.groups` argument.
```

``` r
pop_elev_climate_recent_sums_avgs
```

```
## # A tibble: 23 × 5
## # Groups:   parent.pop, elevation.group [23]
##    parent.pop elevation.group elev_m meanPckSum semPckSum
##    <chr>      <chr>            <dbl>      <dbl>     <dbl>
##  1 BH         Low               511.      0         0    
##  2 CC         Low               313       0         0    
##  3 TM2        Low               379.      0         0    
##  4 SC         Low               422.      0.252     0.252
##  5 IH         Low               454.      2.01      1.51 
##  6 DPR        Mid              1019.     91.6      22.5  
##  7 FR         Mid               787     170.       39.2  
##  8 WV         Mid               749.    317.       49.9  
##  9 WR         Mid              1158     374.       64.8  
## 10 SQ1        Mid              1921.    671.      130.   
## # ℹ 13 more rows
```
…
```
## `summarise()` has grouped output by 'parent.pop', 'elevation.group'. You can
## override using the `.groups` argument.
```

``` r
pop_elev_climate_historical_sums_avgs
```

```
## # A tibble: 23 × 5
## # Groups:   parent.pop, elevation.group [23]
##    parent.pop elevation.group elev_m meanPckSum semPckSum
##    <chr>      <chr>            <dbl>      <dbl>     <dbl>
##  1 BH         Low               511.      0.234     0.234
##  2 SC         Low               422.      0.597     0.506
##  3 CC         Low               313       0.951     0.745
##  4 TM2        Low               379.      5.47      3.40 
##  5 IH         Low               454.     17.7       8.62 
##  6 FR         Mid               787     231.       58.3  
##  7 DPR        Mid              1019.    246.       62.4  
##  8 WV         Mid               749.    438.       84.6  
##  9 WR         Mid              1158     596.      114.   
## 10 WL1        Mid              1614.    941.      140.   
## # ℹ 13 more rows
```
…
``` r
nosnow_recent_last_month_col %>% filter(is.na(lastmonth)) %>% arrange(year) #3 years (1998, 2005, 2019) when IH doesn't have a last month based on these criteria (cwd never goes above 89 in those years)
```

```
## # A tibble: 36 × 16
##    firstmonth lastmonth month growmonth parent.pop elevation.group elev_m PckSum
##         <dbl>     <dbl> <dbl>     <dbl> <chr>      <chr>            <dbl>  <dbl>
##  1          1        NA     1         5 IH         Low               454.   2.01
##  2          1        NA     2         6 IH         Low               454.   2.01
##  3          1        NA     3         7 IH         Low               454.   2.01
##  4          1        NA     4         8 IH         Low               454.   2.01
##  5          1        NA     5         9 IH         Low               454.   2.01
##  6          1        NA     6        10 IH         Low               454.   2.01
##  7          1        NA     7        11 IH         Low               454.   2.01
##  8          1        NA     8        12 IH         Low               454.   2.01
##  9          1        NA     9         1 IH         Low               454.   2.01
## 10          1        NA    10         2 IH         Low               454.   2.01
## # ℹ 26 more rows
## # ℹ 8 more variables: Lat <dbl>, Long <dbl>, year <dbl>, cwd <dbl>, pck <dbl>,
## #   ppt <dbl>, tmn <dbl>, tmx <dbl>
```
…
``` r
#****CAN EXCLUDE THIS CASE 
nosnow_recent_last_month_col %>% filter(lastmonth<4) %>% arrange(parent.pop, year) #some cases where last month is less than 4 (earlier than December)
```

```
## # A tibble: 120 × 16
##    firstmonth lastmonth month growmonth parent.pop elevation.group elev_m PckSum
##         <dbl>     <dbl> <dbl>     <dbl> <chr>      <chr>            <dbl>  <dbl>
##  1          2         1     1         5 CC         Low                313      0
##  2          2         1     2         6 CC         Low                313      0
##  3          2         1     3         7 CC         Low                313      0
##  4          2         1     4         8 CC         Low                313      0
##  5          2         1     5         9 CC         Low                313      0
##  6          2         1     6        10 CC         Low                313      0
##  7          2         1     7        11 CC         Low                313      0
##  8          2         1     8        12 CC         Low                313      0
##  9          2         1     9         1 CC         Low                313      0
## 10          2         1    10         2 CC         Low                313      0
## # ℹ 110 more rows
## # ℹ 8 more variables: Lat <dbl>, Long <dbl>, year <dbl>, cwd <dbl>, pck <dbl>,
## #   ppt <dbl>, tmn <dbl>, tmx <dbl>
```

``` r
nosnow_recent_last_month_col %>% filter(lastmonth<firstmonth, lastmonth<4) %>% arrange(parent.pop, year) #all of the above are when the last month is before the first month (in growyear, not calendar year)
```

```
## # A tibble: 120 × 16
##    firstmonth lastmonth month growmonth parent.pop elevation.group elev_m PckSum
##         <dbl>     <dbl> <dbl>     <dbl> <chr>      <chr>            <dbl>  <dbl>
##  1          2         1     1         5 CC         Low                313      0
##  2          2         1     2         6 CC         Low                313      0
##  3          2         1     3         7 CC         Low                313      0
##  4          2         1     4         8 CC         Low                313      0
##  5          2         1     5         9 CC         Low                313      0
##  6          2         1     6        10 CC         Low                313      0
##  7          2         1     7        11 CC         Low                313      0
##  8          2         1     8        12 CC         Low                313      0
##  9          2         1     9         1 CC         Low                313      0
## 10          2         1    10         2 CC         Low                313      0
## # ℹ 110 more rows
## # ℹ 8 more variables: Lat <dbl>, Long <dbl>, year <dbl>, cwd <dbl>, pck <dbl>,
## #   ppt <dbl>, tmn <dbl>, tmx <dbl>
```
…
```
## # A tibble: 0 × 16
## # ℹ 16 variables: firstmonth <dbl>, lastmonth <dbl>, month <dbl>,
## #   growmonth <dbl>, parent.pop <chr>, elevation.group <chr>, elev_m <dbl>,
## #   PckSum <dbl>, Lat <dbl>, Long <dbl>, year <dbl>, cwd <dbl>, pck <dbl>,
## #   ppt <dbl>, tmn <dbl>, tmx <dbl>
```

``` r
nosnow_recent_last_month_col %>% filter(lastmonth==1) %>% arrange(parent.pop, year) #10 cases where Sept is last month 
```

```
## # A tibble: 120 × 16
##    firstmonth lastmonth month growmonth parent.pop elevation.group elev_m PckSum
##         <dbl>     <dbl> <dbl>     <dbl> <chr>      <chr>            <dbl>  <dbl>
##  1          2         1     1         5 CC         Low                313      0
##  2          2         1     2         6 CC         Low                313      0
##  3          2         1     3         7 CC         Low                313      0
##  4          2         1     4         8 CC         Low                313      0
##  5          2         1     5         9 CC         Low                313      0
##  6          2         1     6        10 CC         Low                313      0
##  7          2         1     7        11 CC         Low                313      0
##  8          2         1     8        12 CC         Low                313      0
##  9          2         1     9         1 CC         Low                313      0
## 10          2         1    10         2 CC         Low                313      0
## # ℹ 110 more rows
## # ℹ 8 more variables: Lat <dbl>, Long <dbl>, year <dbl>, cwd <dbl>, pck <dbl>,
## #   ppt <dbl>, tmn <dbl>, tmx <dbl>
```
…
