…
``` r
ucd_fruits %>% filter(FrFlN>0) %>% arrange(pop) #DPR 2 indivs, BH and TM2 lots, rest only 1 indiv ...
```

```
## # A tibble: 33 × 23
##    block   row col   Genotype pop      mf   rep elevation.group elev_m   Lat
##    <chr> <dbl> <chr> <chr>    <chr> <dbl> <dbl> <chr>            <dbl> <dbl>
##  1 D2       26 B     BH_5_15  BH        5    15 Low               511.  37.4
##  2 D2       29 D     BH_2_9   BH        2     9 Low               511.  37.4
##  3 D2       35 D     BH_3_6   BH        3     6 Low               511.  37.4
##  4 F2       35 D     BH_2_1   BH        2     1 Low               511.  37.4
##  5 H2       24 B     BH_5_29  BH        5    29 Low               511.  37.4
##  6 J1       10 C     BH_3_1   BH        3     1 Low               511.  37.4
##  7 J1       19 C     BH_5_20  BH        5    20 Low               511.  37.4
##  8 J2       23 D     BH_4_9   BH        4     9 Low               511.  37.4
##  9 J2       25 D     BH_2_5   BH        2     5 Low               511.  37.4
## 10 J2       37 B     BH_1_7   BH        1     7 Low               511.  37.4
## # ℹ 23 more rows
## # ℹ 13 more variables: Long <dbl>, flowers <dbl>, fruits <dbl>, FrFlN <dbl>,
## #   GrwSsn_GD_Recent <dbl>, GrwSsn_GD_Historical <dbl>,
## #   Wtr_Year_GD_Recent <dbl>, Wtr_Year_GD_Historical <dbl>, UCD_Lat <dbl>,
## #   UCD_Long <dbl>, UCD_Elev <dbl>, Geographic_Dist <dbl>, Elev_Dist <dbl>
```

``` r
ucd_fruits %>% filter(fruits>0) %>% arrange(pop) #only BH and TM2 with greater than 1 indiv 
```

```
## # A tibble: 30 × 23
##    block   row col   Genotype pop      mf   rep elevation.group elev_m   Lat
##    <chr> <dbl> <chr> <chr>    <chr> <dbl> <dbl> <chr>            <dbl> <dbl>
##  1 D2       26 B     BH_5_15  BH        5    15 Low               511.  37.4
##  2 D2       29 D     BH_2_9   BH        2     9 Low               511.  37.4
##  3 D2       35 D     BH_3_6   BH        3     6 Low               511.  37.4
##  4 F2       35 D     BH_2_1   BH        2     1 Low               511.  37.4
##  5 H2       24 B     BH_5_29  BH        5    29 Low               511.  37.4
##  6 J1       10 C     BH_3_1   BH        3     1 Low               511.  37.4
##  7 J1       19 C     BH_5_20  BH        5    20 Low               511.  37.4
##  8 J2       23 D     BH_4_9   BH        4     9 Low               511.  37.4
##  9 J2       25 D     BH_2_5   BH        2     5 Low               511.  37.4
## 10 J2       37 B     BH_1_7   BH        1     7 Low               511.  37.4
## # ℹ 20 more rows
## # ℹ 13 more variables: Long <dbl>, flowers <dbl>, fruits <dbl>, FrFlN <dbl>,
## #   GrwSsn_GD_Recent <dbl>, GrwSsn_GD_Historical <dbl>,
## #   Wtr_Year_GD_Recent <dbl>, Wtr_Year_GD_Historical <dbl>, UCD_Lat <dbl>,
## #   UCD_Long <dbl>, UCD_Elev <dbl>, Geographic_Dist <dbl>, Elev_Dist <dbl>
```
…
``` r
wl2_fruits_y1 %>% group_by(pop) %>% summarise(n=n()) %>% arrange(n)
```

```
## # A tibble: 23 × 2
##    pop       n
##    <chr> <int>
##  1 WV        3
##  2 WR       14
##  3 LV3      27
##  4 SQ1      30
##  5 SQ3      33
##  6 YO4      40
##  7 FR       48
##  8 WL1      48
##  9 SQ2      61
## 10 TM2      84
## # ℹ 13 more rows
```

``` r
wl2_fruits_y1 %>% filter(fruits>0) #all TM2
```

```
## # A tibble: 25 × 25
##    block BedLoc bed   `bed-row` `bed-col` Genotype pop   mf    rep   flowers
##    <chr> <chr>  <chr>     <dbl> <chr>     <chr>    <chr> <chr> <chr>   <dbl>
##  1 A     A_1_A  A             1 A         TM2_6_11 TM2   6     11          0
##  2 B     A_43_A A            43 A         TM2_6_1  TM2   6     1           0
##  3 B     A_56_B A            56 B         TM2_2_12 TM2   2     12          0
##  4 A     A_23_D A            23 D         TM2_3_3  TM2   3     3           1
##  5 B     A_44_C A            44 C         TM2_6_3  TM2   6     3           1
##  6 C     B_37_A B            37 A         TM2_1_16 TM2   1     16          5
##  7 C     B_36_D B            36 D         TM2_1_4  TM2   1     4           2
##  8 C     B_43_D B            43 D         TM2_7_10 TM2   7     10         20
##  9 F     C_54_B C            54 B         TM2_1_14 TM2   1     14          2
## 10 E     C_32_D C            32 D         TM2_7_12 TM2   7     12          3
## # ℹ 15 more rows
## # ℹ 15 more variables: fruits <dbl>, FrFlN <dbl>, elevation.group <chr>,
## #   elev_m <dbl>, Lat <dbl>, Long <dbl>, GrwSsn_GD_Recent <dbl>,
## #   GrwSsn_GD_Historical <dbl>, Wtr_Year_GD_Recent <dbl>,
## #   Wtr_Year_GD_Historical <dbl>, WL2_Lat <dbl>, WL2_Long <dbl>,
## #   WL2_Elev <dbl>, Geographic_Dist <dbl>, Elev_Dist <dbl>
```

``` r
wl2_fruits_y1 %>% filter(FrFlN>0) #all TM2
```

```
## # A tibble: 26 × 25
##    block BedLoc bed   `bed-row` `bed-col` Genotype pop   mf    rep   flowers
##    <chr> <chr>  <chr>     <dbl> <chr>     <chr>    <chr> <chr> <chr>   <dbl>
##  1 A     A_1_A  A             1 A         TM2_6_11 TM2   6     11          0
##  2 B     A_43_A A            43 A         TM2_6_1  TM2   6     1           0
##  3 B     A_46_B A            46 B         TM2_3_11 TM2   3     11          2
##  4 B     A_56_B A            56 B         TM2_2_12 TM2   2     12          0
##  5 A     A_23_D A            23 D         TM2_3_3  TM2   3     3           1
##  6 B     A_44_C A            44 C         TM2_6_3  TM2   6     3           1
##  7 C     B_37_A B            37 A         TM2_1_16 TM2   1     16          5
##  8 C     B_36_D B            36 D         TM2_1_4  TM2   1     4           2
##  9 C     B_43_D B            43 D         TM2_7_10 TM2   7     10         20
## 10 F     C_54_B C            54 B         TM2_1_14 TM2   1     14          2
## # ℹ 16 more rows
## # ℹ 15 more variables: fruits <dbl>, FrFlN <dbl>, elevation.group <chr>,
## #   elev_m <dbl>, Lat <dbl>, Long <dbl>, GrwSsn_GD_Recent <dbl>,
## #   GrwSsn_GD_Historical <dbl>, Wtr_Year_GD_Recent <dbl>,
## #   Wtr_Year_GD_Historical <dbl>, WL2_Lat <dbl>, WL2_Long <dbl>,
## #   WL2_Elev <dbl>, Geographic_Dist <dbl>, Elev_Dist <dbl>
```
…
