…
```
## Joining with `by = join_by(parent.pop, pop.mf)`
```

``` r
mf_sample_size <- pretrans_surv_mfs_bothsites %>% 
  count(parent.pop, pop.mf, Site) %>% 
  arrange(n)
mf_sample_size
```

```
## # A tibble: 216 × 4
## # Groups:   pop.mf, parent.pop [108]
##    pop.mf parent.pop Site      n
##    <chr>  <chr>      <chr> <int>
##  1 CP3_5  CP3        UCD       1
##  2 CP3_6  CP3        UCD       1
##  3 CP3_7  CP3        UCD       1
##  4 DPR_3  DPR        UCD       1
##  5 DPR_5  DPR        UCD       1
##  6 DPR_7  DPR        UCD       1
##  7 LV1_4  LV1        UCD       1
##  8 LV1_6  LV1        UCD       1
##  9 LV3_1  LV3        WL2       1
## 10 LV3_2  LV3        WL2       1
## # ℹ 206 more rows
```
…
```
## `summarise()` has grouped output by 'parent.pop', 'Site'. You can override
## using the `.groups` argument.
```

``` r
pretrans_rxnnorms_summary
```

```
## # A tibble: 46 × 9
## # Groups:   parent.pop, Site [46]
##    parent.pop Site      elev_m N_height mean_height.cm sem_height.cm N_length
##    <chr>      <chr>      <dbl>    <int>          <dbl>         <dbl>    <int>
##  1 BH         Low Elev    511.      111          2.11         0.0625      111
##  2 BH         High Elev   511.       91          2.27         0.0722       91
##  3 CC         Low Elev    313        44          3.33         0.173        44
##  4 CC         High Elev   313        91          3.04         0.0987       91
##  5 CP2        Low Elev   2244.       38          1.39         0.0809       38
##  6 CP2        High Elev  2244.       91          1.04         0.0388       91
##  7 CP3        Low Elev   2266.        7          1.34         0.282         7
##  8 CP3        High Elev  2266.       91          0.971        0.0339       91
##  9 DPR        Low Elev   1019.       22          3.30         0.310        22
## 10 DPR        High Elev  1019.       90          2.20         0.124        90
## # ℹ 36 more rows
## # ℹ 2 more variables: mean_long.leaf.cm <dbl>, sem_long.leaf.cm <dbl>
```
…
```
## `summarise()` has grouped output by 'parent.pop', 'Site'. You can override
## using the `.groups` argument.
```

``` r
pretrans_surv_pop_avgs %>% arrange(desc(mean_height.cm))
```

```
## # A tibble: 46 × 12
## # Groups:   parent.pop, Site [46]
##    parent.pop Site      elev_m N_Surv mean_Surv sem_surv N_height mean_height.cm
##    <chr>      <chr>      <dbl>  <int>     <dbl>    <dbl>    <int>          <dbl>
##  1 TM2        Low Elev    379.     37     0.216   0.0686       37           4.09
##  2 CC         Low Elev    313      44     0       0            44           3.33
##  3 DPR        Low Elev   1019.     22     0       0            22           3.30
##  4 CC         High Elev   313      91     0.560   0.0523       91           3.04
##  5 TM2        High Elev   379.     84     0.452   0.0546       84           2.96
##  6 FR         Low Elev    787      38     0       0            36           2.91
##  7 IH         High Elev   454.     91     0.593   0.0518       91           2.81
##  8 YO4        Low Elev   2158.      6     0       0             6           2.42
##  9 BH         High Elev   511.     91     0.582   0.0520       91           2.27
## 10 DPR        High Elev  1019.     89     0.337   0.0504       89           2.20
## # ℹ 36 more rows
## # ℹ 4 more variables: sem_height.cm <dbl>, N_length <int>,
## #   mean_long.leaf.cm <dbl>, sem_long.leaf.cm <dbl>
```
…
