…
```r
twomonths_rxnnorms_siten <- twomonths_rxnnorms %>% group_by(Genotype) %>% summarise(SiteN=sum(!is.na(Genotype))) %>% filter(SiteN==2)
twomonths_rxnnorms_siten
```

```
## # A tibble: 172 × 2
##    Genotype SiteN
##    <chr>    <int>
##  1 BH_1_10      2
##  2 BH_1_7       2
##  3 BH_2_1       2
##  4 BH_2_10      2
##  5 BH_2_11      2
##  6 BH_2_12      2
##  7 BH_2_13      2
##  8 BH_2_2       2
##  9 BH_2_3       2
## 10 BH_2_4       2
## # ℹ 162 more rows
```
…
```
## `summarise()` has grouped output by 'parent.pop', 'Site'. You can override
## using the `.groups` argument.
```

```r
twomonths_rxnnorms_summary
```

```
## # A tibble: 40 × 9
## # Groups:   parent.pop, Site [40]
##    parent.pop Site  elev_m N_height mean_height.cm sem_height.cm N_length
##    <chr>      <chr>  <dbl>    <int>          <dbl>         <dbl>    <int>
##  1 BH         UCD     511.       44           3.32         0.142       44
##  2 BH         WL2     511.       44           6.78         0.298       44
##  3 CC         UCD     313        16           4.28         0.378       16
##  4 CC         WL2     313        16           8.88         0.496       16
##  5 CP2        UCD    2244.        8           2.11         0.473        8
##  6 CP2        WL2    2244.        8           2.69         0.522        5
##  7 CP3        UCD    2266.        3           0.6          0.3          3
##  8 CP3        WL2    2266.        3           2.17         0.376        2
##  9 DPR        UCD    1019.        4           4.75         0.803        4
## 10 DPR        WL2    1019.        4           5.28         0.857        4
## # ℹ 30 more rows
## # ℹ 2 more variables: mean_long.leaf.cm <dbl>, sem_long.leaf.cm <dbl>
```
…
