…
```
## `summarise()` has grouped output by 'survey_month'. You can override using the
## `.groups` argument.
```

```r
sample_sizes
```

```
## # A tibble: 67 × 3
## # Groups:   survey_month [3]
##    survey_month parent.pop samplesize
##    <chr>        <chr>           <int>
##  1 dec_size     WV                  2
##  2 dec_size     LV1                 3
##  3 dec_size     CP3                 6
##  4 dec_size     YO4                 6
##  5 dec_size     WR                  9
##  6 dec_size     SQ3                10
##  7 dec_size     LVTR1              13
##  8 dec_size     YO11               13
##  9 dec_size     YO8                13
## 10 dec_size     YO7                16
## # ℹ 57 more rows
```
…
```
## `summarise()` has grouped output by 'survey_month', 'parent.pop'. You can
## override using the `.groups` argument.
```

```r
single_time_all_GTONE_transf_summary
```

```
## # A tibble: 63 × 7
## # Groups:   survey_month, parent.pop [63]
##    survey_month parent.pop elev_m mean_height_cm sem_height_cm
##    <fct>        <chr>       <dbl>          <dbl>         <dbl>
##  1 dec_size     BH           511.           2.45        0.0779
##  2 dec_size     CC           313            3.86        0.198 
##  3 dec_size     CP2         2244.           1.64        0.139 
##  4 dec_size     CP3         2266.           0.9         0.193 
##  5 dec_size     DPR         1019.           4.18        0.352 
##  6 dec_size     FR           787            3.06        0.186 
##  7 dec_size     IH           454.           2.70        0.108 
##  8 dec_size     LV1         2593.           1.3         0.493 
##  9 dec_size     LV3         2354.           1.84        0.0994
## 10 dec_size     LVTR1       2741.           1.85        0.251 
## # ℹ 53 more rows
## # ℹ 2 more variables: mean_longest_leaf_cm <dbl>, sem_longest_leaf_cm <dbl>
```
…
