…
``` r
ucd_surv %>% filter(!is.na(bud.date), !is.na(death.date)) #many plants with a bud date, have a later death date 
```

```
## # A tibble: 46 × 15
##    BedLoc  block   row col   Genotype pop      mf   rep bud.date flower.date
##    <chr>   <chr> <dbl> <chr> <chr>    <chr> <dbl> <dbl> <chr>    <chr>      
##  1 D2_31_B D2       31 B     TM2_4_11 TM2       4    11 4/10/23  4/24/23    
##  2 D2_37_B D2       37 B     TM2_6_5  TM2       6     5 3/17/23  <NA>       
##  3 D2_35_D D2       35 D     BH_3_6   BH        3     6 5/1/23   5/18/23    
##  4 F1_8_A  F1        8 A     TM2_2_2  TM2       2     2 3/22/23  <NA>       
##  5 F1_4_C  F1        4 C     TM2_5_7  TM2       5     7 3/17/23  4/17/23    
##  6 F1_6_C  F1        6 C     DPR_6_9  DPR       6     9 3/31/23  <NA>       
##  7 F2_35_D F2       35 D     BH_2_1   BH        2     1 5/22/23  6/5/23     
##  8 F2_40_C F2       40 C     DPR_7_4  DPR       7     4 3/17/23  <NA>       
##  9 F2_40_D F2       40 D     TM2_1_4  TM2       1     4 3/17/23  4/17/23    
## 10 H1_4_B  H1        4 B     BH_2_12  BH        2    12 5/30/23  <NA>       
## # ℹ 36 more rows
## # ℹ 5 more variables: fruit.date <chr>, last.flower.date <chr>,
## #   last.fruit.date <chr>, death.date <chr>, Notes <chr>
```
…
```
## # A tibble: 0 × 16
## # ℹ 16 variables: block <chr>, BedLoc <chr>, bed <chr>, bed.row <dbl>,
## #   bed.col <chr>, Genotype <chr>, pop <chr>, mf <chr>, rep <chr>,
## #   bud.date <chr>, flower.date <chr>, fruit.date <chr>,
## #   last.flower.date <chr>, last.fruit.date <lgl>, death.date <chr>,
## #   survey.notes <chr>
```

``` r
wl2_surv_y1 %>% filter(is.na(bud.date))
```

```
## # A tibble: 1,539 × 16
##    block BedLoc bed   bed.row bed.col Genotype   pop   mf    rep   bud.date
##    <chr> <chr>  <chr>   <dbl> <chr>   <chr>      <chr> <chr> <chr> <chr>   
##  1 A     A_1_B  A           1 B       LVTR1_7_1  LVTR1 7     1     <NA>    
##  2 A     A_2_A  A           2 A       SQ2_6_14   SQ2   6     14    <NA>    
##  3 A     A_2_B  A           2 B       YO8_8_3    YO8   8     3     <NA>    
##  4 A     A_3_A  A           3 A       CC_2_3     CC    2     3     <NA>    
##  5 A     A_3_B  A           3 B       YO11_5_14  YO11  5     14    <NA>    
##  6 A     A_4_A  A           4 A       BH_6_3     BH    6     3     <NA>    
##  7 A     A_4_B  A           4 B       DPR_4_8    DPR   4     8     <NA>    
##  8 A     A_5_A  A           5 A       CP2_5_1    CP2   5     1     <NA>    
##  9 A     A_5_B  A           5 B       LVTR1_3_12 LVTR1 3     12    <NA>    
## 10 A     A_6_A  A           6 A       CC_5_3     CC    5     3     <NA>    
## # ℹ 1,529 more rows
## # ℹ 6 more variables: flower.date <chr>, fruit.date <chr>,
## #   last.flower.date <chr>, last.fruit.date <lgl>, death.date <chr>,
## #   survey.notes <chr>
```
…
