…
### WL2 Avg Gowers

``` r
wl2_gowers_2023_prep <- wl2_gowers_2023 %>% rename_with(~paste0(., "_2023"), 6:9)
wl2_gowers_2024_prep <- wl2_gowers_2024 %>% rename_with(~paste0(., "_2024"), 6:9)

wl2_gowers_avg <- bind_rows(wl2_gowers_2023, wl2_gowers_2024) %>% 
  group_by(pop, elevation.group, elev_m, Geographic_Dist) %>% 
  summarise_at(c("GrwSsn_GD_Recent",  "GrwSsn_GD_Historical", "Wtr_Year_GD_Recent", "Wtr_Year_GD_Historical"), c(mean), na.rm = TRUE)
wl2_gowers_avg
```

```
## # A tibble: 23 × 8
## # Groups:   pop, elevation.group, elev_m [23]
##    pop   elevation.group elev_m Geographic_Dist GrwSsn_GD_Recent
##    <chr> <chr>            <dbl>           <dbl>            <dbl>
##  1 BH    Low               511.         159626.            0.312
##  2 CC    Low               313          132498.            0.417
##  3 CP2   High             2244.          21060.            0.301
##  4 CP3   High             2266.          19415.            0.324
##  5 DPR   Mid              1019.          66246.            0.439
##  6 FR    Mid               787          154694.            0.386
##  7 IH    Low               454.          65203.            0.440
##  8 LV1   High             2593.         212682.            0.379
##  9 LV3   High             2354.         213902.            0.380
## 10 LVTR1 High             2741.         213038.            0.404
## # ℹ 13 more rows
## # ℹ 3 more variables: GrwSsn_GD_Historical <dbl>, Wtr_Year_GD_Recent <dbl>,
## #   Wtr_Year_GD_Historical <dbl>
```
…
``` r
ucd_surv %>% filter(!is.na(bud.date), !is.na(death.date)) #many plants with a bud date, have a later death date 
```

```
## # A tibble: 46 × 14
##    block   row col   Genotype pop      mf   rep bud.date flower.date fruit.date
##    <chr> <dbl> <chr> <chr>    <chr> <dbl> <dbl> <chr>    <chr>       <chr>     
##  1 D2       31 B     TM2_4_11 TM2       4    11 4/10/23  4/24/23     5/1/23    
##  2 D2       37 B     TM2_6_5  TM2       6     5 3/17/23  <NA>        <NA>      
##  3 D2       35 D     BH_3_6   BH        3     6 5/1/23   5/18/23     5/22/23   
##  4 F1        8 A     TM2_2_2  TM2       2     2 3/22/23  <NA>        <NA>      
##  5 F1        4 C     TM2_5_7  TM2       5     7 3/17/23  4/17/23     4/24/23   
##  6 F1        6 C     DPR_6_9  DPR       6     9 3/31/23  <NA>        <NA>      
##  7 F2       35 D     BH_2_1   BH        2     1 5/22/23  6/5/23      6/15/23   
##  8 F2       40 C     DPR_7_4  DPR       7     4 3/17/23  <NA>        <NA>      
##  9 F2       40 D     TM2_1_4  TM2       1     4 3/17/23  4/17/23     5/11/23   
## 10 H1        4 B     BH_2_12  BH        2    12 5/30/23  <NA>        <NA>      
## # ℹ 36 more rows
## # ℹ 4 more variables: last.flower.date <chr>, last.fruit.date <chr>,
## #   death.date <chr>, Notes <chr>
```
…
```
## # A tibble: 0 × 16
## # ℹ 16 variables: block <chr>, BedLoc <chr>, bed <chr>, bed.row <dbl>,
## #   bed.col <chr>, Genotype <chr>, pop <chr>, mf <chr>, rep <chr>,
## #   bud.date <chr>, flower.date <chr>, fruit.date <chr>,
## #   last.flower.date <chr>, last.fruit.date <lgl>, death.date <chr>,
## #   survey.notes <chr>
```

``` r
wl2_surv_y1 %>% filter(is.na(bud.date))
```

```
## # A tibble: 1,539 × 16
##    block BedLoc bed   bed.row bed.col Genotype   pop   mf    rep   bud.date
##    <chr> <chr>  <chr>   <dbl> <chr>   <chr>      <chr> <chr> <chr> <chr>   
##  1 A     A_1_B  A           1 B       LVTR1_7_1  LVTR1 7     1     <NA>    
##  2 A     A_2_A  A           2 A       SQ2_6_14   SQ2   6     14    <NA>    
##  3 A     A_2_B  A           2 B       YO8_8_3    YO8   8     3     <NA>    
##  4 A     A_3_A  A           3 A       CC_2_3     CC    2     3     <NA>    
##  5 A     A_3_B  A           3 B       YO11_5_14  YO11  5     14    <NA>    
##  6 A     A_4_A  A           4 A       BH_6_3     BH    6     3     <NA>    
##  7 A     A_4_B  A           4 B       DPR_4_8    DPR   4     8     <NA>    
##  8 A     A_5_A  A           5 A       CP2_5_1    CP2   5     1     <NA>    
##  9 A     A_5_B  A           5 B       LVTR1_3_12 LVTR1 3     12    <NA>    
## 10 A     A_6_A  A           6 A       CC_5_3     CC    5     3     <NA>    
## # ℹ 1,529 more rows
## # ℹ 6 more variables: flower.date <chr>, fruit.date <chr>,
## #   last.flower.date <chr>, last.fruit.date <lgl>, death.date <chr>,
## #   survey.notes <chr>
```
…
WL2
*Used only water year gowers distance for 2024 b/c that's the only one that includes the winter months 

``` r
#wl2_surv_y1 %>% filter(is.na(death.date)) - 470 plants alive on 10/27
post_winter_clean %>% filter(is.na(death.date)) #44 plants with no death date, most have a death date of 10/27
```

```
## # A tibble: 44 × 11
##    block BedLoc bed   `bed- row` `bed- col` Genotype  pop      mf   rep
##    <chr> <chr>  <chr>      <dbl> <chr>      <chr>     <chr> <dbl> <dbl>
##  1 B     A_37_B A             37 B          WL2_8_10  WL2       8    10
##  2 B     A_58_A A             58 A          YO8_1_13  YO8       1    13
##  3 B     A_57_D A             57 D          YO11_4_13 YO11      4    13
##  4 C     B_32_B B             32 B          SQ3_6_5   SQ3       6     5
##  5 C     B_33_D B             33 D          YO4_1_1   YO4       1     1
##  6 D     C_6_D  C              6 D          WL1_7_20  WL1       7    20
##  7 D     C_7_D  C              7 D          WL1_10_4  WL1      10     4
##  8 D     C_13_D C             13 D          WL1_7_8   WL1       7     8
##  9 E     C_36_D C             36 D          LVTR1_6_5 LVTR1     6     5
## 10 E     C_40_D C             40 D          YO11_8_16 YO11      8    16
## # ℹ 34 more rows
## # ℹ 2 more variables: death.date <chr>, survey.notes <chr>
```
…
``` r
#1 plant with a last flower date, but no fruit date, this plant did not make any fruits per the notes 
wl2_surv_y2 %>% filter(!is.na(bud.date), !is.na(death.date))  #bud date and death date for a lot of plants
```

```
## # A tibble: 74 × 17
##    Pop.Type      loc    bed     row col   pop      mf   rep Genotype bud.date
##    <chr>         <chr>  <chr> <dbl> <chr> <chr> <dbl> <dbl> <chr>    <chr>   
##  1 2023-survivor A_17_A A        17 A     BH        7     3 BH_7_3   6/18/24 
##  2 2023-survivor A_18_A A        18 A     BH        4     3 BH_4_3   6/18/24 
##  3 2023-survivor A_24_A A        24 A     WL2       7     9 WL2_7_9  6/18/24 
##  4 2023-survivor A_32_B A        32 B     IH        7     4 IH_7_4   6/18/24 
##  5 2023-survivor A_35_A A        35 A     SC        8     4 SC_8_4   6/18/24 
##  6 2023-survivor A_36_A A        36 A     BH        3     4 BH_3_4   6/18/24 
##  7 2023-survivor A_39_B A        39 B     WL2       7    10 WL2_7_10 6/18/24 
##  8 2023-survivor A_45_B A        45 B     IH        2     4 IH_2_4   7/2/24  
##  9 2023-survivor A_49_A A        49 A     YO7       7    23 YO7_7_23 6/18/24 
## 10 2023-survivor A_53_A A        53 A     CC        4     4 CC_4_4   6/18/24 
## # ℹ 64 more rows
## # ℹ 7 more variables: flower.date <chr>, fruit.date <chr>, last.FL.date <chr>,
## #   last.FR.date <chr>, death.date <chr>, missing.date <chr>,
## #   survey.notes <chr>
```
…
``` r
ucd_total_fitness %>% filter(Total_Fitness>0)
```

```
## # A tibble: 30 × 22
##    block   row col   Genotype pop      mf   rep elevation.group elev_m   Lat
##    <chr> <dbl> <chr> <chr>    <chr> <dbl> <dbl> <chr>            <dbl> <dbl>
##  1 D2       26 B     BH_5_15  BH        5    15 Low               511.  37.4
##  2 D2       31 B     TM2_4_11 TM2       4    11 Low               379.  39.6
##  3 D2       29 D     BH_2_9   BH        2     9 Low               511.  37.4
##  4 D2       35 D     BH_3_6   BH        3     6 Low               511.  37.4
##  5 F1        4 C     TM2_5_7  TM2       5     7 Low               379.  39.6
##  6 F2       35 D     BH_2_1   BH        2     1 Low               511.  37.4
##  7 F2       40 D     TM2_1_4  TM2       1     4 Low               379.  39.6
##  8 H1       19 A     TM2_5_1  TM2       5     1 Low               379.  39.6
##  9 H2       24 B     BH_5_29  BH        5    29 Low               511.  37.4
## 10 H2       36 B     TM2_3_1  TM2       3     1 Low               379.  39.6
## # ℹ 20 more rows
## # ℹ 12 more variables: Long <dbl>, GrwSsn_GD_Recent <dbl>,
## #   GrwSsn_GD_Historical <dbl>, Wtr_Year_GD_Recent <dbl>,
## #   Wtr_Year_GD_Historical <dbl>, Geographic_Dist <dbl>, Elev_Dist <dbl>,
## #   Establishment <dbl>, SurvtoRep_Y1 <dbl>, flowers <dbl>, fruits <dbl>,
## #   Total_Fitness <dbl>
```

``` r
ucd_total_fitness %>% group_by(pop) %>% summarise(n=n()) %>% arrange(n)
```

```
## # A tibble: 23 × 2
##    pop       n
##    <chr> <int>
##  1 WV        2
##  2 LV1       3
##  3 YO4       6
##  4 CP3       8
##  5 WR        9
##  6 SQ3      10
##  7 YO8      13
##  8 YO11     14
##  9 LVTR1    15
## 10 YO7      17
## # ℹ 13 more rows
```
…
``` r
wl2_total_fitness %>% group_by(pop) %>% summarise(n=n()) %>% arrange(n)
```

```
## # A tibble: 23 × 2
##    pop       n
##    <chr> <int>
##  1 WV        3
##  2 WR       14
##  3 LV3      27
##  4 SQ1      30
##  5 SQ3      33
##  6 YO4      40
##  7 FR       48
##  8 WL1      48
##  9 SQ2      61
## 10 TM2      84
## # ℹ 13 more rows
```
…
