…
``` r
#twomonths_rxnnorms_summary_mfs_bothsites

twomonths_rxnnorms_summary_mfs2 <- twomonths_rxnnorms_summary_mfs_bothsites %>% 
  mutate(Site=str_replace_all(Site, "UCD", "Low Elev"), 
         Site=str_replace_all(Site, "WL2", "High Elev")) 
twomonths_rxnnorms_summary_mfs2$Site <- factor(twomonths_rxnnorms_summary_mfs2$Site,
                                               levels = c('Low Elev','High Elev'))

twomonths_rxnnorms_summary_mfs2 %>% filter(N_height!=1) %>% filter(is.na(sem_height.cm))
```

```
## # A tibble: 21 × 13
## # Groups:   pop.mf, parent.pop [20]
##    parent.pop pop.mf   UCD   WL2 Both.Sites Site  elev_m N_height mean_height.cm
##    <chr>      <chr>  <int> <int> <lgl>      <fct>  <dbl>    <int>          <dbl>
##  1 CP3        CP3_7      0     1 TRUE       Low …  2266.        0            NaN
##  2 DPR        DPR_3      0     5 TRUE       Low …  1019.        0            NaN
##  3 FR         FR_1       6     0 TRUE       High…   787         0            NaN
##  4 FR         FR_3       3     0 TRUE       High…   787         0            NaN
##  5 LV1        LV1_6      0     3 TRUE       Low …  2593.        0            NaN
##  6 LV3        LV3_1     11     0 TRUE       High…  2354.        0            NaN
##  7 LV3        LV3_2      3     0 TRUE       High…  2354.        0            NaN
##  8 LVTR1      LVTR1…     2     0 TRUE       High…  2741.        0            NaN
##  9 SQ1        SQ1_3      0     0 TRUE       Low …  1921.        0            NaN
## 10 SQ1        SQ1_3      0     0 TRUE       High…  1921.        0            NaN
## # ℹ 11 more rows
## # ℹ 4 more variables: sem_height.cm <dbl>, N_length <int>,
## #   mean_long.leaf.cm <dbl>, sem_long.leaf.cm <dbl>
```
…
```
## `summarise()` has grouped output by 'parent.pop', 'Site', 'elev_m',
## 'Wtr_Year_GD_Recent'. You can override using the `.groups` argument.
```

``` r
#twomonths_rxnnorms_summary_pops

twomonths_rxnnorms_summary_pops %>% arrange(N_height)
```

```
## # A tibble: 46 × 11
## # Groups:   parent.pop, Site, elev_m, Wtr_Year_GD_Recent [46]
##    parent.pop Site  elev_m Wtr_Year_GD_Recent Wtr_Year_GD_Historical N_height
##    <chr>      <chr>  <dbl>              <dbl>                  <dbl>    <int>
##  1 WV         WL2     749.              0.481                  0.493        0
##  2 LV1        UCD    2593.              0.791                  0.789        1
##  3 WV         UCD     749.              0.410                  0.441        1
##  4 WR         WL2    1158               0.418                  0.407        3
##  5 YO4        UCD    2158.              0.540                  0.525        5
##  6 CP3        UCD    2266.              0.636                  0.640        6
##  7 WR         UCD    1158               0.515                  0.483        7
##  8 LV3        WL2    2354.              0.373                  0.466        8
##  9 YO11       UCD    2872.              0.579                  0.583        8
## 10 LVTR1      UCD    2741.              0.801                  0.801        9
## # ℹ 36 more rows
## # ℹ 5 more variables: mean_height.cm <dbl>, sem_height.cm <dbl>,
## #   N_length <int>, mean_long.leaf.cm <dbl>, sem_long.leaf.cm <dbl>
```
…
