…
```
## # A tibble: 23 × 13
##    parent.pop elevation.group elev_m ann_tmean_dist mean_diurnal_range_dist
##    <chr>      <chr>            <dbl>          <dbl>                   <dbl>
##  1 BH         Low               511.          1.61                  0.599  
##  2 CC         Low               313           1.16                  2.22   
##  3 CP2        High             2244.          4.34                  1.37   
##  4 CP3        High             2266.          5.03                  1.60   
##  5 DPR        Mid              1019.         -0.963                 1.14   
##  6 FR         Mid               787          -0.392                -1.74   
##  7 IH         Low               454.         -0.152                 0.896  
##  8 LV1        High             2593.          5.21                 -0.0713 
##  9 LV3        High             2354.          5.24                  0.00938
## 10 LVTR1      High             2741.          5.42                 -0.239  
## # ℹ 13 more rows
## # ℹ 8 more variables: temp_seasonality_dist <dbl>, temp_ann_range_dist <dbl>,
## #   tmean_wettest_month_dist <dbl>, tmean_driest_month_dist <dbl>,
## #   ann_ppt_dist <dbl>, ppt_seasonality_dist <dbl>,
## #   ppt_warmest_month_dist <dbl>, ppt_coldest_month_dist <dbl>
```
…
```
## # A tibble: 23 × 13
##    parent.pop elevation.group elev_m ann_tmean_dist mean_diurnal_range_dist
##    <chr>      <chr>            <dbl>          <dbl>                   <dbl>
##  1 BH         Low               511.          2.60                    0.308
##  2 CC         Low               313           0.472                   0.871
##  3 CP2        High             2244.          3.70                    0.362
##  4 CP3        High             2266.          4.33                    0.749
##  5 DPR        Mid              1019.         -0.570                  -0.104
##  6 FR         Mid               787           0.231                  -2.99 
##  7 IH         Low               454.          0.579                   0.256
##  8 LV1        High             2593.          8.13                   -0.886
##  9 LV3        High             2354.          8.19                   -0.865
## 10 LVTR1      High             2741.          8.31                   -0.913
## # ℹ 13 more rows
## # ℹ 8 more variables: temp_seasonality_dist <dbl>, temp_ann_range_dist <dbl>,
## #   tmean_wettest_month_dist <dbl>, tmean_driest_month_dist <dbl>,
## #   ann_ppt_dist <dbl>, ppt_seasonality_dist <dbl>,
## #   ppt_warmest_month_dist <dbl>, ppt_coldest_month_dist <dbl>
```
…
