…
```r
anncensustrans_all_alive_max_elev %>% group_by(parent.pop, mf) %>% 
  filter(!is.na(diam)) %>% 
  summarise(n=n()) #low replication at maternal family level 
```

```
## `summarise()` has grouped output by 'parent.pop'. You can override using the
## `.groups` argument.
```

```
## # A tibble: 27 × 3
## # Groups:   parent.pop [10]
##    parent.pop    mf     n
##    <chr>      <dbl> <int>
##  1 BH             1     1
##  2 BH             2     5
##  3 BH             3     7
##  4 BH             4     8
##  5 BH             5     6
##  6 BH             6     2
##  7 BH             7     2
##  8 CP2            1     1
##  9 CP2            3     2
## 10 DPR            5     1
## # ℹ 17 more rows
```
…
