…
gowers_calc_per_pop_recent <- gowers_calc_each_var_recent %>% 
  mutate(Recent_Gowers_Dist=(1/14)*(cwd_gowers + ppt_gowers + tmn_gowers + tmx_gowers +
                                ann_tmean_gowers + mean_diurnal_range_gowers +
                                temp_seasonality_gowers +temp_ann_range_gowers +
                                tmean_wettest_month_gowers +
                                tmean_driest_month_gowers +ann_ppt_gowers +
                                ppt_seasonality_gowers + ppt_warmest_month_gowers +
                                ppt_coldest_month_gowers)) %>% 
  dplyr::select(parent.pop, elevation.group, elev_m, Recent_Gowers_Dist)

gowers_calc_per_pop_recent
```

```
## # A tibble: 23 × 4
##    parent.pop elevation.group elev_m Recent_Gowers_Dist
##    <chr>      <chr>            <dbl>              <dbl>
##  1 BH         Low               511.              0.330
##  2 CC         Low               313               0.227
##  3 CP2        High             2244.              0.422
##  4 CP3        High             2266.              0.484
##  5 DPR        Mid              1019.              0.236
##  6 FR         Mid               787               0.170
##  7 IH         Low               454.              0.229
##  8 LV1        High             2593.              0.478
##  9 LV3        High             2354.              0.494
## 10 LVTR1      High             2741.              0.488
## # ℹ 13 more rows
```
…
gowers_calc_per_pop_historic <- gowers_calc_each_var_historic %>% 
  mutate(Historic_Gowers_Dist=(1/14)*(cwd_gowers + ppt_gowers + tmn_gowers + tmx_gowers +
                                ann_tmean_gowers + mean_diurnal_range_gowers +
                                temp_seasonality_gowers +temp_ann_range_gowers +
                                tmean_wettest_month_gowers +
                                tmean_driest_month_gowers +ann_ppt_gowers +
                                ppt_seasonality_gowers + ppt_warmest_month_gowers +
                                ppt_coldest_month_gowers)) %>% 
  dplyr::select(parent.pop, elevation.group, elev_m, Historic_Gowers_Dist)

gowers_calc_per_pop_historic
```

```
## # A tibble: 23 × 4
##    parent.pop elevation.group elev_m Historic_Gowers_Dist
##    <chr>      <chr>            <dbl>                <dbl>
##  1 BH         Low               511.                0.336
##  2 CC         Low               313                 0.399
##  3 CP2        High             2244.                0.404
##  4 CP3        High             2266.                0.467
##  5 DPR        Mid              1019.                0.167
##  6 FR         Mid               787                 0.209
##  7 IH         Low               454.                0.253
##  8 LV1        High             2593.                0.660
##  9 LV3        High             2354.                0.672
## 10 LVTR1      High             2741.                0.672
## # ℹ 13 more rows
```
…
``` r
gowers_all_time <- full_join(gowers_calc_per_pop_recent, gowers_calc_per_pop_historic)
```

```
## Joining with `by = join_by(parent.pop, elevation.group, elev_m)`
```

``` r
gowers_all_time
```

```
## # A tibble: 23 × 5
##    parent.pop elevation.group elev_m Recent_Gowers_Dist Historic_Gowers_Dist
##    <chr>      <chr>            <dbl>              <dbl>                <dbl>
##  1 BH         Low               511.              0.330                0.336
##  2 CC         Low               313               0.227                0.399
##  3 CP2        High             2244.              0.422                0.404
##  4 CP3        High             2266.              0.484                0.467
##  5 DPR        Mid              1019.              0.236                0.167
##  6 FR         Mid               787               0.170                0.209
##  7 IH         Low               454.              0.229                0.253
##  8 LV1        High             2593.              0.478                0.660
##  9 LV3        High             2354.              0.494                0.672
## 10 LVTR1      High             2741.              0.488                0.672
## # ℹ 13 more rows
```
…
gowers_calc_per_pop_recent_flint <- gowers_calc_each_var_recent_flint %>% 
  mutate(Recent_Gowers_Dist=(1/4)*(cwd_gowers + ppt_gowers + tmn_gowers + tmx_gowers)) %>% 
  dplyr::select(parent.pop, elevation.group, elev_m, Recent_Gowers_Dist)

gowers_calc_per_pop_recent_flint
```

```
## # A tibble: 23 × 4
##    parent.pop elevation.group elev_m Recent_Gowers_Dist
##    <chr>      <chr>            <dbl>              <dbl>
##  1 BH         Low               511.             0.318 
##  2 CC         Low               313              0.293 
##  3 CP2        High             2244.             0.408 
##  4 CP3        High             2266.             0.519 
##  5 DPR        Mid              1019.             0.336 
##  6 FR         Mid               787              0.0974
##  7 IH         Low               454.             0.319 
##  8 LV1        High             2593.             0.494 
##  9 LV3        High             2354.             0.543 
## 10 LVTR1      High             2741.             0.482 
## # ℹ 13 more rows
```
…
  
gowers_calc_per_pop_historic_flint <- gowers_calc_each_var_historic_flint %>% 
  mutate(Historic_Gowers_Dist=(1/4)*(cwd_gowers + ppt_gowers + tmn_gowers + tmx_gowers)) %>% 
  dplyr::select(parent.pop, elevation.group, elev_m, Historic_Gowers_Dist)

gowers_calc_per_pop_historic_flint
```

```
## # A tibble: 23 × 4
##    parent.pop elevation.group elev_m Historic_Gowers_Dist
##    <chr>      <chr>            <dbl>                <dbl>
##  1 BH         Low               511.                0.329
##  2 CC         Low               313                 0.456
##  3 CP2        High             2244.                0.270
##  4 CP3        High             2266.                0.383
##  5 DPR        Mid              1019.                0.296
##  6 FR         Mid               787                 0.113
##  7 IH         Low               454.                0.350
##  8 LV1        High             2593.                0.768
##  9 LV3        High             2354.                0.814
## 10 LVTR1      High             2741.                0.771
## # ℹ 13 more rows
```
…
``` r
gowers_all_time_flint <- full_join(gowers_calc_per_pop_recent_flint, gowers_calc_per_pop_historic_flint)
```

```
## Joining with `by = join_by(parent.pop, elevation.group, elev_m)`
```

``` r
gowers_all_time_flint
```

```
## # A tibble: 23 × 5
##    parent.pop elevation.group elev_m Recent_Gowers_Dist Historic_Gowers_Dist
##    <chr>      <chr>            <dbl>              <dbl>                <dbl>
##  1 BH         Low               511.             0.318                 0.329
##  2 CC         Low               313              0.293                 0.456
##  3 CP2        High             2244.             0.408                 0.270
##  4 CP3        High             2266.             0.519                 0.383
##  5 DPR        Mid              1019.             0.336                 0.296
##  6 FR         Mid               787              0.0974                0.113
##  7 IH         Low               454.             0.319                 0.350
##  8 LV1        High             2593.             0.494                 0.768
##  9 LV3        High             2354.             0.543                 0.814
## 10 LVTR1      High             2741.             0.482                 0.771
## # ℹ 13 more rows
```
…
gowers_calc_per_pop_recent_bioclim <- gowers_calc_each_var_recent_bioclim %>% 
  mutate(Recent_Gowers_Dist=(1/10)*(ann_tmean_gowers + mean_diurnal_range_gowers +
                                temp_seasonality_gowers +temp_ann_range_gowers +
                                tmean_wettest_month_gowers +
                                tmean_driest_month_gowers +ann_ppt_gowers +
                                ppt_seasonality_gowers + ppt_warmest_month_gowers +
                                ppt_coldest_month_gowers)) %>% 
  dplyr::select(parent.pop, elevation.group, elev_m, Recent_Gowers_Dist)

gowers_calc_per_pop_recent_bioclim
```

```
## # A tibble: 23 × 4
##    parent.pop elevation.group elev_m Recent_Gowers_Dist
##    <chr>      <chr>            <dbl>              <dbl>
##  1 BH         Low               511.              0.335
##  2 CC         Low               313               0.201
##  3 CP2        High             2244.              0.427
##  4 CP3        High             2266.              0.470
##  5 DPR        Mid              1019.              0.196
##  6 FR         Mid               787               0.199
##  7 IH         Low               454.              0.193
##  8 LV1        High             2593.              0.472
##  9 LV3        High             2354.              0.475
## 10 LVTR1      High             2741.              0.490
## # ℹ 13 more rows
```
…
  
gowers_calc_per_pop_historic_bioclim <- gowers_calc_each_var_historic_bioclim %>% 
  mutate(Historic_Gowers_Dist=(1/10)*(ann_tmean_gowers + mean_diurnal_range_gowers +
                                temp_seasonality_gowers +temp_ann_range_gowers +
                                tmean_wettest_month_gowers +
                                tmean_driest_month_gowers +ann_ppt_gowers +
                                ppt_seasonality_gowers + ppt_warmest_month_gowers +
                                ppt_coldest_month_gowers)) %>% 
  dplyr::select(parent.pop, elevation.group, elev_m, Historic_Gowers_Dist)

gowers_calc_per_pop_historic_bioclim
```

```
## # A tibble: 23 × 4
##    parent.pop elevation.group elev_m Historic_Gowers_Dist
##    <chr>      <chr>            <dbl>                <dbl>
##  1 BH         Low               511.                0.338
##  2 CC         Low               313                 0.376
##  3 CP2        High             2244.                0.458
##  4 CP3        High             2266.                0.501
##  5 DPR        Mid              1019.                0.115
##  6 FR         Mid               787                 0.248
##  7 IH         Low               454.                0.214
##  8 LV1        High             2593.                0.617
##  9 LV3        High             2354.                0.616
## 10 LVTR1      High             2741.                0.632
## # ℹ 13 more rows
```
…
``` r
gowers_all_time_bioclim <- full_join(gowers_calc_per_pop_recent_bioclim, gowers_calc_per_pop_historic_bioclim)
```

```
## Joining with `by = join_by(parent.pop, elevation.group, elev_m)`
```

``` r
gowers_all_time_bioclim
```

```
## # A tibble: 23 × 5
##    parent.pop elevation.group elev_m Recent_Gowers_Dist Historic_Gowers_Dist
##    <chr>      <chr>            <dbl>              <dbl>                <dbl>
##  1 BH         Low               511.              0.335                0.338
##  2 CC         Low               313               0.201                0.376
##  3 CP2        High             2244.              0.427                0.458
##  4 CP3        High             2266.              0.470                0.501
##  5 DPR        Mid              1019.              0.196                0.115
##  6 FR         Mid               787               0.199                0.248
##  7 IH         Low               454.              0.193                0.214
##  8 LV1        High             2593.              0.472                0.617
##  9 LV3        High             2354.              0.475                0.616
## 10 LVTR1      High             2741.              0.490                0.632
## # ℹ 13 more rows
```
…
```
## # A tibble: 23 × 13
##    parent.pop elevation.group elev_m ann_tmean_dist mean_diurnal_range_dist
##    <chr>      <chr>            <dbl>          <dbl>                   <dbl>
##  1 BH         Low               511.        2.58                     0.558 
##  2 CC         Low               313         0.706                    1.56  
##  3 CP2        High             2244.        5.25                     1.42  
##  4 CP3        High             2266.        5.94                     1.62  
##  5 DPR        Mid              1019.       -0.00542                  1.14  
##  6 FR         Mid               787         0.344                   -1.54  
##  7 IH         Low               454.        0.834                    0.841 
##  8 LV1        High             2593.        6.10                    -0.0611
##  9 LV3        High             2354.        6.12                    -0.117 
## 10 LVTR1      High             2741.        6.33                    -0.261 
## # ℹ 13 more rows
## # ℹ 8 more variables: temp_seasonality_dist <dbl>, temp_ann_range_dist <dbl>,
## #   tmean_wettest_month_dist <dbl>, tmean_driest_month_dist <dbl>,
## #   ann_ppt_dist <dbl>, ppt_seasonality_dist <dbl>,
## #   ppt_warmest_month_dist <dbl>, ppt_coldest_month_dist <dbl>
```
…
```
## # A tibble: 23 × 13
##    parent.pop elevation.group elev_m ann_tmean_dist mean_diurnal_range_dist
##    <chr>      <chr>            <dbl>          <dbl>                   <dbl>
##  1 BH         Low               511.          3.52                    0.276
##  2 CC         Low               313           2.84                    1.42 
##  3 CP2        High             2244.          4.67                    0.339
##  4 CP3        High             2266.          5.30                    0.717
##  5 DPR        Mid              1019.          0.368                  -0.201
##  6 FR         Mid               787           0.924                  -2.82 
##  7 IH         Low               454.          1.52                    0.214
##  8 LV1        High             2593.          9.12                   -1.05 
##  9 LV3        High             2354.          9.14                   -1.10 
## 10 LVTR1      High             2741.          9.30                   -1.07 
## # ℹ 13 more rows
## # ℹ 8 more variables: temp_seasonality_dist <dbl>, temp_ann_range_dist <dbl>,
## #   tmean_wettest_month_dist <dbl>, tmean_driest_month_dist <dbl>,
## #   ann_ppt_dist <dbl>, ppt_seasonality_dist <dbl>,
## #   ppt_warmest_month_dist <dbl>, ppt_coldest_month_dist <dbl>
```
…
