…
```r
##check sample sizes 
ucd_pretransplant_size_elev %>% 
  filter(!is.na(height_cm)) %>% 
  group_by(parent.pop) %>% 
  summarise(samplesize=n()) %>% 
  arrange(samplesize)
```

```
## # A tibble: 23 × 2
##    parent.pop samplesize
##    <chr>           <int>
##  1 WV                  2
##  2 LV1                 3
##  3 YO4                 6
##  4 CP3                 7
##  5 WR                  9
##  6 SQ3                10
##  7 YO8                13
##  8 YO11               14
##  9 LVTR1              15
## 10 YO7                15
## # ℹ 13 more rows
```
…
```
## `summarise()` has grouped output by 'parent.pop'. You can override using the
## `.groups` argument.
```

```r
ucd_pretransplant_size_elev_transf_summary
```

```
## # A tibble: 23 × 8
## # Groups:   parent.pop [23]
##    parent.pop elev_m N_height mean_height_cm sem_height_cm N_length
##    <chr>       <dbl>    <int>          <dbl>         <dbl>    <int>
##  1 CC           313        44           3.33        0.173        44
##  2 TM2          379.       37           4.09        0.242        37
##  3 SC           422.       36           2.15        0.116        36
##  4 IH           454.       49           1.98        0.0857       49
##  5 BH           511.      111           2.11        0.0625      111
##  6 WV           749.        2           1.4         0.7           2
##  7 FR           787        36           2.91        0.183        36
##  8 DPR         1019.       22           3.30        0.310        22
##  9 WR          1158         9           1.61        0.273         9
## 10 WL1         1614.      125           2.11        0.0485      125
## # ℹ 13 more rows
## # ℹ 2 more variables: mean_longest_leaf_cm <dbl>, sem_longest_leaf_cm <dbl>
```
…
```r
ucdmort.pheno2 <- ucdmort.pheno %>% 
  rename(parent.pop=pop, date.first.bud=`Date First Bud`, date.first.fl=`Date First Flower`, date.first.fruit=`Date First Fruit`, date.last.fl=`Date Last Flower`, date.last.fruit=`Date Last Fruit`, death.date=`Death Date`) %>% 
  filter(parent.pop!="buffer") #remove buffers
head(ucdmort.pheno2,60)
```

```
## # A tibble: 60 × 13
##    block   row col   parent.pop    mf   rep date.first.bud date.first.fl
##    <chr> <dbl> <chr> <chr>      <dbl> <dbl> <chr>          <chr>        
##  1 D1        3 A     WL2            4    11 <NA>           <NA>         
##  2 D1        3 B     CP2           10     4 <NA>           <NA>         
##  3 D1        4 A     YO11           4    10 <NA>           <NA>         
##  4 D1        4 B     CC             5    12 <NA>           <NA>         
##  5 D1        5 A     FR             3     6 <NA>           <NA>         
##  6 D1        5 B     BH             5    24 <NA>           <NA>         
##  7 D1        6 A     IH             6    12 <NA>           <NA>         
##  8 D1        6 B     CC             3    10 <NA>           <NA>         
##  9 D1        7 A     WL2            1     9 <NA>           <NA>         
## 10 D1        7 B     CP2            8     4 <NA>           <NA>         
## # ℹ 50 more rows
## # ℹ 5 more variables: date.first.fruit <chr>, date.last.fl <chr>,
## #   date.last.fruit <chr>, death.date <chr>, Notes <chr>
```
…
```r
ucdmort.pheno2 %>% filter(!is.na(date.first.fruit), !is.na(death.date)) #28 cases with fruit date and death date 
```

```
## # A tibble: 28 × 13
##    block   row col   parent.pop    mf   rep date.first.bud date.first.fl
##    <chr> <dbl> <chr> <chr>      <dbl> <dbl> <chr>          <chr>        
##  1 D2       31 B     TM2            4    11 4/10/23        4/24/23      
##  2 D2       35 D     BH             3     6 5/1/23         5/18/23      
##  3 F1        4 C     TM2            5     7 03/17/23       4/17/23      
##  4 F2       35 D     BH             2     1 5/22/23        6/5/23       
##  5 F2       40 D     TM2            1     4 03/17/23       4/17/23      
##  6 H1       19 A     TM2            5     1 3/17/23        4/13/23      
##  7 H2       24 B     BH             5    29 5/5/23         5/18/23      
##  8 H2       36 B     TM2            3     1 3/22/23        4/17/23      
##  9 H1       15 C     CP2            3    10 5/18/23        5/25/23      
## 10 H2       32 C     SC             6     3 4/27/23        5/11/23      
## # ℹ 18 more rows
## # ℹ 5 more variables: date.first.fruit <chr>, date.last.fl <chr>,
## #   date.last.fruit <chr>, death.date <chr>, Notes <chr>
```

```r
#convert dates to 0s (mortality) or 1s (survival)
#Surv to Bud = survival to bud.date or until other plants were budding (for non-rep, potentially perennial plants)
ucd.survtobud <- ucdmort.pheno2 %>% mutate(SurvtoBud=ifelse(!is.na(date.first.bud), 1,
                                                            ifelse(!is.na(death.date), 0, 1))) %>% 
  select(block:rep, date.first.bud, death.date, SurvtoBud)
head(ucd.survtobud, 60)
```

```
## # A tibble: 60 × 9
##    block   row col   parent.pop    mf   rep date.first.bud death.date SurvtoBud
##    <chr> <dbl> <chr> <chr>      <dbl> <dbl> <chr>          <chr>          <dbl>
##  1 D1        3 A     WL2            4    11 <NA>           4/24/23            0
##  2 D1        3 B     CP2           10     4 <NA>           1/27/23            0
##  3 D1        4 A     YO11           4    10 <NA>           1/12/23            0
##  4 D1        4 B     CC             5    12 <NA>           2/10/23            0
##  5 D1        5 A     FR             3     6 <NA>           2/24/23            0
##  6 D1        5 B     BH             5    24 <NA>           3/3/23             0
##  7 D1        6 A     IH             6    12 <NA>           3/3/23             0
##  8 D1        6 B     CC             3    10 <NA>           3/3/23             0
##  9 D1        7 A     WL2            1     9 <NA>           2/17/23            0
## 10 D1        7 B     CP2            8     4 <NA>           2/3/23             0
## # ℹ 50 more rows
```
…
```r
ucd.survtobud %>% filter(!is.na(death.date), SurvtoBud==1) #46 cases with survival to bud, but later death date 
```

```
## # A tibble: 46 × 9
##    block   row col   parent.pop    mf   rep date.first.bud death.date SurvtoBud
##    <chr> <dbl> <chr> <chr>      <dbl> <dbl> <chr>          <chr>          <dbl>
##  1 D2       31 B     TM2            4    11 4/10/23        6/23/23            1
##  2 D2       37 B     TM2            6     5 3/17/23        4/10/23            1
##  3 D2       35 D     BH             3     6 5/1/23         9/5/23             1
##  4 F1        8 A     TM2            2     2 3/22/23        4/10/23            1
##  5 F1        4 C     TM2            5     7 03/17/23       6/23/23            1
##  6 F1        6 C     DPR            6     9 3/31/23        5/1/23             1
##  7 F2       35 D     BH             2     1 5/22/23        9/5/23             1
##  8 F2       40 C     DPR            7     4 03/17/23       4/10/23            1
##  9 F2       40 D     TM2            1     4 03/17/23       6/15/23            1
## 10 H1        4 B     BH             2    12 5/30/23        6/23/23            1
## # ℹ 36 more rows
```

```r
#Surv to Fruit = survival to fruit date or until other plants were fruiting 
ucd.survtofruit <- ucdmort.pheno2 %>% mutate(SurvtoFruit=ifelse(!is.na(date.first.fruit), 1,
                                                            ifelse(!is.na(death.date), 0, 1))) %>% 
  select(block:rep, date.first.fruit, death.date, SurvtoFruit)
head(ucd.survtofruit, 60)
```

```
## # A tibble: 60 × 9
##    block   row col   parent.pop    mf   rep date.first.fruit death.date
##    <chr> <dbl> <chr> <chr>      <dbl> <dbl> <chr>            <chr>     
##  1 D1        3 A     WL2            4    11 <NA>             4/24/23   
##  2 D1        3 B     CP2           10     4 <NA>             1/27/23   
##  3 D1        4 A     YO11           4    10 <NA>             1/12/23   
##  4 D1        4 B     CC             5    12 <NA>             2/10/23   
##  5 D1        5 A     FR             3     6 <NA>             2/24/23   
##  6 D1        5 B     BH             5    24 <NA>             3/3/23    
##  7 D1        6 A     IH             6    12 <NA>             3/3/23    
##  8 D1        6 B     CC             3    10 <NA>             3/3/23    
##  9 D1        7 A     WL2            1     9 <NA>             2/17/23   
## 10 D1        7 B     CP2            8     4 <NA>             2/3/23    
## # ℹ 50 more rows
## # ℹ 1 more variable: SurvtoFruit <dbl>
```
…
```r
ucd.all.surv <- full_join(ucd.survtobud, ucd.survtofruit) %>% select(block:rep, death.date, SurvtoBud, SurvtoFruit)
```

```
## Joining with `by = join_by(block, row, col, parent.pop, mf, rep, death.date)`
```

```r
ucd.all.surv
```

```
## # A tibble: 757 × 9
##    block   row col   parent.pop    mf   rep death.date SurvtoBud SurvtoFruit
##    <chr> <dbl> <chr> <chr>      <dbl> <dbl> <chr>          <dbl>       <dbl>
##  1 D1        3 A     WL2            4    11 4/24/23            0           0
##  2 D1        3 B     CP2           10     4 1/27/23            0           0
##  3 D1        4 A     YO11           4    10 1/12/23            0           0
##  4 D1        4 B     CC             5    12 2/10/23            0           0
##  5 D1        5 A     FR             3     6 2/24/23            0           0
##  6 D1        5 B     BH             5    24 3/3/23             0           0
##  7 D1        6 A     IH             6    12 3/3/23             0           0
##  8 D1        6 B     CC             3    10 3/3/23             0           0
##  9 D1        7 A     WL2            1     9 2/17/23            0           0
## 10 D1        7 B     CP2            8     4 2/3/23             0           0
## # ℹ 747 more rows
```
…
```
## `summarise()` has grouped output by 'parent.pop'. You can override using the
## `.groups` argument.
```

```r
ucd_surv_mean
```

```
## # A tibble: 23 × 10
## # Groups:   parent.pop [23]
##    parent.pop elev_m meanSurvtoBud sem.SurvtoBud meanSurvtoFruit sem.SurvtoFruit
##    <chr>       <dbl>         <dbl>         <dbl>           <dbl>           <dbl>
##  1 BH           511.        0.198         0.0380          0.180           0.0366
##  2 CC           313         0.0455        0.0318          0               0     
##  3 CP2         2244.        0.0263        0.0263          0.0263          0.0263
##  4 CP3         2266.        0             0               0               0     
##  5 DPR         1019.        0.227         0.0914          0               0     
##  6 FR           787         0.0278        0.0278          0               0     
##  7 IH           454.        0             0               0               0     
##  8 LV1         2593.        0             0               0               0     
##  9 LV3         2354.        0             0               0               0     
## 10 LVTR1       2741.        0             0               0               0     
## # ℹ 13 more rows
## # ℹ 4 more variables: mean_height_cm <dbl>, sem_height_cm <dbl>,
## #   mean_longest_leaf_cm <dbl>, sem_longest_leaf_cm <dbl>
```
…
