…
temp_summary
```

```
## # A tibble: 225 × 13
##    Date       min_temp_d max_temp_d mean_temp_d min_temp_d1_7 max_temp_d1_7
##    <date>          <dbl>      <dbl>       <dbl>         <dbl>         <dbl>
##  1 2022-12-01       5.5        10.8        8.16         NA             NA  
##  2 2022-12-02       3.5        10.2        6.38         NA             NA  
##  3 2022-12-03       5           7          6.16         NA             NA  
##  4 2022-12-04       6          11.8        8.21         NA             NA  
##  5 2022-12-05       7.5        12.8        9.38         NA             NA  
##  6 2022-12-06       7          13          9.29         NA             NA  
##  7 2022-12-07       4.75       12.8        8.10          5.61          11.2
##  8 2022-12-08       5.5        10.2        7.88          5.61          11.1
##  9 2022-12-09       6.5        12.2        8.99          6.04          11.4
## 10 2022-12-10       8.5        11.5        9.52          6.54          12.0
## # ℹ 215 more rows
## # ℹ 7 more variables: mean_temp_d1_7 <dbl>, min_temp_d1_13 <dbl>,
## #   max_temp_d1_13 <dbl>, mean_temp_d1_13 <dbl>, min_temp_d6_13 <dbl>,
## #   max_temp_d6_13 <dbl>, mean_temp_d6_13 <dbl>
```
…
moisture_summary
```

```
## # A tibble: 194 × 5
##    Date       mean_moisture_d s_moisture_1_7 s_moisture_1_14 s_moisture_7_14
##    <date>               <dbl>          <dbl>           <dbl>           <dbl>
##  1 2023-04-06           0.293          0.306           0.284          NA    
##  2 2023-04-07           0.339          0.306           0.284          NA    
##  3 2023-04-08           0.316          0.306           0.284          NA    
##  4 2023-04-09           0.309          0.306           0.284          NA    
##  5 2023-04-10           0.304          0.306           0.284          NA    
##  6 2023-04-11           0.297          0.306           0.284          NA    
##  7 2023-04-12           0.287          0.306           0.284          NA    
##  8 2023-04-13           0.273          0.304           0.284           0.306
##  9 2023-04-14           0.266          0.293           0.284           0.306
## 10 2023-04-15           0.262          0.285           0.284           0.306
## # ℹ 184 more rows
```
…
ucd_ind %>% select(Genotype, last_fup_date, os_weeks, dead)
```

```
## # A tibble: 8,860 × 4
##    Genotype last_fup_date os_weeks  dead
##    <chr>    <date>           <dbl> <dbl>
##  1 BH_1_10  2022-12-13        1.86     0
##  2 BH_1_10  2022-12-21        3        0
##  3 BH_1_10  2023-01-06        5.29     0
##  4 BH_1_10  2023-01-12        6.14     0
##  5 BH_1_10  2023-01-20        7.29     0
##  6 BH_1_10  2023-01-27        8.29     0
##  7 BH_1_10  2023-02-03        9.29     0
##  8 BH_1_10  2023-02-10       10.3      0
##  9 BH_1_10  2023-02-17       11.3      0
## 10 BH_1_10  2023-02-24       12.3      0
## # ℹ 8,850 more rows
```
…
