…
``` r
recent_clim_boot_nest <- recent_clim_boot %>% nest(.by=year) #nest to prepare for bootstrapping 
recent_clim_boot_nest
```

```
## # A tibble: 30 × 2
##     year data              
##    <dbl> <list>            
##  1  1994 <tibble [23 × 20]>
##  2  1995 <tibble [23 × 20]>
##  3  1996 <tibble [23 × 20]>
##  4  1997 <tibble [23 × 20]>
##  5  1998 <tibble [23 × 20]>
##  6  1999 <tibble [23 × 20]>
##  7  2000 <tibble [23 × 20]>
##  8  2001 <tibble [23 × 20]>
##  9  2002 <tibble [23 × 20]>
## 10  2003 <tibble [23 × 20]>
## # ℹ 20 more rows
```
…
``` r
historical_clim_boot_nest <- historical_clim_boot %>% nest(.by=year)
historical_clim_boot_nest
```

```
## # A tibble: 30 × 2
##     year data              
##    <dbl> <list>            
##  1  1964 <tibble [23 × 20]>
##  2  1965 <tibble [23 × 20]>
##  3  1966 <tibble [23 × 20]>
##  4  1967 <tibble [23 × 20]>
##  5  1968 <tibble [23 × 20]>
##  6  1969 <tibble [23 × 20]>
##  7  1970 <tibble [23 × 20]>
##  8  1971 <tibble [23 × 20]>
##  9  1972 <tibble [23 × 20]>
## 10  1973 <tibble [23 × 20]>
## # ℹ 20 more rows
```
…
``` r
tidy(gowers.boot_recent,conf.int=TRUE,conf.method="perc")
```

```
## # A tibble: 23 × 5
##    statistic      bias std.error conf.low conf.high
##        <dbl>     <dbl>     <dbl>    <dbl>     <dbl>
##  1     0.226  0.000439   0.0119     0.201     0.248
##  2     0.274  0.000370   0.00925    0.257     0.292
##  3     0.601 -0.00202    0.0165     0.569     0.631
##  4     0.636 -0.00199    0.0154     0.606     0.664
##  5     0.460 -0.00194    0.0141     0.431     0.484
##  6     0.349 -0.00142    0.0128     0.321     0.371
##  7     0.286  0.00101    0.0126     0.262     0.312
##  8     0.791 -0.000956   0.0106     0.771     0.811
##  9     0.795 -0.000979   0.0104     0.775     0.815
## 10     0.801  0.000417   0.0107     0.781     0.823
## # ℹ 13 more rows
```
…
```
## # A tibble: 23 × 13
##    parent.pop elevation.group elev_m ann_tmean_dist mean_diurnal_range_dist
##    <chr>      <chr>            <dbl>          <dbl>                   <dbl>
##  1 BH         Low               511.         0.750                    0.658
##  2 CC         Low               313          1.16                    -0.731
##  3 CP2        High             2244.        -8.20                    -1.76 
##  4 CP3        High             2266.        -8.91                    -1.87 
##  5 DPR        Mid              1019.        -1.43                    -1.62 
##  6 FR         Mid               787         -2.58                     0.428
##  7 IH         Low               454.        -0.0529                  -0.446
##  8 LV1        High             2593.       -10.6                     -1.39 
##  9 LV3        High             2354.       -10.6                     -1.37 
## 10 LVTR1      High             2741.       -10.7                     -1.28 
## # ℹ 13 more rows
## # ℹ 8 more variables: temp_seasonality_dist <dbl>, temp_ann_range_dist <dbl>,
## #   tmean_wettest_quarter_dist <dbl>, tmean_driest_quarter_dist <dbl>,
## #   ann_ppt_dist <dbl>, ppt_seasonality_dist <dbl>,
## #   ppt_warmest_quarter_dist <dbl>, ppt_coldest_quarter_dist <dbl>
```
…
```
## # A tibble: 23 × 13
##    parent.pop elevation.group elev_m ann_tmean_dist mean_diurnal_range_dist
##    <chr>      <chr>            <dbl>          <dbl>                   <dbl>
##  1 BH         Low               511.         -0.153                  1.20  
##  2 CC         Low               313           0.430                  0.0327
##  3 CP2        High             2244.         -9.37                  -1.17  
##  4 CP3        High             2266.        -10.0                   -1.38  
##  5 DPR        Mid              1019.         -2.53                  -0.540 
##  6 FR         Mid               787          -3.16                   1.56  
##  7 IH         Low               454.         -0.730                  0.145 
##  8 LV1        High             2593.        -12.1                   -0.216 
##  9 LV3        High             2354.        -12.1                   -0.197 
## 10 LVTR1      High             2741.        -12.2                   -0.216 
## # ℹ 13 more rows
## # ℹ 8 more variables: temp_seasonality_dist <dbl>, temp_ann_range_dist <dbl>,
## #   tmean_wettest_quarter_dist <dbl>, tmean_driest_quarter_dist <dbl>,
## #   ann_ppt_dist <dbl>, ppt_seasonality_dist <dbl>,
## #   ppt_warmest_quarter_dist <dbl>, ppt_coldest_quarter_dist <dbl>
```
…
