…
```
## `summarise()` has grouped output by 'survey_month'. You can override using the
## `.groups` argument.
```

```r
  #arrange(survey_month, samplesize)
sample_sizes
```

```
## # A tibble: 67 × 3
## # Groups:   survey_month [3]
##    survey_month parent.pop samplesize
##    <chr>        <chr>           <int>
##  1 feb_size     LV1                 1
##  2 feb_size     YO4                 1
##  3 jan_size     LV1                 1
##  4 jan_size     WV                  1
##  5 dec_size     WV                  2
##  6 feb_size     YO11                2
##  7 dec_size     LV1                 3
##  8 feb_size     LVTR1               4
##  9 feb_size     SQ2                 4
## 10 feb_size     WR                  4
## # ℹ 57 more rows
```
…
```
## `summarise()` has grouped output by 'survey_month', 'parent.pop'. You can
## override using the `.groups` argument.
```

```r
single_time_all_GTONE_transf_summary
```

```
## # A tibble: 63 × 9
## # Groups:   survey_month, parent.pop [63]
##    survey_month parent.pop elev_m N_height mean_height_cm sem_height_cm N_length
##    <fct>        <chr>       <dbl>    <int>          <dbl>         <dbl>    <int>
##  1 dec_size     CC           313        43           3.86        0.198        43
##  2 dec_size     TM2          379.       37           5.10        0.314        37
##  3 dec_size     SC           422.       36           2.54        0.141        36
##  4 dec_size     IH           454.       48           2.70        0.108        48
##  5 dec_size     BH           511.      110           2.45        0.0779      110
##  6 dec_size     WV           749.        2           1.5         1.2           2
##  7 dec_size     FR           787        36           3.06        0.186        36
##  8 dec_size     DPR         1019.       22           4.18        0.352        22
##  9 dec_size     WR          1158         9           1.94        0.378         9
## 10 dec_size     WL1         1614.      124           2.39        0.0726      124
## # ℹ 53 more rows
## # ℹ 2 more variables: mean_longest_leaf_cm <dbl>, sem_longest_leaf_cm <dbl>
```
…
