…
As weeks


``` r
wl2_surv %>% filter(is.na(death.date),!is.na(survey.notes)) #no plants that seemed to disappear 
```

```
## # A tibble: 209 × 11
##    block BedLoc bed   bed.row bed.col Genotype  pop      mf   rep death.date
##    <chr> <chr>  <chr>   <dbl> <chr>   <chr>     <chr> <dbl> <dbl> <chr>     
##  1 A     A_5_A  A           5 A       CP2_5_1   CP2       5     1 <NA>      
##  2 A     A_6_A  A           6 A       CC_5_3    CC        5     3 <NA>      
##  3 A     A_9_B  A           9 B       SQ2_8_9   SQ2       8     9 <NA>      
##  4 A     A_15_B A          15 B       YO11_7_9  YO11      7     9 <NA>      
##  5 A     A_19_A A          19 A       SQ3_4_7   SQ3       4     7 <NA>      
##  6 A     A_20_B A          20 B       WL2_8_9   WL2       8     9 <NA>      
##  7 A     A_21_A A          21 A       CP2_6_5   CP2       6     5 <NA>      
##  8 A     A_21_B A          21 B       LVTR1_8_4 LVTR1     8     4 <NA>      
##  9 A     A_23_B A          23 B       WL1_4_11  WL1       4    11 <NA>      
## 10 A     A_25_A A          25 A       YO4_1_13  YO4       1    13 <NA>      
## # ℹ 199 more rows
## # ℹ 1 more variable: survey.notes <chr>
```
…
temp_summary
```

```
## # A tibble: 84 × 17
##    Date       min_temp_d max_temp_d mean_temp_d diurnal_temp_d min_temp_d1_7
##    <date>          <dbl>      <dbl>       <dbl>          <dbl>         <dbl>
##  1 2023-07-14        8.5       31          17.0           22.5          NA  
##  2 2023-07-15       11         35          18.7           24            NA  
##  3 2023-07-16       11         36          19.1           25            NA  
##  4 2023-07-17       14         36          20.5           22            NA  
##  5 2023-07-18       13         36          19.8           23            NA  
##  6 2023-07-19       12.5       36          19.3           23.5          NA  
##  7 2023-07-20       11.5       45          21.4           33.5          11.6
##  8 2023-07-21       11         47.5        21.9           36.5          12  
##  9 2023-07-22       11.5       48.5        22.5           37            12.1
## 10 2023-07-23       14         48.5        23.3           34.5          12.5
## # ℹ 74 more rows
## # ℹ 11 more variables: max_temp_d1_7 <dbl>, mean_temp_d1_7 <dbl>,
## #   diurnal_temp_d1_7 <dbl>, min_temp_d1_13 <dbl>, max_temp_d1_13 <dbl>,
## #   mean_temp_d1_13 <dbl>, diurnal_temp_d1_13 <dbl>, min_temp_d6_13 <dbl>,
## #   max_temp_d6_13 <dbl>, mean_temp_d6_13 <dbl>, diurnal_temp_d6_13 <dbl>
```
…
moisture_summary
```

```
## # A tibble: 93 × 5
##    Date       mean_moisture_d s_moisture_1_7 s_moisture_1_14 s_moisture_7_14
##    <date>               <dbl>          <dbl>           <dbl>           <dbl>
##  1 2023-07-20          0.0853         0.0714          0.0571         NA     
##  2 2023-07-21          0.0809         0.0714          0.0571         NA     
##  3 2023-07-22          0.0754         0.0714          0.0571         NA     
##  4 2023-07-23          0.0711         0.0714          0.0571         NA     
##  5 2023-07-24          0.0668         0.0714          0.0571         NA     
##  6 2023-07-25          0.0622         0.0714          0.0571         NA     
##  7 2023-07-26          0.0581         0.0714          0.0571         NA     
##  8 2023-07-27          0.0537         0.0669          0.0571          0.0714
##  9 2023-07-28          0.0484         0.0622          0.0571          0.0714
## 10 2023-07-29          0.0436         0.0577          0.0571          0.0714
## # ℹ 83 more rows
```
…
wl2_ind %>% select(Genotype, last_fup_date, os_weeks, dead)
```

```
## # A tibble: 9,837 × 4
##    Genotype last_fup_date os_weeks  dead
##    <chr>    <date>           <dbl> <dbl>
##  1 BH_1_1   2023-07-26           1     0
##  2 BH_1_1   2023-08-02           2     0
##  3 BH_1_1   2023-08-09           3     0
##  4 BH_1_1   2023-08-16           4     0
##  5 BH_1_1   2023-08-23           5     0
##  6 BH_1_1   2023-08-30           6     0
##  7 BH_1_1   2023-09-06           7     0
##  8 BH_1_1   2023-09-13           8     0
##  9 BH_1_1   2023-09-20           9     0
## 10 BH_1_1   2023-09-27          10     0
## # ℹ 9,827 more rows
```
…
get p-values


``` r
temp_fits %>%
  mutate(tidy=map(fit, tidy)) %>%
  select(name, tidy) %>%
  unnest(tidy) %>%
  filter(str_detect(term, "temp") | term=="os_weeks") %>%
  arrange(name) %>% 
  select(-effect, -group)
```

```
## # A tibble: 25 × 6
##    name              term               estimate std.error statistic  p.value
##    <chr>             <chr>                 <dbl>     <dbl>     <dbl>    <dbl>
##  1 diurnal.temp.1.13 diurnal_temp_d1_13  0.0229     0.0199     1.15  0.250   
##  2 diurnal.temp.1.13 os_weeks            0.140      0.0416     3.37  0.000762
##  3 diurnal.temp.1.7  diurnal_temp_d1_7   0.0385     0.0217     1.77  0.0767  
##  4 diurnal.temp.1.7  os_weeks            0.110      0.0440     2.50  0.0126  
##  5 diurnal.temp.6.13 diurnal_temp_d6_13  0.00186    0.0134     0.140 0.889   
##  6 diurnal.temp.6.13 os_weeks            0.141      0.0450     3.14  0.00170 
##  7 max.temp.1.13     max_temp_d1_13      0.0346     0.0201     1.73  0.0845  
##  8 max.temp.1.13     os_weeks            0.168      0.0449     3.75  0.000179
##  9 max.temp.1.7      max_temp_d1_7       0.0507     0.0215     2.35  0.0186  
## 10 max.temp.1.7      os_weeks            0.149      0.0419     3.55  0.000385
## # ℹ 15 more rows
```
…
