…
```r
WL2_climate_monthly_prep %>% filter(month_year=="7_2023")
```

```
## # A tibble: 597 × 141
##    date       month  year month_year time  PTemp_C_Max SlrW_Avg SlrW_Max
##    <date>     <dbl> <dbl> <chr>      <chr>       <dbl>    <dbl>    <dbl>
##  1 2023-07-18     7  2023 7_2023     12:00        25.4       NA       NA
##  2 2023-07-18     7  2023 7_2023     12:30        25.9       NA       NA
##  3 2023-07-18     7  2023 7_2023     13:00        26.3       NA       NA
##  4 2023-07-18     7  2023 7_2023     13:30        26.7       NA       NA
##  5 2023-07-18     7  2023 7_2023     14:00        27.0       NA       NA
##  6 2023-07-19     7  2023 7_2023     16:00        32.0       NA       NA
##  7 2023-07-19     7  2023 7_2023     16:30        33.2       NA       NA
##  8 2023-07-19     7  2023 7_2023     17:00        33.4       NA       NA
##  9 2023-07-19     7  2023 7_2023     17:30        33.4       NA       NA
## 10 2023-07-19     7  2023 7_2023     18:00        33.1       NA       NA
## # ℹ 587 more rows
## # ℹ 133 more variables: SlrW_Min <dbl>, SlrW_Std <dbl>, Raw_mV_Avg <dbl>,
## #   Raw_mV_Max <dbl>, Raw_mV_Min <dbl>, Raw_mV_Std <dbl>, CS320_Temp_Avg <dbl>,
## #   CS320_Temp_Max <dbl>, CS320_Temp_Min <dbl>, CS320_Temp_Std <dbl>,
## #   CS320_X_Avg <dbl>, CS320_X_Max <dbl>, CS320_X_Min <dbl>, CS320_X_Std <dbl>,
## #   CS320_Y_Avg <dbl>, CS320_Y_Max <dbl>, CS320_Y_Min <dbl>, CS320_Y_Std <dbl>,
## #   CS320_Z_Avg <dbl>, CS320_Z_Max <dbl>, CS320_Z_Min <dbl>, …
```
…
WL2_home_climate_with_ranges_recent
```

```
## # A tibble: 23 × 44
##    ppt_mean_WL2 tmn_mean_WL2 tmx_mean_WL2 ann_tmean_WL2 mean_diurnal_range_WL2
##           <dbl>        <dbl>        <dbl>         <dbl>                  <dbl>
##  1         38.7        -1.28         25.8          10.7                   27.1
##  2         38.7        -1.28         25.8          10.7                   27.1
##  3         38.7        -1.28         25.8          10.7                   27.1
##  4         38.7        -1.28         25.8          10.7                   27.1
##  5         38.7        -1.28         25.8          10.7                   27.1
##  6         38.7        -1.28         25.8          10.7                   27.1
##  7         38.7        -1.28         25.8          10.7                   27.1
##  8         38.7        -1.28         25.8          10.7                   27.1
##  9         38.7        -1.28         25.8          10.7                   27.1
## 10         38.7        -1.28         25.8          10.7                   27.1
## # ℹ 13 more rows
## # ℹ 39 more variables: temp_seasonality_WL2 <dbl>, temp_ann_range_WL2 <dbl>,
## #   ann_ppt_WL2 <dbl>, ppt_seasonality_WL2 <dbl>,
## #   tmean_wettest_month_WL2 <dbl>, tmean_driest_month_WL2 <dbl>,
## #   ppt_warmest_month_WL2 <dbl>, ppt_coldest_month_WL2 <dbl>, parent.pop <chr>,
## #   elevation.group <chr>, elev_m <dbl>, cwd_mean <dbl>, pck_mean <dbl>,
## #   ppt_mean <dbl>, tmn_mean <dbl>, tmx_mean <dbl>, ann_tmean_avg <dbl>, …
```

```r
gowers_calc_each_var_recent
```

```
## # A tibble: 23 × 16
##    parent.pop elevation.group elev_m ppt_mean_gowers tmn_mean_gowers
##    <chr>      <chr>            <dbl>           <dbl>           <dbl>
##  1 BH         Low               511.           0.313           0.723
##  2 CC         Low               313            0.785           0.846
##  3 CP2        High             2244.           0.370           0.494
##  4 CP3        High             2266.           0.344           0.438
##  5 DPR        Mid              1019.           0.557           1    
##  6 FR         Mid               787            0.169           0.804
##  7 IH         Low               454.           0.602           0.909
##  8 LV1        High             2593.           0.356           0.339
##  9 LV3        High             2354.           0.352           0.340
## 10 LVTR1      High             2741.           0.387           0.310
## # ℹ 13 more rows
## # ℹ 11 more variables: tmx_mean_gowers <dbl>, ann_tmean_gowers <dbl>,
## #   mean_diurnal_range_gowers <dbl>, temp_seasonality_gowers <dbl>,
## #   temp_ann_range_gowers <dbl>, tmean_wettest_month_gowers <dbl>,
## #   tmean_driest_month_gowers <dbl>, ann_ppt_gowers <dbl>,
## #   ppt_seasonality_gowers <dbl>, ppt_warmest_month_gowers <dbl>,
## #   ppt_coldest_month_gowers <dbl>
```
…
gowers_calc_per_pop_recent
```

```
## # A tibble: 23 × 4
##    parent.pop elevation.group elev_m Recent_Gowers_Dist
##    <chr>      <chr>            <dbl>              <dbl>
##  1 BH         Low               511.              0.555
##  2 CC         Low               313               0.682
##  3 CP2        High             2244.              0.626
##  4 CP3        High             2266.              0.629
##  5 DPR        Mid              1019.              0.743
##  6 FR         Mid               787               0.599
##  7 IH         Low               454.              0.712
##  8 LV1        High             2593.              0.587
##  9 LV3        High             2354.              0.588
## 10 LVTR1      High             2741.              0.589
## # ℹ 13 more rows
```
…
gowers_calc_per_pop_historic <- gowers_calc_each_var_historic %>% 
  mutate(Historic_Gowers_Dist=(1/13)*(ppt_mean_gowers + tmn_mean_gowers + tmx_mean_gowers +
                                ann_tmean_gowers + mean_diurnal_range_gowers +
                                temp_seasonality_gowers +temp_ann_range_gowers +
                                tmean_wettest_month_gowers +
                                tmean_driest_month_gowers +ann_ppt_gowers +
                                ppt_seasonality_gowers + ppt_warmest_month_gowers +
                                ppt_coldest_month_gowers)) %>% 
  dplyr::select(parent.pop, elevation.group, elev_m, Historic_Gowers_Dist)

gowers_calc_per_pop_historic
```

```
## # A tibble: 23 × 4
##    parent.pop elevation.group elev_m Historic_Gowers_Dist
##    <chr>      <chr>            <dbl>                <dbl>
##  1 BH         Low               511.                0.530
##  2 CC         Low               313                 0.687
##  3 CP2        High             2244.                0.574
##  4 CP3        High             2266.                0.577
##  5 DPR        Mid              1019.                0.689
##  6 FR         Mid               787                 0.595
##  7 IH         Low               454.                0.710
##  8 LV1        High             2593.                0.652
##  9 LV3        High             2354.                0.652
## 10 LVTR1      High             2741.                0.659
## # ℹ 13 more rows
```
…
```r
gowers_all_time <- full_join(gowers_calc_per_pop_recent, gowers_calc_per_pop_historic)
```

```
## Joining with `by = join_by(parent.pop, elevation.group, elev_m)`
```

```r
gowers_all_time
```

```
## # A tibble: 23 × 5
##    parent.pop elevation.group elev_m Recent_Gowers_Dist Historic_Gowers_Dist
##    <chr>      <chr>            <dbl>              <dbl>                <dbl>
##  1 BH         Low               511.              0.555                0.530
##  2 CC         Low               313               0.682                0.687
##  3 CP2        High             2244.              0.626                0.574
##  4 CP3        High             2266.              0.629                0.577
##  5 DPR        Mid              1019.              0.743                0.689
##  6 FR         Mid               787               0.599                0.595
##  7 IH         Low               454.              0.712                0.710
##  8 LV1        High             2593.              0.587                0.652
##  9 LV3        High             2354.              0.588                0.652
## 10 LVTR1      High             2741.              0.589                0.659
## # ℹ 13 more rows
```
…
```
## # A tibble: 23 × 13
##    parent.pop elevation.group elev_m ann_tmean_dist mean_diurnal_range_dist
##    <chr>      <chr>            <dbl>          <dbl>                   <dbl>
##  1 BH         Low               511.         -2.21                     13.6
##  2 CC         Low               313          -2.66                     15.2
##  3 CP2        High             2244.          0.523                    14.4
##  4 CP3        High             2266.          1.21                     14.6
##  5 DPR        Mid              1019.         -4.78                     14.1
##  6 FR         Mid               787          -4.21                     11.3
##  7 IH         Low               454.         -3.97                     13.9
##  8 LV1        High             2593.          1.40                     12.9
##  9 LV3        High             2354.          1.42                     13.0
## 10 LVTR1      High             2741.          1.61                     12.8
## # ℹ 13 more rows
## # ℹ 8 more variables: temp_seasonality_dist <dbl>, temp_ann_range_dist <dbl>,
## #   tmean_wettest_month_dist <dbl>, tmean_driest_month_dist <dbl>,
## #   ann_ppt_dist <dbl>, ppt_seasonality_dist <dbl>,
## #   ppt_warmest_month_dist <dbl>, ppt_coldest_month_dist <dbl>
```
…
```
## # A tibble: 23 × 13
##    parent.pop elevation.group elev_m ann_tmean_dist mean_diurnal_range_dist
##    <chr>      <chr>            <dbl>          <dbl>                   <dbl>
##  1 BH         Low               511.         -1.21                     13.3
##  2 CC         Low               313          -3.34                     13.9
##  3 CP2        High             2244.         -0.115                    13.4
##  4 CP3        High             2266.          0.511                    13.8
##  5 DPR        Mid              1019.         -4.39                     12.9
##  6 FR         Mid               787          -3.59                     10.0
##  7 IH         Low               454.         -3.24                     13.3
##  8 LV1        High             2593.          4.31                     12.1
##  9 LV3        High             2354.          4.37                     12.1
## 10 LVTR1      High             2741.          4.49                     12.1
## # ℹ 13 more rows
## # ℹ 8 more variables: temp_seasonality_dist <dbl>, temp_ann_range_dist <dbl>,
## #   tmean_wettest_month_dist <dbl>, tmean_driest_month_dist <dbl>,
## #   ann_ppt_dist <dbl>, ppt_seasonality_dist <dbl>,
## #   ppt_warmest_month_dist <dbl>, ppt_coldest_month_dist <dbl>
```
…
