…
```
## `summarise()` has grouped output by 'parent.pop', 'elev_m',
## 'Recent_Gowers_Dist_WL2'. You can override using the `.groups` argument.
```

```r
overwint_surv_summary
```

```
## # A tibble: 22 × 7
## # Groups:   parent.pop, elev_m, Recent_Gowers_Dist_WL2 [22]
##    parent.pop elev_m Recent_Gowers_Dist_WL2 Historic_Gowers_Dist_WL2 N_Surv
##    <chr>       <dbl>                  <dbl>                    <dbl>  <int>
##  1 BH           511.                  0.555                    0.530     53
##  2 CC           313                   0.682                    0.687     53
##  3 CP2         2244.                  0.626                    0.574     16
##  4 CP3         2266.                  0.629                    0.577     15
##  5 DPR         1019.                  0.743                    0.689     33
##  6 FR           787                   0.599                    0.595      5
##  7 IH           454.                  0.712                    0.710     55
##  8 LV1         2593.                  0.587                    0.652      5
##  9 LV3         2354.                  0.588                    0.652      3
## 10 LVTR1       2741.                  0.589                    0.659      5
## # ℹ 12 more rows
## # ℹ 2 more variables: mean_Surv <dbl>, sem_surv <dbl>
```
…
