…
``` r
recent_clim_boot_nest <- recent_clim_boot %>% nest(.by=year) #nest to prepare for bootstrapping 
recent_clim_boot_nest
```

```
## # A tibble: 30 × 2
##     year data              
##    <dbl> <list>            
##  1  1994 <tibble [23 × 20]>
##  2  1995 <tibble [23 × 20]>
##  3  1996 <tibble [23 × 20]>
##  4  1997 <tibble [23 × 20]>
##  5  1998 <tibble [23 × 20]>
##  6  1999 <tibble [23 × 20]>
##  7  2000 <tibble [23 × 20]>
##  8  2001 <tibble [23 × 20]>
##  9  2002 <tibble [23 × 20]>
## 10  2003 <tibble [23 × 20]>
## # ℹ 20 more rows
```
…
``` r
historical_clim_boot_nest <- historical_clim_boot %>% nest(.by=year)
historical_clim_boot_nest
```

```
## # A tibble: 30 × 2
##     year data              
##    <dbl> <list>            
##  1  1964 <tibble [23 × 20]>
##  2  1965 <tibble [23 × 20]>
##  3  1966 <tibble [23 × 20]>
##  4  1967 <tibble [23 × 20]>
##  5  1968 <tibble [23 × 20]>
##  6  1969 <tibble [23 × 20]>
##  7  1970 <tibble [23 × 20]>
##  8  1971 <tibble [23 × 20]>
##  9  1972 <tibble [23 × 20]>
## 10  1973 <tibble [23 × 20]>
## # ℹ 20 more rows
```
…
