…
```
## # A tibble: 0 × 12
## # Rowwise: 
## # ℹ 12 variables: block <chr>, BedLoc <chr>, bed <chr>, bed.row <dbl>,
## #   bed.col <chr>, Genotype <chr>, pop.mf <chr>, parent.pop <chr>, mf <chr>,
## #   rep <chr>, death.date <chr>, survey.notes <chr>
```


```r
wl2_surv %>% filter(is.na(death.date),!is.na(survey.notes)) #no plants that seemed to disappear 
```

```
## # A tibble: 253 × 12
##    block BedLoc bed   bed.row bed.col Genotype  pop.mf  parent.pop mf    rep  
##    <chr> <chr>  <chr>   <dbl> <chr>   <chr>     <chr>   <chr>      <chr> <chr>
##  1 A     A_5_A  A           5 A       CP2_5_1   CP2_5   CP2        5     1    
##  2 A     A_6_A  A           6 A       CC_5_3    CC_5    CC         5     3    
##  3 A     A_9_B  A           9 B       SQ2_8_9   SQ2_8   SQ2        8     9    
##  4 A     A_15_B A          15 B       YO11_7_9  YO11_7  YO11       7     9    
##  5 A     A_19_A A          19 A       SQ3_4_7   SQ3_4   SQ3        4     7    
##  6 A     A_20_B A          20 B       WL2_8_9   WL2_8   WL2        8     9    
##  7 A     A_21_A A          21 A       CP2_6_5   CP2_6   CP2        6     5    
##  8 A     A_21_B A          21 B       LVTR1_8_4 LVTR1_8 LVTR1      8     4    
##  9 A     A_23_B A          23 B       WL1_4_11  WL1_4   WL1        4     11   
## 10 A     A_25_A A          25 A       YO4_1_13  YO4_1   YO4        1     13   
## # ℹ 243 more rows
## # ℹ 2 more variables: death.date <chr>, survey.notes <chr>
```
…
```r
unique(wl2_surv_dates$os_days)
```

```
##  [1] 93  7 21 14 86 63 42 28 56 49 70 35
```


```r
wl2_surv_dates %>% filter(parent.pop=="WL2") #there's a different number of WL2 plants here compared to annual census (see FirstYear Survv)
```

```
## # A tibble: 91 × 15
##    block BedLoc bed   bed.row bed.col Genotype pop.mf parent.pop    mf   rep
##    <chr> <chr>  <chr>   <dbl> <chr>   <chr>    <chr>  <chr>      <dbl> <dbl>
##  1 A     A_20_B A          20 B       WL2_8_9  WL2_8  WL2            8     9
##  2 A     A_24_A A          24 A       WL2_7_9  WL2_7  WL2            7     9
##  3 A     A_29_B A          29 B       WL2_3_9  WL2_3  WL2            3     9
##  4 A     A_31_A A          31 A       WL2_3_10 WL2_3  WL2            3    10
##  5 B     A_37_B A          37 B       WL2_8_10 WL2_8  WL2            8    10
##  6 B     A_39_B A          39 B       WL2_7_10 WL2_7  WL2            7    10
##  7 B     A_59_A A          59 A       WL2_5_10 WL2_5  WL2            5    10
##  8 A     A_2_D  A           2 D       WL2_1_9  WL2_1  WL2            1     9
##  9 A     A_6_D  A           6 D       WL2_6_9  WL2_6  WL2            6     9
## 10 A     A_7_C  A           7 C       WL2_5_9  WL2_5  WL2            5     9
## # ℹ 81 more rows
## # ℹ 5 more variables: death.date <chr>, planting.date <date>,
## #   last_fup_date <date>, os_days <dbl>, status <dbl>
```
…
