…
``` r
#1 plant with a last flower date, but no fruit date, this plant did not make any fruits per the notes 
wl2_surv_y2 %>% filter(!is.na(bud.date), !is.na(death.date))  #bud date and death date for a lot of plants
```

```
## # A tibble: 74 × 17
##    Pop.Type      loc    bed     row col   pop      mf   rep Genotype bud.date
##    <chr>         <chr>  <chr> <dbl> <chr> <chr> <dbl> <dbl> <chr>    <chr>   
##  1 2023-survivor A_17_A A        17 A     BH        7     3 BH_7_3   6/18/24 
##  2 2023-survivor A_18_A A        18 A     BH        4     3 BH_4_3   6/18/24 
##  3 2023-survivor A_24_A A        24 A     WL2       7     9 WL2_7_9  6/18/24 
##  4 2023-survivor A_32_B A        32 B     IH        7     4 IH_7_4   6/18/24 
##  5 2023-survivor A_35_A A        35 A     SC        8     4 SC_8_4   6/18/24 
##  6 2023-survivor A_36_A A        36 A     BH        3     4 BH_3_4   6/18/24 
##  7 2023-survivor A_39_B A        39 B     WL2       7    10 WL2_7_10 6/18/24 
##  8 2023-survivor A_45_B A        45 B     IH        2     4 IH_2_4   7/2/24  
##  9 2023-survivor A_49_A A        49 A     YO7       7    23 YO7_7_23 6/18/24 
## 10 2023-survivor A_53_A A        53 A     CC        4     4 CC_4_4   6/18/24 
## # ℹ 64 more rows
## # ℹ 7 more variables: flower.date <chr>, fruit.date <chr>, last.FL.date <chr>,
## #   last.FR.date <chr>, death.date <chr>, missing.date <chr>,
## #   survey.notes <chr>
```
…
