…
```
## `summarise()` has grouped output by 'survey_month'. You can override using the
## `.groups` argument.
```

```r
sample_sizes
```

```
## # A tibble: 69 × 4
## # Groups:   survey_month [3]
##    survey_month parent.pop N_height N_length
##    <chr>        <chr>         <int>    <int>
##  1 aug_size     WV                0        0
##  2 oct_size     WV                0        0
##  3 sept_size    WV                0        0
##  4 oct_size     WR                2        1
##  5 aug_size     WR                3        3
##  6 sept_size    WR                3        3
##  7 oct_size     FR                5        0
##  8 oct_size     LV3               5        1
##  9 oct_size     LV1               8        3
## 10 oct_size     SQ3               8        4
## # ℹ 59 more rows
```
…
```
## # A tibble: 0 × 19
## # ℹ 19 variables: survey_date <date>, survey_month <chr>, block <chr>,
## #   bed <chr>, bed.row <dbl>, bed.col <chr>, parent.pop <chr>, mf <dbl>,
## #   rep <dbl>, height.cm <dbl>, long.leaf.cm <dbl>, herbiv.y.n <chr>,
## #   survey.notes <chr>, elevation.group <chr>, Lat <chr>, Long <chr>,
## #   elev_m <dbl>, N_height <int>, N_length <int>
```

```r
single_time_all_sample_sizes %>% filter(N_length == 0) #some pops with height data but no length data 
```

```
## # A tibble: 48 × 19
##    survey_date survey_month block bed   bed.row bed.col parent.pop    mf   rep
##    <date>      <chr>        <chr> <chr>   <dbl> <chr>   <chr>      <dbl> <dbl>
##  1 2023-10-20  oct_size     A     A          10 A       FR             4     2
##  2 2023-10-20  oct_size     A     A          23 A       FR             7     3
##  3 2023-10-20  oct_size     B     A          33 A       FR             1    12
##  4 2023-10-20  oct_size     B     A          38 A       FR             4     3
##  5 2023-10-20  oct_size     B     A          54 B       FR             7     4
##  6 2023-10-20  oct_size     A     A          30 C       FR             2     2
##  7 2023-10-20  oct_size     B     A          43 D       FR             5    10
##  8 2023-10-20  oct_size     D     B           7 B       FR             6    11
##  9 2023-10-20  oct_size     D     B          19 B       FR             7     6
## 10 2023-10-20  oct_size     C     B          31 A       FR             2     9
## # ℹ 38 more rows
## # ℹ 10 more variables: height.cm <dbl>, long.leaf.cm <dbl>, herbiv.y.n <chr>,
## #   survey.notes <chr>, elevation.group <chr>, Lat <chr>, Long <chr>,
## #   elev_m <dbl>, N_height <int>, N_length <int>
```
…
```
## `summarise()` has grouped output by 'survey_month', 'parent.pop'. You can
## override using the `.groups` argument.
```

```r
single_time_all_sample_sizes_transf_summary
```

```
## # A tibble: 66 × 9
## # Groups:   survey_month, parent.pop [66]
##    survey_month parent.pop elev_m N_height mean_height.cm sem_height.cm N_length
##    <fct>        <chr>       <dbl>    <int>          <dbl>         <dbl>    <int>
##  1 aug_size     CC           313        71           7.3          0.261       71
##  2 aug_size     TM2          379.       49          11.8          0.867       49
##  3 aug_size     SC           422.       59           3.87         0.185       59
##  4 aug_size     IH           454.       69           6.98         0.291       69
##  5 aug_size     BH           511.       65           5.59         0.203       65
##  6 aug_size     FR           787        20           3.9          0.411       20
##  7 aug_size     DPR         1019.       52           6.13         0.248       52
##  8 aug_size     WR          1158         3           4.37         0.786        3
##  9 aug_size     WL1         1614.       37           2.93         0.185       37
## 10 aug_size     SQ1         1921.       15           2.83         0.393       15
## # ℹ 56 more rows
## # ℹ 2 more variables: mean_long.leaf.cm <dbl>, sem_long.leaf.cm <dbl>
```
…
```
## # A tibble: 1 × 1
##     MAX
##   <dbl>
## 1  22.1
```

```r
single_time_all_sample_sizes_transf %>% filter(survey_month=="oct_size") %>% filter(parent.pop!="TM2") %>% arrange(desc(height.cm))
```

```
## # A tibble: 1,490 × 25
##    survey_date survey_month block bed   bed.row bed.col parent.pop    mf   rep
##    <date>      <fct>        <chr> <chr>   <dbl> <chr>   <chr>      <dbl> <dbl>
##  1 2023-10-20  oct_size     G     D           3 B       IH             5     9
##  2 2023-10-20  oct_size     F     C          53 B       IH             3     8
##  3 2023-10-20  oct_size     J     G          17 A       CC             9    12
##  4 2023-10-20  oct_size     B     A          48 D       CC             8     4
##  5 2023-10-20  oct_size     C     B          26 C       IH             5     5
##  6 2023-10-20  oct_size     J     G           8 D       CC             4    12
##  7 2023-10-20  oct_size     G     D          14 A       IH             7     9
##  8 2023-10-20  oct_size     F     D          51 C       IH             1     8
##  9 2023-10-20  oct_size     J     G           5 B       IH             4    12
## 10 2023-10-20  oct_size     J     G          12 D       CC             5    12
## # ℹ 1,480 more rows
## # ℹ 16 more variables: height.cm <dbl>, long.leaf.cm <dbl>, herbiv.y.n <chr>,
## #   survey.notes <chr>, elevation.group <chr>, Lat <chr>, Long <chr>,
## #   elev_m <dbl>, N_height <int>, N_length <int>, sheight.cm <dbl>,
## #   logheight.cm <dbl>, log10height.cm <dbl>, slong.leaf.cm <dbl>,
## #   loglong.leaf.cm <dbl>, log10long.leaf.cm <dbl>
```
…
