…
bed_col_info
```

```
## # A tibble: 44 × 3
##    bed   bed.col x_pos
##    <chr> <chr>   <dbl>
##  1 A     A           1
##  2 A     B           2
##  3 A     C           3
##  4 A     D           4
##  5 B     A           7
##  6 B     B           8
##  7 B     C           9
##  8 B     D          10
##  9 C     A          13
## 10 C     B          14
## # ℹ 34 more rows
```
…
