…
WL2_home_climate_with_ranges_recent
```

```
## # A tibble: 23 × 50
##    cwd_WL2 ppt_WL2 pck_WL2 tmn_WL2 tmx_WL2 ann_tmean_WL2 mean_diurnal_range_WL2
##      <dbl>   <dbl>   <dbl>   <dbl>   <dbl>         <dbl>                  <dbl>
##  1    54.7    61.5    2.81    6.29    16.8          11.6                   10.5
##  2    54.7    61.5    2.81    6.29    16.8          11.6                   10.5
##  3    54.7    61.5    2.81    6.29    16.8          11.6                   10.5
##  4    54.7    61.5    2.81    6.29    16.8          11.6                   10.5
##  5    54.7    61.5    2.81    6.29    16.8          11.6                   10.5
##  6    54.7    61.5    2.81    6.29    16.8          11.6                   10.5
##  7    54.7    61.5    2.81    6.29    16.8          11.6                   10.5
##  8    54.7    61.5    2.81    6.29    16.8          11.6                   10.5
##  9    54.7    61.5    2.81    6.29    16.8          11.6                   10.5
## 10    54.7    61.5    2.81    6.29    16.8          11.6                   10.5
## # ℹ 13 more rows
## # ℹ 43 more variables: temp_seasonality_WL2 <dbl>, temp_ann_range_WL2 <dbl>,
## #   ann_ppt_WL2 <dbl>, ppt_seasonality_WL2 <dbl>,
## #   tmean_wettest_month_WL2 <dbl>, tmean_driest_month_WL2 <dbl>,
## #   ppt_warmest_month_WL2 <dbl>, ppt_coldest_month_WL2 <dbl>, parent.pop <chr>,
## #   elevation.group <chr>, elev_m <dbl>, Lat <dbl>, Long <dbl>, cwd <dbl>,
## #   pck <dbl>, ppt <dbl>, tmn <dbl>, tmx <dbl>, TimePd <chr>, …
```

``` r
gowers_calc_each_var_recent
```

```
## # A tibble: 23 × 17
##    parent.pop elevation.group elev_m cwd_gowers ppt_gowers tmn_gowers tmx_gowers
##    <chr>      <chr>            <dbl>      <dbl>      <dbl>      <dbl>      <dbl>
##  1 BH         Low               511.     0.0686     0.0947     0.0142     0.359 
##  2 CC         Low               313      0.106      0.432      0.304      0.536 
##  3 CP2        High             2244.     0.343      0.167      0.315      0.0400
##  4 CP3        High             2266.     0.0520     0.138      0.393      0.142 
##  5 DPR        Mid              1019.     0.407      0.352      0.371      0.654 
##  6 FR         Mid               787      0.586      0.0331     0.144      0.782 
##  7 IH         Low               454.     0.238      0.385      0.238      0.566 
##  8 LV1        High             2593.     0.182      0.121      0.528      0.0542
##  9 LV3        High             2354.     0.0183     0.112      0.533      0.0526
## 10 LVTR1      High             2741.     0.319      0.152      0.571      0.0702
## # ℹ 13 more rows
## # ℹ 10 more variables: ann_tmean_gowers <dbl>, mean_diurnal_range_gowers <dbl>,
## #   temp_seasonality_gowers <dbl>, temp_ann_range_gowers <dbl>,
## #   tmean_wettest_month_gowers <dbl>, tmean_driest_month_gowers <dbl>,
## #   ann_ppt_gowers <dbl>, ppt_seasonality_gowers <dbl>,
## #   ppt_warmest_month_gowers <dbl>, ppt_coldest_month_gowers <dbl>
```
…
gowers_calc_per_pop_recent
```

```
## # A tibble: 23 × 4
##    parent.pop elevation.group elev_m Recent_Gowers_Dist
##    <chr>      <chr>            <dbl>              <dbl>
##  1 BH         Low               511.              0.264
##  2 CC         Low               313               0.400
##  3 CP2        High             2244.              0.314
##  4 CP3        High             2266.              0.314
##  5 DPR        Mid              1019.              0.446
##  6 FR         Mid               787               0.420
##  7 IH         Low               454.              0.428
##  8 LV1        High             2593.              0.344
##  9 LV3        High             2354.              0.333
## 10 LVTR1      High             2741.              0.380
## # ℹ 13 more rows
```
…
gowers_calc_per_pop_historic <- gowers_calc_each_var_historic %>% 
  mutate(Historic_Gowers_Dist=(1/14)*(cwd_gowers + ppt_gowers + tmn_gowers + tmx_gowers +
                                ann_tmean_gowers + mean_diurnal_range_gowers +
                                temp_seasonality_gowers +temp_ann_range_gowers +
                                tmean_wettest_month_gowers +
                                tmean_driest_month_gowers +ann_ppt_gowers +
                                ppt_seasonality_gowers + ppt_warmest_month_gowers +
                                ppt_coldest_month_gowers)) %>% 
  dplyr::select(parent.pop, elevation.group, elev_m, Historic_Gowers_Dist)

gowers_calc_per_pop_historic
```

```
## # A tibble: 23 × 4
##    parent.pop elevation.group elev_m Historic_Gowers_Dist
##    <chr>      <chr>            <dbl>                <dbl>
##  1 BH         Low               511.                0.261
##  2 CC         Low               313                 0.363
##  3 CP2        High             2244.                0.272
##  4 CP3        High             2266.                0.239
##  5 DPR        Mid              1019.                0.433
##  6 FR         Mid               787                 0.395
##  7 IH         Low               454.                0.417
##  8 LV1        High             2593.                0.497
##  9 LV3        High             2354.                0.506
## 10 LVTR1      High             2741.                0.523
## # ℹ 13 more rows
```
…
``` r
gowers_all_time <- full_join(gowers_calc_per_pop_recent, gowers_calc_per_pop_historic)
```

```
## Joining with `by = join_by(parent.pop, elevation.group, elev_m)`
```

``` r
gowers_all_time
```

```
## # A tibble: 23 × 5
##    parent.pop elevation.group elev_m Recent_Gowers_Dist Historic_Gowers_Dist
##    <chr>      <chr>            <dbl>              <dbl>                <dbl>
##  1 BH         Low               511.              0.264                0.261
##  2 CC         Low               313               0.400                0.363
##  3 CP2        High             2244.              0.314                0.272
##  4 CP3        High             2266.              0.314                0.239
##  5 DPR        Mid              1019.              0.446                0.433
##  6 FR         Mid               787               0.420                0.395
##  7 IH         Low               454.              0.428                0.417
##  8 LV1        High             2593.              0.344                0.497
##  9 LV3        High             2354.              0.333                0.506
## 10 LVTR1      High             2741.              0.380                0.523
## # ℹ 13 more rows
```
…
gowers_calc_per_pop_recent_flint <- gowers_calc_each_var_recent_flint %>% 
  mutate(Recent_Gowers_Dist=(1/4)*(cwd_gowers + ppt_gowers + tmn_gowers + tmx_gowers)) %>% 
  dplyr::select(parent.pop, elevation.group, elev_m, Recent_Gowers_Dist)

gowers_calc_per_pop_recent_flint
```

```
## # A tibble: 23 × 4
##    parent.pop elevation.group elev_m Recent_Gowers_Dist
##    <chr>      <chr>            <dbl>              <dbl>
##  1 BH         Low               511.              0.134
##  2 CC         Low               313               0.344
##  3 CP2        High             2244.              0.216
##  4 CP3        High             2266.              0.181
##  5 DPR        Mid              1019.              0.446
##  6 FR         Mid               787               0.386
##  7 IH         Low               454.              0.357
##  8 LV1        High             2593.              0.221
##  9 LV3        High             2354.              0.179
## 10 LVTR1      High             2741.              0.278
## # ℹ 13 more rows
```
…
  
gowers_calc_per_pop_historic_flint <- gowers_calc_each_var_historic_flint %>% 
  mutate(Historic_Gowers_Dist=(1/4)*(cwd_gowers + ppt_gowers + tmn_gowers + tmx_gowers)) %>% 
  dplyr::select(parent.pop, elevation.group, elev_m, Historic_Gowers_Dist)

gowers_calc_per_pop_historic_flint
```

```
## # A tibble: 23 × 4
##    parent.pop elevation.group elev_m Historic_Gowers_Dist
##    <chr>      <chr>            <dbl>                <dbl>
##  1 BH         Low               511.                0.117
##  2 CC         Low               313                 0.252
##  3 CP2        High             2244.                0.213
##  4 CP3        High             2266.                0.114
##  5 DPR        Mid              1019.                0.356
##  6 FR         Mid               787                 0.323
##  7 IH         Low               454.                0.287
##  8 LV1        High             2593.                0.463
##  9 LV3        High             2354.                0.502
## 10 LVTR1      High             2741.                0.509
## # ℹ 13 more rows
```
…
``` r
gowers_all_time_flint <- full_join(gowers_calc_per_pop_recent_flint, gowers_calc_per_pop_historic_flint)
```

```
## Joining with `by = join_by(parent.pop, elevation.group, elev_m)`
```

``` r
gowers_all_time_flint
```

```
## # A tibble: 23 × 5
##    parent.pop elevation.group elev_m Recent_Gowers_Dist Historic_Gowers_Dist
##    <chr>      <chr>            <dbl>              <dbl>                <dbl>
##  1 BH         Low               511.              0.134                0.117
##  2 CC         Low               313               0.344                0.252
##  3 CP2        High             2244.              0.216                0.213
##  4 CP3        High             2266.              0.181                0.114
##  5 DPR        Mid              1019.              0.446                0.356
##  6 FR         Mid               787               0.386                0.323
##  7 IH         Low               454.              0.357                0.287
##  8 LV1        High             2593.              0.221                0.463
##  9 LV3        High             2354.              0.179                0.502
## 10 LVTR1      High             2741.              0.278                0.509
## # ℹ 13 more rows
```
…
gowers_calc_per_pop_recent_bioclim <- gowers_calc_each_var_recent_bioclim %>% 
  mutate(Recent_Gowers_Dist=(1/10)*(ann_tmean_gowers + mean_diurnal_range_gowers +
                                temp_seasonality_gowers +temp_ann_range_gowers +
                                tmean_wettest_month_gowers +
                                tmean_driest_month_gowers +ann_ppt_gowers +
                                ppt_seasonality_gowers + ppt_warmest_month_gowers +
                                ppt_coldest_month_gowers)) %>% 
  dplyr::select(parent.pop, elevation.group, elev_m, Recent_Gowers_Dist)

gowers_calc_per_pop_recent_bioclim
```

```
## # A tibble: 23 × 4
##    parent.pop elevation.group elev_m Recent_Gowers_Dist
##    <chr>      <chr>            <dbl>              <dbl>
##  1 BH         Low               511.              0.315
##  2 CC         Low               313               0.422
##  3 CP2        High             2244.              0.353
##  4 CP3        High             2266.              0.367
##  5 DPR        Mid              1019.              0.446
##  6 FR         Mid               787               0.434
##  7 IH         Low               454.              0.456
##  8 LV1        High             2593.              0.394
##  9 LV3        High             2354.              0.394
## 10 LVTR1      High             2741.              0.421
## # ℹ 13 more rows
```
…
  
gowers_calc_per_pop_historic_bioclim <- gowers_calc_each_var_historic_bioclim %>% 
  mutate(Historic_Gowers_Dist=(1/10)*(ann_tmean_gowers + mean_diurnal_range_gowers +
                                temp_seasonality_gowers +temp_ann_range_gowers +
                                tmean_wettest_month_gowers +
                                tmean_driest_month_gowers +ann_ppt_gowers +
                                ppt_seasonality_gowers + ppt_warmest_month_gowers +
                                ppt_coldest_month_gowers)) %>% 
  dplyr::select(parent.pop, elevation.group, elev_m, Historic_Gowers_Dist)

gowers_calc_per_pop_historic_bioclim
```

```
## # A tibble: 23 × 4
##    parent.pop elevation.group elev_m Historic_Gowers_Dist
##    <chr>      <chr>            <dbl>                <dbl>
##  1 BH         Low               511.                0.318
##  2 CC         Low               313                 0.407
##  3 CP2        High             2244.                0.296
##  4 CP3        High             2266.                0.289
##  5 DPR        Mid              1019.                0.463
##  6 FR         Mid               787                 0.424
##  7 IH         Low               454.                0.469
##  8 LV1        High             2593.                0.510
##  9 LV3        High             2354.                0.507
## 10 LVTR1      High             2741.                0.529
## # ℹ 13 more rows
```
…
``` r
gowers_all_time_bioclim <- full_join(gowers_calc_per_pop_recent_bioclim, gowers_calc_per_pop_historic_bioclim)
```

```
## Joining with `by = join_by(parent.pop, elevation.group, elev_m)`
```

``` r
gowers_all_time_bioclim
```

```
## # A tibble: 23 × 5
##    parent.pop elevation.group elev_m Recent_Gowers_Dist Historic_Gowers_Dist
##    <chr>      <chr>            <dbl>              <dbl>                <dbl>
##  1 BH         Low               511.              0.315                0.318
##  2 CC         Low               313               0.422                0.407
##  3 CP2        High             2244.              0.353                0.296
##  4 CP3        High             2266.              0.367                0.289
##  5 DPR        Mid              1019.              0.446                0.463
##  6 FR         Mid               787               0.434                0.424
##  7 IH         Low               454.              0.456                0.469
##  8 LV1        High             2593.              0.394                0.510
##  9 LV3        High             2354.              0.394                0.507
## 10 LVTR1      High             2741.              0.421                0.529
## # ℹ 13 more rows
```
…
```
## # A tibble: 23 × 13
##    parent.pop elevation.group elev_m ann_tmean_dist mean_diurnal_range_dist
##    <chr>      <chr>            <dbl>          <dbl>                   <dbl>
##  1 BH         Low               511.          -1.34                   -2.90
##  2 CC         Low               313           -3.22                   -1.90
##  3 CP2        High             2244.           1.33                   -2.04
##  4 CP3        High             2266.           2.02                   -1.83
##  5 DPR        Mid              1019.          -3.93                   -2.31
##  6 FR         Mid               787           -3.58                   -5.00
##  7 IH         Low               454.          -3.09                   -2.62
##  8 LV1        High             2593.           2.18                   -3.52
##  9 LV3        High             2354.           2.20                   -3.57
## 10 LVTR1      High             2741.           2.40                   -3.72
## # ℹ 13 more rows
## # ℹ 8 more variables: temp_seasonality_dist <dbl>, temp_ann_range_dist <dbl>,
## #   tmean_wettest_month_dist <dbl>, tmean_driest_month_dist <dbl>,
## #   ann_ppt_dist <dbl>, ppt_seasonality_dist <dbl>,
## #   ppt_warmest_month_dist <dbl>, ppt_coldest_month_dist <dbl>
```
…
```
## # A tibble: 23 × 13
##    parent.pop elevation.group elev_m ann_tmean_dist mean_diurnal_range_dist
##    <chr>      <chr>            <dbl>          <dbl>                   <dbl>
##  1 BH         Low               511.         -0.404                   -3.18
##  2 CC         Low               313          -1.08                    -2.04
##  3 CP2        High             2244.          0.746                   -3.12
##  4 CP3        High             2266.          1.38                    -2.74
##  5 DPR        Mid              1019.         -3.55                    -3.66
##  6 FR         Mid               787          -3.00                    -6.27
##  7 IH         Low               454.         -2.40                    -3.24
##  8 LV1        High             2593.          5.20                    -4.51
##  9 LV3        High             2354.          5.22                    -4.56
## 10 LVTR1      High             2741.          5.37                    -4.53
## # ℹ 13 more rows
## # ℹ 8 more variables: temp_seasonality_dist <dbl>, temp_ann_range_dist <dbl>,
## #   tmean_wettest_month_dist <dbl>, tmean_driest_month_dist <dbl>,
## #   ann_ppt_dist <dbl>, ppt_seasonality_dist <dbl>,
## #   ppt_warmest_month_dist <dbl>, ppt_coldest_month_dist <dbl>
```
…
